EESchema Schematic File Version 4
EELAYER 30 0
EELAYER END
$Descr A4 11693 8268
encoding utf-8
Sheet 1 1
Title ""
Date ""
Rev ""
Comp ""
Comment1 ""
Comment2 ""
Comment3 ""
Comment4 ""
$EndDescr
$Comp
L kahiwi:RJ45-CAN J2UPLINK1
U 1 1 60FF1757
P 1950 1400
F 0 "J2UPLINK1" H 1893 783 50  0000 C CNN
F 1 "RJ45-CAN" H 1893 874 50  0000 C CNN
F 2 "Connector_RJ:RJ45_OST_PJ012-8P8CX_Vertical" V 1950 1425 50  0001 C CNN
F 3 "~" V 1950 1425 50  0001 C CNN
	1    1950 1400
	-1   0    0    1   
$EndComp
$Comp
L kahiwi:RJ45-CAN J3
U 1 1 60FF5013
P 2250 2500
F 0 "J3" V 2239 2020 50  0000 R CNN
F 1 "RJ45-CAN" V 2148 2020 50  0000 R CNN
F 2 "Connector_RJ:RJ45_OST_PJ012-8P8CX_Vertical" V 2250 2525 50  0001 C CNN
F 3 "~" V 2250 2525 50  0001 C CNN
	1    2250 2500
	0    -1   -1   0   
$EndComp
$Comp
L kahiwi:WAGO250-205 J1
U 1 1 6100581C
P 900 1950
F 0 "J1" H 958 2375 50  0000 C CNN
F 1 "WAGO250-205" H 958 2284 50  0000 C CNN
F 2 "kahiwi:WAGO250-205" H 900 1550 50  0001 C CNN
F 3 "https://cdn-reichelt.de/documents/datenblatt/C151/WAGO250-20X.pdf" H 1100 2000 50  0001 C CNN
	1    900  1950
	1    0    0    -1  
$EndComp
$Comp
L power:GND #PWR0101
U 1 1 6100663D
P 2350 1750
F 0 "#PWR0101" H 2350 1500 50  0001 C CNN
F 1 "GND" H 2355 1577 50  0000 C CNN
F 2 "" H 2350 1750 50  0001 C CNN
F 3 "" H 2350 1750 50  0001 C CNN
	1    2350 1750
	0    -1   -1   0   
$EndComp
$Comp
L power:GND #PWR0102
U 1 1 61006908
P 2350 1050
F 0 "#PWR0102" H 2350 800 50  0001 C CNN
F 1 "GND" H 2355 877 50  0000 C CNN
F 2 "" H 2350 1050 50  0001 C CNN
F 3 "" H 2350 1050 50  0001 C CNN
	1    2350 1050
	0    -1   -1   0   
$EndComp
$Comp
L power:GND #PWR0103
U 1 1 6101591D
P 2600 2900
F 0 "#PWR0103" H 2600 2650 50  0001 C CNN
F 1 "GND" H 2605 2727 50  0000 C CNN
F 2 "" H 2600 2900 50  0001 C CNN
F 3 "" H 2600 2900 50  0001 C CNN
	1    2600 2900
	1    0    0    -1  
$EndComp
$Comp
L power:GND #PWR0104
U 1 1 61015C4B
P 1900 2900
F 0 "#PWR0104" H 1900 2650 50  0001 C CNN
F 1 "GND" H 1905 2727 50  0000 C CNN
F 2 "" H 1900 2900 50  0001 C CNN
F 3 "" H 1900 2900 50  0001 C CNN
	1    1900 2900
	1    0    0    -1  
$EndComp
$Comp
L power:+12V #PWR0105
U 1 1 61015FFC
P 2350 1650
F 0 "#PWR0105" H 2350 1500 50  0001 C CNN
F 1 "+12V" H 2365 1823 50  0000 C CNN
F 2 "" H 2350 1650 50  0001 C CNN
F 3 "" H 2350 1650 50  0001 C CNN
	1    2350 1650
	0    1    1    0   
$EndComp
$Comp
L power:+12V #PWR0106
U 1 1 6101633B
P 2000 2900
F 0 "#PWR0106" H 2000 2750 50  0001 C CNN
F 1 "+12V" H 2015 3073 50  0000 C CNN
F 2 "" H 2000 2900 50  0001 C CNN
F 3 "" H 2000 2900 50  0001 C CNN
	1    2000 2900
	-1   0    0    1   
$EndComp
$Comp
L power:+5V #PWR0107
U 1 1 610168E0
P 2350 1150
F 0 "#PWR0107" H 2350 1000 50  0001 C CNN
F 1 "+5V" H 2365 1323 50  0000 C CNN
F 2 "" H 2350 1150 50  0001 C CNN
F 3 "" H 2350 1150 50  0001 C CNN
	1    2350 1150
	0    1    1    0   
$EndComp
$Comp
L power:+5V #PWR0108
U 1 1 61016CE7
P 2500 2900
F 0 "#PWR0108" H 2500 2750 50  0001 C CNN
F 1 "+5V" H 2515 3073 50  0000 C CNN
F 2 "" H 2500 2900 50  0001 C CNN
F 3 "" H 2500 2900 50  0001 C CNN
	1    2500 2900
	-1   0    0    1   
$EndComp
$Comp
L kahiwi:RJ45-CAN J4
U 1 1 6101DF43
P 3500 1350
F 0 "J4" V 3489 870 50  0000 R CNN
F 1 "RJ45-CAN" V 3398 870 50  0000 R CNN
F 2 "Connector_RJ:RJ45_OST_PJ012-8P8CX_Vertical" V 3500 1375 50  0001 C CNN
F 3 "~" V 3500 1375 50  0001 C CNN
	1    3500 1350
	0    -1   -1   0   
$EndComp
$Comp
L power:GND #PWR0109
U 1 1 6101E05F
P 3150 1750
F 0 "#PWR0109" H 3150 1500 50  0001 C CNN
F 1 "GND" H 3155 1577 50  0000 C CNN
F 2 "" H 3150 1750 50  0001 C CNN
F 3 "" H 3150 1750 50  0001 C CNN
	1    3150 1750
	1    0    0    -1  
$EndComp
$Comp
L power:GND #PWR0110
U 1 1 6101E069
P 3850 1750
F 0 "#PWR0110" H 3850 1500 50  0001 C CNN
F 1 "GND" H 3855 1577 50  0000 C CNN
F 2 "" H 3850 1750 50  0001 C CNN
F 3 "" H 3850 1750 50  0001 C CNN
	1    3850 1750
	1    0    0    -1  
$EndComp
$Comp
L power:+12V #PWR0111
U 1 1 6101E073
P 3250 1750
F 0 "#PWR0111" H 3250 1600 50  0001 C CNN
F 1 "+12V" H 3265 1923 50  0000 C CNN
F 2 "" H 3250 1750 50  0001 C CNN
F 3 "" H 3250 1750 50  0001 C CNN
	1    3250 1750
	-1   0    0    1   
$EndComp
$Comp
L power:+5V #PWR0112
U 1 1 6101E07D
P 3750 1750
F 0 "#PWR0112" H 3750 1600 50  0001 C CNN
F 1 "+5V" H 3765 1923 50  0000 C CNN
F 2 "" H 3750 1750 50  0001 C CNN
F 3 "" H 3750 1750 50  0001 C CNN
	1    3750 1750
	-1   0    0    1   
$EndComp
$Comp
L kahiwi:RJ45-CAN J5
U 1 1 61020E3C
P 3500 2500
F 0 "J5" V 3489 2020 50  0000 R CNN
F 1 "RJ45-CAN" V 3398 2020 50  0000 R CNN
F 2 "Connector_RJ:RJ45_OST_PJ012-8P8CX_Vertical" V 3500 2525 50  0001 C CNN
F 3 "~" V 3500 2525 50  0001 C CNN
	1    3500 2500
	0    -1   -1   0   
$EndComp
$Comp
L power:GND #PWR0113
U 1 1 61020E42
P 3150 2900
F 0 "#PWR0113" H 3150 2650 50  0001 C CNN
F 1 "GND" H 3155 2727 50  0000 C CNN
F 2 "" H 3150 2900 50  0001 C CNN
F 3 "" H 3150 2900 50  0001 C CNN
	1    3150 2900
	1    0    0    -1  
$EndComp
$Comp
L power:GND #PWR0114
U 1 1 61020E48
P 3850 2900
F 0 "#PWR0114" H 3850 2650 50  0001 C CNN
F 1 "GND" H 3855 2727 50  0000 C CNN
F 2 "" H 3850 2900 50  0001 C CNN
F 3 "" H 3850 2900 50  0001 C CNN
	1    3850 2900
	1    0    0    -1  
$EndComp
$Comp
L power:+12V #PWR0115
U 1 1 61020E4E
P 3250 2900
F 0 "#PWR0115" H 3250 2750 50  0001 C CNN
F 1 "+12V" H 3265 3073 50  0000 C CNN
F 2 "" H 3250 2900 50  0001 C CNN
F 3 "" H 3250 2900 50  0001 C CNN
	1    3250 2900
	-1   0    0    1   
$EndComp
$Comp
L power:+5V #PWR0116
U 1 1 61020E54
P 3750 2900
F 0 "#PWR0116" H 3750 2750 50  0001 C CNN
F 1 "+5V" H 3765 3073 50  0000 C CNN
F 2 "" H 3750 2900 50  0001 C CNN
F 3 "" H 3750 2900 50  0001 C CNN
	1    3750 2900
	-1   0    0    1   
$EndComp
$Comp
L kahiwi:RJ45-CAN J6
U 1 1 61033109
P 4800 1350
F 0 "J6" V 4789 870 50  0000 R CNN
F 1 "RJ45-CAN" V 4698 870 50  0000 R CNN
F 2 "Connector_RJ:RJ45_OST_PJ012-8P8CX_Vertical" V 4800 1375 50  0001 C CNN
F 3 "~" V 4800 1375 50  0001 C CNN
	1    4800 1350
	0    -1   -1   0   
$EndComp
$Comp
L kahiwi:RJ45-CAN J7
U 1 1 6103310F
P 4800 2500
F 0 "J7" V 4789 2020 50  0000 R CNN
F 1 "RJ45-CAN" V 4698 2020 50  0000 R CNN
F 2 "Connector_RJ:RJ45_OST_PJ012-8P8CX_Vertical" V 4800 2525 50  0001 C CNN
F 3 "~" V 4800 2525 50  0001 C CNN
	1    4800 2500
	0    -1   -1   0   
$EndComp
$Comp
L power:GND #PWR0117
U 1 1 61033115
P 4450 1750
F 0 "#PWR0117" H 4450 1500 50  0001 C CNN
F 1 "GND" H 4455 1577 50  0000 C CNN
F 2 "" H 4450 1750 50  0001 C CNN
F 3 "" H 4450 1750 50  0001 C CNN
	1    4450 1750
	1    0    0    -1  
$EndComp
$Comp
L power:GND #PWR0118
U 1 1 6103311B
P 5150 1750
F 0 "#PWR0118" H 5150 1500 50  0001 C CNN
F 1 "GND" H 5155 1577 50  0000 C CNN
F 2 "" H 5150 1750 50  0001 C CNN
F 3 "" H 5150 1750 50  0001 C CNN
	1    5150 1750
	1    0    0    -1  
$EndComp
$Comp
L power:GND #PWR0119
U 1 1 61033121
P 5150 2900
F 0 "#PWR0119" H 5150 2650 50  0001 C CNN
F 1 "GND" H 5155 2727 50  0000 C CNN
F 2 "" H 5150 2900 50  0001 C CNN
F 3 "" H 5150 2900 50  0001 C CNN
	1    5150 2900
	1    0    0    -1  
$EndComp
$Comp
L power:GND #PWR0120
U 1 1 61033127
P 4450 2900
F 0 "#PWR0120" H 4450 2650 50  0001 C CNN
F 1 "GND" H 4455 2727 50  0000 C CNN
F 2 "" H 4450 2900 50  0001 C CNN
F 3 "" H 4450 2900 50  0001 C CNN
	1    4450 2900
	1    0    0    -1  
$EndComp
$Comp
L power:+12V #PWR0121
U 1 1 6103312D
P 4550 1750
F 0 "#PWR0121" H 4550 1600 50  0001 C CNN
F 1 "+12V" H 4565 1923 50  0000 C CNN
F 2 "" H 4550 1750 50  0001 C CNN
F 3 "" H 4550 1750 50  0001 C CNN
	1    4550 1750
	-1   0    0    1   
$EndComp
$Comp
L power:+12V #PWR0122
U 1 1 61033133
P 4550 2900
F 0 "#PWR0122" H 4550 2750 50  0001 C CNN
F 1 "+12V" H 4565 3073 50  0000 C CNN
F 2 "" H 4550 2900 50  0001 C CNN
F 3 "" H 4550 2900 50  0001 C CNN
	1    4550 2900
	-1   0    0    1   
$EndComp
$Comp
L power:+5V #PWR0123
U 1 1 61033139
P 5050 1750
F 0 "#PWR0123" H 5050 1600 50  0001 C CNN
F 1 "+5V" H 5065 1923 50  0000 C CNN
F 2 "" H 5050 1750 50  0001 C CNN
F 3 "" H 5050 1750 50  0001 C CNN
	1    5050 1750
	-1   0    0    1   
$EndComp
$Comp
L power:+5V #PWR0124
U 1 1 6103313F
P 5050 2900
F 0 "#PWR0124" H 5050 2750 50  0001 C CNN
F 1 "+5V" H 5065 3073 50  0000 C CNN
F 2 "" H 5050 2900 50  0001 C CNN
F 3 "" H 5050 2900 50  0001 C CNN
	1    5050 2900
	-1   0    0    1   
$EndComp
$Comp
L kahiwi:RJ45-CAN J8
U 1 1 61033145
P 6100 1350
F 0 "J8" V 6089 870 50  0000 R CNN
F 1 "RJ45-CAN" V 5998 870 50  0000 R CNN
F 2 "Connector_RJ:RJ45_OST_PJ012-8P8CX_Vertical" V 6100 1375 50  0001 C CNN
F 3 "~" V 6100 1375 50  0001 C CNN
	1    6100 1350
	0    -1   -1   0   
$EndComp
$Comp
L power:GND #PWR0125
U 1 1 6103314B
P 5750 1750
F 0 "#PWR0125" H 5750 1500 50  0001 C CNN
F 1 "GND" H 5755 1577 50  0000 C CNN
F 2 "" H 5750 1750 50  0001 C CNN
F 3 "" H 5750 1750 50  0001 C CNN
	1    5750 1750
	1    0    0    -1  
$EndComp
$Comp
L power:GND #PWR0126
U 1 1 61033151
P 6450 1750
F 0 "#PWR0126" H 6450 1500 50  0001 C CNN
F 1 "GND" H 6455 1577 50  0000 C CNN
F 2 "" H 6450 1750 50  0001 C CNN
F 3 "" H 6450 1750 50  0001 C CNN
	1    6450 1750
	1    0    0    -1  
$EndComp
$Comp
L power:+12V #PWR0127
U 1 1 61033157
P 5850 1750
F 0 "#PWR0127" H 5850 1600 50  0001 C CNN
F 1 "+12V" H 5865 1923 50  0000 C CNN
F 2 "" H 5850 1750 50  0001 C CNN
F 3 "" H 5850 1750 50  0001 C CNN
	1    5850 1750
	-1   0    0    1   
$EndComp
$Comp
L power:+5V #PWR0128
U 1 1 6103315D
P 6350 1750
F 0 "#PWR0128" H 6350 1600 50  0001 C CNN
F 1 "+5V" H 6365 1923 50  0000 C CNN
F 2 "" H 6350 1750 50  0001 C CNN
F 3 "" H 6350 1750 50  0001 C CNN
	1    6350 1750
	-1   0    0    1   
$EndComp
$Comp
L kahiwi:RJ45-CAN J9
U 1 1 61033163
P 6100 2500
F 0 "J9" V 6089 2020 50  0000 R CNN
F 1 "RJ45-CAN" V 5998 2020 50  0000 R CNN
F 2 "Connector_RJ:RJ45_OST_PJ012-8P8CX_Vertical" V 6100 2525 50  0001 C CNN
F 3 "~" V 6100 2525 50  0001 C CNN
	1    6100 2500
	0    -1   -1   0   
$EndComp
$Comp
L power:GND #PWR0129
U 1 1 61033169
P 5750 2900
F 0 "#PWR0129" H 5750 2650 50  0001 C CNN
F 1 "GND" H 5755 2727 50  0000 C CNN
F 2 "" H 5750 2900 50  0001 C CNN
F 3 "" H 5750 2900 50  0001 C CNN
	1    5750 2900
	1    0    0    -1  
$EndComp
$Comp
L power:GND #PWR0130
U 1 1 6103316F
P 6450 2900
F 0 "#PWR0130" H 6450 2650 50  0001 C CNN
F 1 "GND" H 6455 2727 50  0000 C CNN
F 2 "" H 6450 2900 50  0001 C CNN
F 3 "" H 6450 2900 50  0001 C CNN
	1    6450 2900
	1    0    0    -1  
$EndComp
$Comp
L power:+12V #PWR0131
U 1 1 61033175
P 5850 2900
F 0 "#PWR0131" H 5850 2750 50  0001 C CNN
F 1 "+12V" H 5865 3073 50  0000 C CNN
F 2 "" H 5850 2900 50  0001 C CNN
F 3 "" H 5850 2900 50  0001 C CNN
	1    5850 2900
	-1   0    0    1   
$EndComp
$Comp
L power:+5V #PWR0132
U 1 1 6103317B
P 6350 2900
F 0 "#PWR0132" H 6350 2750 50  0001 C CNN
F 1 "+5V" H 6365 3073 50  0000 C CNN
F 2 "" H 6350 2900 50  0001 C CNN
F 3 "" H 6350 2900 50  0001 C CNN
	1    6350 2900
	-1   0    0    1   
$EndComp
$Comp
L kahiwi:RJ45-CAN J10
U 1 1 6103B145
P 7300 1350
F 0 "J10" V 7289 870 50  0000 R CNN
F 1 "RJ45-CAN" V 7198 870 50  0000 R CNN
F 2 "Connector_RJ:RJ45_OST_PJ012-8P8CX_Vertical" V 7300 1375 50  0001 C CNN
F 3 "~" V 7300 1375 50  0001 C CNN
	1    7300 1350
	0    -1   -1   0   
$EndComp
$Comp
L kahiwi:RJ45-CAN J11
U 1 1 6103B14B
P 7300 2500
F 0 "J11" V 7289 2020 50  0000 R CNN
F 1 "RJ45-CAN" V 7198 2020 50  0000 R CNN
F 2 "Connector_RJ:RJ45_OST_PJ012-8P8CX_Vertical" V 7300 2525 50  0001 C CNN
F 3 "~" V 7300 2525 50  0001 C CNN
	1    7300 2500
	0    -1   -1   0   
$EndComp
$Comp
L power:GND #PWR0133
U 1 1 6103B151
P 6950 1750
F 0 "#PWR0133" H 6950 1500 50  0001 C CNN
F 1 "GND" H 6955 1577 50  0000 C CNN
F 2 "" H 6950 1750 50  0001 C CNN
F 3 "" H 6950 1750 50  0001 C CNN
	1    6950 1750
	1    0    0    -1  
$EndComp
$Comp
L power:GND #PWR0134
U 1 1 6103B157
P 7650 1750
F 0 "#PWR0134" H 7650 1500 50  0001 C CNN
F 1 "GND" H 7655 1577 50  0000 C CNN
F 2 "" H 7650 1750 50  0001 C CNN
F 3 "" H 7650 1750 50  0001 C CNN
	1    7650 1750
	1    0    0    -1  
$EndComp
$Comp
L power:GND #PWR0135
U 1 1 6103B15D
P 7650 2900
F 0 "#PWR0135" H 7650 2650 50  0001 C CNN
F 1 "GND" H 7655 2727 50  0000 C CNN
F 2 "" H 7650 2900 50  0001 C CNN
F 3 "" H 7650 2900 50  0001 C CNN
	1    7650 2900
	1    0    0    -1  
$EndComp
$Comp
L power:GND #PWR0136
U 1 1 6103B163
P 6950 2900
F 0 "#PWR0136" H 6950 2650 50  0001 C CNN
F 1 "GND" H 6955 2727 50  0000 C CNN
F 2 "" H 6950 2900 50  0001 C CNN
F 3 "" H 6950 2900 50  0001 C CNN
	1    6950 2900
	1    0    0    -1  
$EndComp
$Comp
L power:+12V #PWR0137
U 1 1 6103B169
P 7050 1750
F 0 "#PWR0137" H 7050 1600 50  0001 C CNN
F 1 "+12V" H 7065 1923 50  0000 C CNN
F 2 "" H 7050 1750 50  0001 C CNN
F 3 "" H 7050 1750 50  0001 C CNN
	1    7050 1750
	-1   0    0    1   
$EndComp
$Comp
L power:+12V #PWR0138
U 1 1 6103B16F
P 7050 2900
F 0 "#PWR0138" H 7050 2750 50  0001 C CNN
F 1 "+12V" H 7065 3073 50  0000 C CNN
F 2 "" H 7050 2900 50  0001 C CNN
F 3 "" H 7050 2900 50  0001 C CNN
	1    7050 2900
	-1   0    0    1   
$EndComp
$Comp
L power:+5V #PWR0139
U 1 1 6103B175
P 7550 1750
F 0 "#PWR0139" H 7550 1600 50  0001 C CNN
F 1 "+5V" H 7565 1923 50  0000 C CNN
F 2 "" H 7550 1750 50  0001 C CNN
F 3 "" H 7550 1750 50  0001 C CNN
	1    7550 1750
	-1   0    0    1   
$EndComp
$Comp
L power:+5V #PWR0140
U 1 1 6103B17B
P 7550 2900
F 0 "#PWR0140" H 7550 2750 50  0001 C CNN
F 1 "+5V" H 7565 3073 50  0000 C CNN
F 2 "" H 7550 2900 50  0001 C CNN
F 3 "" H 7550 2900 50  0001 C CNN
	1    7550 2900
	-1   0    0    1   
$EndComp
$Comp
L kahiwi:RJ45-CAN J12
U 1 1 6103B181
P 8600 1350
F 0 "J12" V 8589 870 50  0000 R CNN
F 1 "RJ45-CAN" V 8498 870 50  0000 R CNN
F 2 "Connector_RJ:RJ45_OST_PJ012-8P8CX_Vertical" V 8600 1375 50  0001 C CNN
F 3 "~" V 8600 1375 50  0001 C CNN
	1    8600 1350
	0    -1   -1   0   
$EndComp
$Comp
L power:GND #PWR0141
U 1 1 6103B187
P 8250 1750
F 0 "#PWR0141" H 8250 1500 50  0001 C CNN
F 1 "GND" H 8255 1577 50  0000 C CNN
F 2 "" H 8250 1750 50  0001 C CNN
F 3 "" H 8250 1750 50  0001 C CNN
	1    8250 1750
	1    0    0    -1  
$EndComp
$Comp
L power:GND #PWR0142
U 1 1 6103B18D
P 8950 1750
F 0 "#PWR0142" H 8950 1500 50  0001 C CNN
F 1 "GND" H 8955 1577 50  0000 C CNN
F 2 "" H 8950 1750 50  0001 C CNN
F 3 "" H 8950 1750 50  0001 C CNN
	1    8950 1750
	1    0    0    -1  
$EndComp
$Comp
L power:+12V #PWR0143
U 1 1 6103B193
P 8350 1750
F 0 "#PWR0143" H 8350 1600 50  0001 C CNN
F 1 "+12V" H 8365 1923 50  0000 C CNN
F 2 "" H 8350 1750 50  0001 C CNN
F 3 "" H 8350 1750 50  0001 C CNN
	1    8350 1750
	-1   0    0    1   
$EndComp
$Comp
L power:+5V #PWR0144
U 1 1 6103B199
P 8850 1750
F 0 "#PWR0144" H 8850 1600 50  0001 C CNN
F 1 "+5V" H 8865 1923 50  0000 C CNN
F 2 "" H 8850 1750 50  0001 C CNN
F 3 "" H 8850 1750 50  0001 C CNN
	1    8850 1750
	-1   0    0    1   
$EndComp
$Comp
L kahiwi:RJ45-CAN J13
U 1 1 6103B19F
P 8600 2500
F 0 "J13" V 8589 2020 50  0000 R CNN
F 1 "RJ45-CAN" V 8498 2020 50  0000 R CNN
F 2 "Connector_RJ:RJ45_OST_PJ012-8P8CX_Vertical" V 8600 2525 50  0001 C CNN
F 3 "~" V 8600 2525 50  0001 C CNN
	1    8600 2500
	0    -1   -1   0   
$EndComp
$Comp
L power:GND #PWR0145
U 1 1 6103B1A5
P 8250 2900
F 0 "#PWR0145" H 8250 2650 50  0001 C CNN
F 1 "GND" H 8255 2727 50  0000 C CNN
F 2 "" H 8250 2900 50  0001 C CNN
F 3 "" H 8250 2900 50  0001 C CNN
	1    8250 2900
	1    0    0    -1  
$EndComp
$Comp
L power:GND #PWR0146
U 1 1 6103B1AB
P 8950 2900
F 0 "#PWR0146" H 8950 2650 50  0001 C CNN
F 1 "GND" H 8955 2727 50  0000 C CNN
F 2 "" H 8950 2900 50  0001 C CNN
F 3 "" H 8950 2900 50  0001 C CNN
	1    8950 2900
	1    0    0    -1  
$EndComp
$Comp
L power:+12V #PWR0147
U 1 1 6103B1B1
P 8350 2900
F 0 "#PWR0147" H 8350 2750 50  0001 C CNN
F 1 "+12V" H 8365 3073 50  0000 C CNN
F 2 "" H 8350 2900 50  0001 C CNN
F 3 "" H 8350 2900 50  0001 C CNN
	1    8350 2900
	-1   0    0    1   
$EndComp
$Comp
L power:+5V #PWR0148
U 1 1 6103B1B7
P 8850 2900
F 0 "#PWR0148" H 8850 2750 50  0001 C CNN
F 1 "+5V" H 8865 3073 50  0000 C CNN
F 2 "" H 8850 2900 50  0001 C CNN
F 3 "" H 8850 2900 50  0001 C CNN
	1    8850 2900
	-1   0    0    1   
$EndComp
$Comp
L power:GND #PWR0149
U 1 1 61059F6D
P 1100 1750
F 0 "#PWR0149" H 1100 1500 50  0001 C CNN
F 1 "GND" V 1105 1622 50  0000 R CNN
F 2 "" H 1100 1750 50  0001 C CNN
F 3 "" H 1100 1750 50  0001 C CNN
	1    1100 1750
	0    -1   -1   0   
$EndComp
$Comp
L power:GND #PWR0150
U 1 1 6105A7B4
P 1100 2050
F 0 "#PWR0150" H 1100 1800 50  0001 C CNN
F 1 "GND" V 1105 1922 50  0000 R CNN
F 2 "" H 1100 2050 50  0001 C CNN
F 3 "" H 1100 2050 50  0001 C CNN
	1    1100 2050
	0    -1   -1   0   
$EndComp
$Comp
L power:+12V #PWR0151
U 1 1 6105AB27
P 1100 1950
F 0 "#PWR0151" H 1100 1800 50  0001 C CNN
F 1 "+12V" V 1115 2078 50  0000 L CNN
F 2 "" H 1100 1950 50  0001 C CNN
F 3 "" H 1100 1950 50  0001 C CNN
	1    1100 1950
	0    1    1    0   
$EndComp
$Comp
L power:+5V #PWR0152
U 1 1 6105B3E1
P 1100 1850
F 0 "#PWR0152" H 1100 1700 50  0001 C CNN
F 1 "+5V" V 1115 1978 50  0000 L CNN
F 2 "" H 1100 1850 50  0001 C CNN
F 3 "" H 1100 1850 50  0001 C CNN
	1    1100 1850
	0    1    1    0   
$EndComp
Wire Wire Line
	2350 1250 3650 1250
Wire Wire Line
	3650 1250 3650 1750
Wire Wire Line
	2350 1550 3350 1550
Wire Wire Line
	3350 1550 3350 1750
Wire Wire Line
	3550 1750 3550 1950
Wire Wire Line
	3550 1950 4950 1950
Wire Wire Line
	4950 1950 4950 1750
Wire Wire Line
	3450 1750 3450 2000
Wire Wire Line
	3450 2000 4650 2000
Wire Wire Line
	4650 2000 4650 1750
Wire Wire Line
	4850 1750 4850 2000
Wire Wire Line
	4850 2000 6250 2000
Wire Wire Line
	6250 2000 6250 1750
Wire Wire Line
	4750 1750 4750 2050
Wire Wire Line
	4750 2050 5950 2050
Wire Wire Line
	5950 2050 5950 1750
Wire Wire Line
	6150 1750 6150 1950
Wire Wire Line
	6150 1950 7450 1950
Wire Wire Line
	7450 1950 7450 1750
Wire Wire Line
	6050 1750 6050 2050
Wire Wire Line
	6050 2050 7150 2050
Wire Wire Line
	7150 2050 7150 1750
Wire Wire Line
	7350 1750 7350 2000
Wire Wire Line
	7350 2000 8750 2000
Wire Wire Line
	8750 2000 8750 1750
Wire Wire Line
	7250 1750 7250 2050
Wire Wire Line
	7250 2050 8450 2050
Wire Wire Line
	8450 2050 8450 1750
Wire Wire Line
	8650 1750 8650 2100
Wire Wire Line
	8650 2100 8750 2100
Wire Wire Line
	8750 2100 8750 2900
Wire Wire Line
	8550 1750 8550 2100
Wire Wire Line
	8550 2100 8450 2100
Wire Wire Line
	8450 2100 8450 2900
Wire Wire Line
	8550 2900 8550 3150
Wire Wire Line
	8550 3150 7150 3150
Wire Wire Line
	7150 3150 7150 2900
Wire Wire Line
	8650 2900 8650 3200
Wire Wire Line
	8650 3200 7450 3200
Wire Wire Line
	7450 3200 7450 2900
Wire Wire Line
	7350 2900 7350 3200
Wire Wire Line
	7350 3200 6250 3200
Wire Wire Line
	6250 3200 6250 2900
Wire Wire Line
	7250 2900 7250 3250
Wire Wire Line
	7250 3250 5950 3250
Wire Wire Line
	5950 3250 5950 2900
Wire Wire Line
	6150 2900 6150 3150
Wire Wire Line
	6150 3150 4950 3150
Wire Wire Line
	4950 3150 4950 2900
Wire Wire Line
	6050 2900 6050 3200
Wire Wire Line
	6050 3200 4650 3200
Wire Wire Line
	4650 3200 4650 2900
Wire Wire Line
	4850 2900 4850 3150
Wire Wire Line
	4850 3150 3650 3150
Wire Wire Line
	3650 3150 3650 2900
Wire Wire Line
	4750 2900 4750 3250
Wire Wire Line
	4750 3250 3350 3250
Wire Wire Line
	3350 3250 3350 2900
Wire Wire Line
	3550 2900 3550 3150
Wire Wire Line
	3550 3150 2400 3150
Wire Wire Line
	2400 3150 2400 2900
Wire Wire Line
	3450 2900 3450 3200
Wire Wire Line
	3450 3200 2100 3200
Wire Wire Line
	2100 3200 2100 2900
Wire Wire Line
	2200 2900 2200 1450
Wire Wire Line
	2200 1450 2350 1450
Wire Wire Line
	2300 2900 2300 1350
Wire Wire Line
	2300 1350 2350 1350
$EndSCHEMATC
