EESchema Schematic File Version 4
EELAYER 30 0
EELAYER END
$Descr A4 11693 8268
encoding utf-8
Sheet 1 1
Title ""
Date ""
Rev ""
Comp ""
Comment1 ""
Comment2 ""
Comment3 ""
Comment4 ""
$EndDescr
$Comp
L Interface_CAN_LIN:MCP2562-E-SN U2
U 1 1 6040D403
P 2500 1250
F 0 "U2" H 2700 900 50  0000 L CNN
F 1 "MCP2562-E-SN" H 2700 800 50  0000 L CNN
F 2 "Package_SO:SOIC-8_3.9x4.9mm_P1.27mm" H 2500 750 50  0001 C CIN
F 3 "http://ww1.microchip.com/downloads/en/DeviceDoc/25167A.pdf" H 2500 1250 50  0001 C CNN
	1    2500 1250
	-1   0    0    1   
$EndComp
$Comp
L kahiwi:PESD2CAN U1
U 1 1 6040FF53
P 2100 1700
F 0 "U1" V 2200 1650 50  0000 L CNN
F 1 "PESD2CAN" V 2300 1600 50  0000 L CNN
F 2 "Package_TO_SOT_SMD:SOT-23" H 2100 1700 50  0001 C CNN
F 3 "" H 2100 1700 50  0001 C CNN
	1    2100 1700
	0    1    1    0   
$EndComp
$Comp
L Regulator_Linear:MCP1703A-3302_SOT89 U4
U 1 1 6041133C
P 4700 800
F 0 "U4" H 4700 1042 50  0000 C CNN
F 1 "MCP1703A-3302_SOT89" H 4700 951 50  0000 C CNN
F 2 "Package_TO_SOT_SMD:SOT-89-3_Handsoldering" H 4700 1000 50  0001 C CNN
F 3 "http://ww1.microchip.com/downloads/en/DeviceDoc/20005122B.pdf" H 4700 750 50  0001 C CNN
	1    4700 800 
	1    0    0    -1  
$EndComp
$Comp
L kahiwi:RJ45-CAN J7
U 1 1 60419BDC
P 1050 1300
F 0 "J7" V 1039 820 50  0000 R CNN
F 1 "RJ45-CAN" V 948 820 50  0000 R CNN
F 2 "Connector_RJ:RJ45_OST_PJ012-8P8CX_Vertical" V 1050 1325 50  0001 C CNN
F 3 "~" V 1050 1325 50  0001 C CNN
	1    1050 1300
	-1   0    0    -1  
$EndComp
$Comp
L Connector:Conn_01x03_Female J6
U 1 1 6046A6F9
P 7200 1700
F 0 "J6" V 7046 1848 50  0000 L CNN
F 1 "IRDA" V 7137 1848 50  0000 L CNN
F 2 "Connector_PinHeader_2.54mm:PinHeader_1x03_P2.54mm_Vertical" H 7200 1700 50  0001 C CNN
F 3 "~" H 7200 1700 50  0001 C CNN
	1    7200 1700
	0    1    1    0   
$EndComp
$Comp
L Device:C C7
U 1 1 604DF870
P 5200 950
F 0 "C7" H 5315 996 50  0000 L CNN
F 1 "10u" H 5315 905 50  0000 L CNN
F 2 "Capacitor_SMD:C_0805_2012Metric_Pad1.18x1.45mm_HandSolder" H 5238 800 50  0001 C CNN
F 3 "~" H 5200 950 50  0001 C CNN
	1    5200 950 
	1    0    0    -1  
$EndComp
$Comp
L Device:C C6
U 1 1 604E1CE9
P 4200 950
F 0 "C6" H 4315 996 50  0000 L CNN
F 1 "10u" H 4315 905 50  0000 L CNN
F 2 "Capacitor_SMD:C_0805_2012Metric_Pad1.18x1.45mm_HandSolder" H 4238 800 50  0001 C CNN
F 3 "~" H 4200 950 50  0001 C CNN
	1    4200 950 
	1    0    0    -1  
$EndComp
$Comp
L Device:C C8
U 1 1 604E22D2
P 5650 950
F 0 "C8" H 5765 996 50  0000 L CNN
F 1 "100n" H 5765 905 50  0000 L CNN
F 2 "Capacitor_SMD:C_0805_2012Metric_Pad1.18x1.45mm_HandSolder" H 5688 800 50  0001 C CNN
F 3 "~" H 5650 950 50  0001 C CNN
	1    5650 950 
	1    0    0    -1  
$EndComp
$Comp
L Device:C C4
U 1 1 604E2D06
P 3800 950
F 0 "C4" H 3915 996 50  0000 L CNN
F 1 "100n" H 3915 905 50  0000 L CNN
F 2 "Capacitor_SMD:C_0805_2012Metric_Pad1.18x1.45mm_HandSolder" H 3838 800 50  0001 C CNN
F 3 "~" H 3800 950 50  0001 C CNN
	1    3800 950 
	1    0    0    -1  
$EndComp
Wire Wire Line
	3800 800  4200 800 
Connection ~ 4200 800 
Wire Wire Line
	4200 800  4400 800 
Wire Wire Line
	3800 1100 4200 1100
Connection ~ 4200 1100
Wire Wire Line
	4200 1100 4700 1100
Connection ~ 4700 1100
Wire Wire Line
	4700 1100 5200 1100
Connection ~ 5200 1100
Wire Wire Line
	5200 1100 5650 1100
Wire Wire Line
	5650 800  5200 800 
Connection ~ 5200 800 
Wire Wire Line
	5200 800  5000 800 
$Comp
L power:GND #PWR0101
U 1 1 604E4C3B
P 4700 1100
F 0 "#PWR0101" H 4700 850 50  0001 C CNN
F 1 "GND" H 4705 927 50  0000 C CNN
F 2 "" H 4700 1100 50  0001 C CNN
F 3 "" H 4700 1100 50  0001 C CNN
	1    4700 1100
	1    0    0    -1  
$EndComp
$Comp
L power:+5V #PWR0102
U 1 1 604E550C
P 3800 800
F 0 "#PWR0102" H 3800 650 50  0001 C CNN
F 1 "+5V" H 3815 973 50  0000 C CNN
F 2 "" H 3800 800 50  0001 C CNN
F 3 "" H 3800 800 50  0001 C CNN
	1    3800 800 
	1    0    0    -1  
$EndComp
Connection ~ 3800 800 
$Comp
L power:+3V3 #PWR0103
U 1 1 604E61AE
P 5650 800
F 0 "#PWR0103" H 5650 650 50  0001 C CNN
F 1 "+3V3" H 5665 973 50  0000 C CNN
F 2 "" H 5650 800 50  0001 C CNN
F 3 "" H 5650 800 50  0001 C CNN
	1    5650 800 
	1    0    0    -1  
$EndComp
Connection ~ 5650 800 
$Comp
L Device:C C1
U 1 1 604F76B6
P 8000 1050
F 0 "C1" H 8115 1096 50  0000 L CNN
F 1 "100n" H 8115 1005 50  0000 L CNN
F 2 "Capacitor_SMD:C_0805_2012Metric_Pad1.18x1.45mm_HandSolder" H 8038 900 50  0001 C CNN
F 3 "~" H 8000 1050 50  0001 C CNN
	1    8000 1050
	1    0    0    -1  
$EndComp
$Comp
L power:GND #PWR0108
U 1 1 60504002
P 7850 1200
F 0 "#PWR0108" H 7850 950 50  0001 C CNN
F 1 "GND" H 7855 1027 50  0000 C CNN
F 2 "" H 7850 1200 50  0001 C CNN
F 3 "" H 7850 1200 50  0001 C CNN
	1    7850 1200
	1    0    0    -1  
$EndComp
$Comp
L power:+3V3 #PWR0109
U 1 1 6050637F
P 7850 900
F 0 "#PWR0109" H 7850 750 50  0001 C CNN
F 1 "+3V3" H 7865 1073 50  0000 C CNN
F 2 "" H 7850 900 50  0001 C CNN
F 3 "" H 7850 900 50  0001 C CNN
	1    7850 900 
	1    0    0    -1  
$EndComp
$Comp
L power:GND #PWR0112
U 1 1 605129A1
P 1450 1650
F 0 "#PWR0112" H 1450 1400 50  0001 C CNN
F 1 "GND" V 1450 1450 50  0000 C CNN
F 2 "" H 1450 1650 50  0001 C CNN
F 3 "" H 1450 1650 50  0001 C CNN
	1    1450 1650
	0    -1   1    0   
$EndComp
$Comp
L power:+5V #PWR0116
U 1 1 60519332
P 1450 1550
F 0 "#PWR0116" H 1450 1400 50  0001 C CNN
F 1 "+5V" V 1450 1750 50  0000 C CNN
F 2 "" H 1450 1550 50  0001 C CNN
F 3 "" H 1450 1550 50  0001 C CNN
	1    1450 1550
	0    1    -1   0   
$EndComp
$Comp
L power:+12V #PWR0118
U 1 1 6051ABFD
P 1900 800
F 0 "#PWR0118" H 1900 650 50  0001 C CNN
F 1 "+12V" V 1900 1000 50  0000 C CNN
F 2 "" H 1900 800 50  0001 C CNN
F 3 "" H 1900 800 50  0001 C CNN
	1    1900 800 
	0    1    -1   0   
$EndComp
$Comp
L power:+5V #PWR0120
U 1 1 6051BE2E
P 2500 1650
F 0 "#PWR0120" H 2500 1500 50  0001 C CNN
F 1 "+5V" V 2515 1778 50  0000 L CNN
F 2 "" H 2500 1650 50  0001 C CNN
F 3 "" H 2500 1650 50  0001 C CNN
	1    2500 1650
	-1   0    0    1   
$EndComp
$Comp
L power:GND #PWR0121
U 1 1 6051C48E
P 2500 850
F 0 "#PWR0121" H 2500 600 50  0001 C CNN
F 1 "GND" V 2505 722 50  0000 R CNN
F 2 "" H 2500 850 50  0001 C CNN
F 3 "" H 2500 850 50  0001 C CNN
	1    2500 850 
	-1   0    0    1   
$EndComp
$Comp
L power:+3V3 #PWR0122
U 1 1 6052284A
P 3000 1150
F 0 "#PWR0122" H 3000 1000 50  0001 C CNN
F 1 "+3V3" H 3015 1323 50  0000 C CNN
F 2 "" H 3000 1150 50  0001 C CNN
F 3 "" H 3000 1150 50  0001 C CNN
	1    3000 1150
	0    1    1    0   
$EndComp
$Comp
L power:GND #PWR0123
U 1 1 60566D22
P 1900 1950
F 0 "#PWR0123" H 1900 1700 50  0001 C CNN
F 1 "GND" V 1905 1822 50  0000 R CNN
F 2 "" H 1900 1950 50  0001 C CNN
F 3 "" H 1900 1950 50  0001 C CNN
	1    1900 1950
	1    0    0    -1  
$EndComp
$Comp
L Device:C C9
U 1 1 605B2319
P 2650 1650
F 0 "C9" H 2765 1696 50  0000 L CNN
F 1 "100n" H 2765 1605 50  0000 L CNN
F 2 "Capacitor_SMD:C_0805_2012Metric_Pad1.18x1.45mm_HandSolder" H 2688 1500 50  0001 C CNN
F 3 "~" H 2650 1650 50  0001 C CNN
	1    2650 1650
	0    -1   -1   0   
$EndComp
Connection ~ 2500 1650
$Comp
L power:GND #PWR0124
U 1 1 605B419A
P 2800 1650
F 0 "#PWR0124" H 2800 1400 50  0001 C CNN
F 1 "GND" H 2805 1477 50  0000 C CNN
F 2 "" H 2800 1650 50  0001 C CNN
F 3 "" H 2800 1650 50  0001 C CNN
	1    2800 1650
	0    -1   -1   0   
$EndComp
$Comp
L Device:C C10
U 1 1 605B5CFF
P 2650 850
F 0 "C10" H 2535 804 50  0000 R CNN
F 1 "100n" H 2535 895 50  0000 R CNN
F 2 "Capacitor_SMD:C_0805_2012Metric_Pad1.18x1.45mm_HandSolder" H 2688 700 50  0001 C CNN
F 3 "~" H 2650 850 50  0001 C CNN
	1    2650 850 
	0    1    1    0   
$EndComp
Connection ~ 2500 850 
$Comp
L power:+3V3 #PWR0125
U 1 1 605B86AA
P 2800 850
F 0 "#PWR0125" H 2800 700 50  0001 C CNN
F 1 "+3V3" H 2815 1023 50  0000 C CNN
F 2 "" H 2800 850 50  0001 C CNN
F 3 "" H 2800 850 50  0001 C CNN
	1    2800 850 
	0    1    1    0   
$EndComp
Text Label 9950 1850 0    50   ~ 0
CAN_RXD
Text Label 9950 1750 0    50   ~ 0
CAN_TXD
Text Label 3000 1350 0    50   ~ 0
CAN_RXD
Text Label 3000 1450 0    50   ~ 0
CAN_TXD
Text Label 1850 1350 2    50   ~ 0
CANH
Text Label 1850 1150 2    50   ~ 0
CANL
Wire Notes Line
	500  500  3500 500 
Wire Notes Line
	3500 2350 500  2350
Wire Notes Line
	3550 500  6100 500 
Wire Notes Line
	6100 500  6100 1450
Wire Notes Line
	6100 1450 3550 1450
Wire Notes Line
	3550 1450 3550 500 
Text Label 9950 1450 0    50   ~ 0
ONEWIRE-IRDA
$Comp
L power:GND #PWR0140
U 1 1 6087654E
P 7100 1500
F 0 "#PWR0140" H 7100 1250 50  0001 C CNN
F 1 "GND" H 7105 1327 50  0000 C CNN
F 2 "" H 7100 1500 50  0001 C CNN
F 3 "" H 7100 1500 50  0001 C CNN
	1    7100 1500
	-1   0    0    1   
$EndComp
$Comp
L power:+3V3 #PWR0143
U 1 1 6087AD95
P 7300 1500
F 0 "#PWR0143" H 7300 1350 50  0001 C CNN
F 1 "+3V3" H 7315 1673 50  0000 C CNN
F 2 "" H 7300 1500 50  0001 C CNN
F 3 "" H 7300 1500 50  0001 C CNN
	1    7300 1500
	1    0    0    -1  
$EndComp
$Comp
L Device:R R15
U 1 1 60886370
P 7300 950
F 0 "R15" H 7230 904 50  0000 R CNN
F 1 "4K7" H 7230 995 50  0000 R CNN
F 2 "Resistor_SMD:R_0805_2012Metric_Pad1.20x1.40mm_HandSolder" V 7230 950 50  0001 C CNN
F 3 "~" H 7300 950 50  0001 C CNN
	1    7300 950 
	-1   0    0    1   
$EndComp
$Comp
L power:+3V3 #PWR0144
U 1 1 6088EC57
P 7300 800
F 0 "#PWR0144" H 7300 650 50  0001 C CNN
F 1 "+3V3" H 7315 973 50  0000 C CNN
F 2 "" H 7300 800 50  0001 C CNN
F 3 "" H 7300 800 50  0001 C CNN
	1    7300 800 
	1    0    0    -1  
$EndComp
Wire Notes Line
	7600 1750 6150 1750
Wire Notes Line
	6150 1750 6150 500 
Wire Notes Line
	6150 500  7600 500 
Wire Notes Line
	7600 500  7600 1750
$Comp
L Connector:Conn_01x03_Female J5
U 1 1 60FB1AC0
P 6700 1700
F 0 "J5" V 6546 1848 50  0000 L CNN
F 1 "IRDA" V 6637 1848 50  0000 L CNN
F 2 "Connector_PinHeader_2.54mm:PinHeader_1x03_P2.54mm_Vertical" H 6700 1700 50  0001 C CNN
F 3 "~" H 6700 1700 50  0001 C CNN
	1    6700 1700
	0    1    1    0   
$EndComp
$Comp
L power:+3V3 #PWR0154
U 1 1 60FB20FD
P 6800 1500
F 0 "#PWR0154" H 6800 1350 50  0001 C CNN
F 1 "+3V3" H 6815 1673 50  0000 C CNN
F 2 "" H 6800 1500 50  0001 C CNN
F 3 "" H 6800 1500 50  0001 C CNN
	1    6800 1500
	1    0    0    -1  
$EndComp
$Comp
L power:GND #PWR0155
U 1 1 60FB25DA
P 6600 1500
F 0 "#PWR0155" H 6600 1250 50  0001 C CNN
F 1 "GND" H 6605 1327 50  0000 C CNN
F 2 "" H 6600 1500 50  0001 C CNN
F 3 "" H 6600 1500 50  0001 C CNN
	1    6600 1500
	-1   0    0    1   
$EndComp
Text Label 7150 950  2    50   ~ 0
ONEWIRE-IRDA
Wire Wire Line
	7150 950  7150 1100
Connection ~ 7150 1100
Wire Wire Line
	7150 1100 7200 1100
$Comp
L Device:R R27
U 1 1 60753A67
P 1000 750
F 0 "R27" V 793 750 50  0000 C CNN
F 1 "R" V 884 750 50  0000 C CNN
F 2 "Resistor_SMD:R_0805_2012Metric_Pad1.20x1.40mm_HandSolder" V 930 750 50  0001 C CNN
F 3 "~" H 1000 750 50  0001 C CNN
	1    1000 750 
	0    1    1    0   
$EndComp
Text Label 1150 750  0    50   ~ 0
CANH
Text Label 850  750  2    50   ~ 0
CANL
$Comp
L power:GND #PWR0162
U 1 1 611EE24A
P 3000 1050
F 0 "#PWR0162" H 3000 800 50  0001 C CNN
F 1 "GND" V 3005 922 50  0000 R CNN
F 2 "" H 3000 1050 50  0001 C CNN
F 3 "" H 3000 1050 50  0001 C CNN
	1    3000 1050
	0    -1   -1   0   
$EndComp
$Comp
L power:GND2 #PWR0113
U 1 1 611F0A05
P 1900 600
F 0 "#PWR0113" H 1900 350 50  0001 C CNN
F 1 "GND2" V 1900 400 50  0000 C CNN
F 2 "" H 1900 600 50  0001 C CNN
F 3 "" H 1900 600 50  0001 C CNN
	1    1900 600 
	0    -1   1    0   
$EndComp
Wire Wire Line
	7200 1500 7200 1100
Connection ~ 7200 1100
Wire Wire Line
	7200 1100 7300 1100
Wire Wire Line
	6700 1100 6700 1500
Wire Wire Line
	6700 1100 7150 1100
$Comp
L RF_Module:ESP32-WROOM-32 U3
U 1 1 615CF9B1
P 9350 2250
F 0 "U3" H 9350 3831 50  0000 C CNN
F 1 "ESP32-WROOM-32" H 9350 3740 50  0000 C CNN
F 2 "RF_Module:ESP32-WROOM-32" H 9350 750 50  0001 C CNN
F 3 "https://www.espressif.com/sites/default/files/documentation/esp32-wroom-32_datasheet_en.pdf" H 9050 2300 50  0001 C CNN
	1    9350 2250
	1    0    0    -1  
$EndComp
Text Label 9950 1150 0    50   ~ 0
TXD
Text Label 9950 1350 0    50   ~ 0
RXD
Text Label 8750 1050 2    50   ~ 0
EN
Text Label 9950 1050 0    50   ~ 0
BOOT0
$Comp
L Transistor_BJT:BC847 Q2
U 1 1 61636A50
P 8200 3050
F 0 "Q2" H 8391 3096 50  0000 L CNN
F 1 "BC847" H 8391 3005 50  0000 L CNN
F 2 "Package_TO_SOT_SMD:SOT-23" H 8400 2975 50  0001 L CIN
F 3 "http://www.infineon.com/dgdl/Infineon-BC847SERIES_BC848SERIES_BC849SERIES_BC850SERIES-DS-v01_01-en.pdf?fileId=db3a304314dca389011541d4630a1657" H 8200 3050 50  0001 L CNN
	1    8200 3050
	1    0    0    -1  
$EndComp
$Comp
L Transistor_BJT:BC847 Q1
U 1 1 61637368
P 8200 2500
F 0 "Q1" H 8391 2546 50  0000 L CNN
F 1 "BC847" H 8391 2455 50  0000 L CNN
F 2 "Package_TO_SOT_SMD:SOT-23" H 8400 2425 50  0001 L CIN
F 3 "http://www.infineon.com/dgdl/Infineon-BC847SERIES_BC848SERIES_BC849SERIES_BC850SERIES-DS-v01_01-en.pdf?fileId=db3a304314dca389011541d4630a1657" H 8200 2500 50  0001 L CNN
	1    8200 2500
	1    0    0    -1  
$EndComp
$Comp
L Connector:Conn_01x07_Male J3
U 1 1 6163870A
P 8150 1750
F 0 "J3" H 8258 2231 50  0000 C CNN
F 1 "Conn_01x07_Male" H 8258 2140 50  0000 C CNN
F 2 "Connector_PinHeader_2.54mm:PinHeader_1x07_P2.54mm_Vertical" H 8150 1750 50  0001 C CNN
F 3 "~" H 8150 1750 50  0001 C CNN
	1    8150 1750
	0    1    1    0   
$EndComp
$Comp
L Device:R R1
U 1 1 6163B56A
P 7850 2500
F 0 "R1" V 7643 2500 50  0000 C CNN
F 1 "10K" V 7734 2500 50  0000 C CNN
F 2 "Resistor_SMD:R_0805_2012Metric_Pad1.20x1.40mm_HandSolder" V 7780 2500 50  0001 C CNN
F 3 "~" H 7850 2500 50  0001 C CNN
	1    7850 2500
	0    1    1    0   
$EndComp
Text Label 8300 2300 2    50   ~ 0
EN
Text Label 8300 2700 2    50   ~ 0
RTS
Text Label 8300 2850 0    50   ~ 0
DTR
Text Label 8300 3250 0    50   ~ 0
BOOT0
$Comp
L Device:R R2
U 1 1 6164B0AE
P 7850 3050
F 0 "R2" V 7643 3050 50  0000 C CNN
F 1 "10K" V 7734 3050 50  0000 C CNN
F 2 "Resistor_SMD:R_0805_2012Metric_Pad1.20x1.40mm_HandSolder" V 7780 3050 50  0001 C CNN
F 3 "~" H 7850 3050 50  0001 C CNN
	1    7850 3050
	0    1    1    0   
$EndComp
$Comp
L Device:R R3
U 1 1 6164B62E
P 8300 3400
F 0 "R3" V 8093 3400 50  0000 C CNN
F 1 "10K" V 8184 3400 50  0000 C CNN
F 2 "Resistor_SMD:R_0805_2012Metric_Pad1.20x1.40mm_HandSolder" V 8230 3400 50  0001 C CNN
F 3 "~" H 8300 3400 50  0001 C CNN
	1    8300 3400
	-1   0    0    1   
$EndComp
$Comp
L power:+3V3 #PWR0106
U 1 1 61653EA1
P 8300 3550
F 0 "#PWR0106" H 8300 3400 50  0001 C CNN
F 1 "+3V3" H 8315 3723 50  0000 C CNN
F 2 "" H 8300 3550 50  0001 C CNN
F 3 "" H 8300 3550 50  0001 C CNN
	1    8300 3550
	-1   0    0    1   
$EndComp
Text Label 7700 3050 2    50   ~ 0
RTS
Text Label 7700 2500 2    50   ~ 0
DTR
Text Label 8450 1950 3    50   ~ 0
DTR
Text Label 8350 1950 3    50   ~ 0
RXD
Text Label 8250 1950 3    50   ~ 0
TXD
$Comp
L power:+3V3 #PWR0107
U 1 1 6165A0C4
P 8150 1950
F 0 "#PWR0107" H 8150 1800 50  0001 C CNN
F 1 "+3V3" H 8165 2123 50  0000 C CNN
F 2 "" H 8150 1950 50  0001 C CNN
F 3 "" H 8150 1950 50  0001 C CNN
	1    8150 1950
	-1   0    0    1   
$EndComp
$Comp
L power:GND #PWR0111
U 1 1 6165AF81
P 7950 1950
F 0 "#PWR0111" H 7950 1700 50  0001 C CNN
F 1 "GND" V 7955 1822 50  0000 R CNN
F 2 "" H 7950 1950 50  0001 C CNN
F 3 "" H 7950 1950 50  0001 C CNN
	1    7950 1950
	1    0    0    -1  
$EndComp
Text Label 7850 1950 3    50   ~ 0
RTS
$Comp
L power:+3V3 #PWR0114
U 1 1 61674099
P 9350 850
F 0 "#PWR0114" H 9350 700 50  0001 C CNN
F 1 "+3V3" H 9365 1023 50  0000 C CNN
F 2 "" H 9350 850 50  0001 C CNN
F 3 "" H 9350 850 50  0001 C CNN
	1    9350 850 
	1    0    0    -1  
$EndComp
$Comp
L power:GND #PWR0115
U 1 1 616751C7
P 9350 3650
F 0 "#PWR0115" H 9350 3400 50  0001 C CNN
F 1 "GND" V 9355 3522 50  0000 R CNN
F 2 "" H 9350 3650 50  0001 C CNN
F 3 "" H 9350 3650 50  0001 C CNN
	1    9350 3650
	1    0    0    -1  
$EndComp
$Comp
L Device:R R4
U 1 1 6167729C
P 8350 900
F 0 "R4" V 8143 900 50  0000 C CNN
F 1 "10K" V 8234 900 50  0000 C CNN
F 2 "Resistor_SMD:R_0805_2012Metric_Pad1.20x1.40mm_HandSolder" V 8280 900 50  0001 C CNN
F 3 "~" H 8350 900 50  0001 C CNN
	1    8350 900 
	-1   0    0    1   
$EndComp
$Comp
L Device:C C2
U 1 1 616792A9
P 8350 1200
F 0 "C2" H 8465 1246 50  0000 L CNN
F 1 "1u" H 8465 1155 50  0000 L CNN
F 2 "Capacitor_SMD:C_0805_2012Metric_Pad1.18x1.45mm_HandSolder" H 8388 1050 50  0001 C CNN
F 3 "~" H 8350 1200 50  0001 C CNN
	1    8350 1200
	1    0    0    -1  
$EndComp
Wire Wire Line
	8750 1050 8350 1050
Connection ~ 8350 1050
$Comp
L power:+3V3 #PWR0117
U 1 1 61682F83
P 8350 750
F 0 "#PWR0117" H 8350 600 50  0001 C CNN
F 1 "+3V3" H 8365 923 50  0000 C CNN
F 2 "" H 8350 750 50  0001 C CNN
F 3 "" H 8350 750 50  0001 C CNN
	1    8350 750 
	1    0    0    -1  
$EndComp
$Comp
L power:GND #PWR0119
U 1 1 61683A05
P 8350 1350
F 0 "#PWR0119" H 8350 1100 50  0001 C CNN
F 1 "GND" V 8355 1222 50  0000 R CNN
F 2 "" H 8350 1350 50  0001 C CNN
F 3 "" H 8350 1350 50  0001 C CNN
	1    8350 1350
	1    0    0    -1  
$EndComp
Wire Wire Line
	10100 1350 9950 1350
$Comp
L Device:C C3
U 1 1 618D67C4
P 7700 1050
F 0 "C3" H 7815 1096 50  0000 L CNN
F 1 "10u" H 7815 1005 50  0000 L CNN
F 2 "Capacitor_SMD:C_0805_2012Metric_Pad1.18x1.45mm_HandSolder" H 7738 900 50  0001 C CNN
F 3 "~" H 7700 1050 50  0001 C CNN
	1    7700 1050
	1    0    0    -1  
$EndComp
Wire Wire Line
	7700 900  7850 900 
Wire Wire Line
	8000 1200 7850 1200
Wire Wire Line
	1450 1250 1450 1150
Connection ~ 1450 1150
Wire Wire Line
	1450 1450 1450 1350
Connection ~ 1450 1350
Wire Wire Line
	9950 1250 10950 1250
$Comp
L Transistor_Array:ULN2003A U7
U 1 1 618DE231
P 8200 4300
F 0 "U7" H 8200 4967 50  0000 C CNN
F 1 "ULN2003A" H 8200 4876 50  0000 C CNN
F 2 "Package_SO:SO-16_5.3x10.2mm_P1.27mm" H 8250 3750 50  0001 L CNN
F 3 "http://www.ti.com/lit/ds/symlink/uln2003a.pdf" H 8300 4100 50  0001 C CNN
	1    8200 4300
	0    1    -1   0   
$EndComp
$Comp
L Relay:RT314A12 K1
U 1 1 618E8FB6
P 950 3800
F 0 "K1" V 383 3800 50  0000 C CNN
F 1 "RT314A12" V 474 3800 50  0000 C CNN
F 2 "Relay_THT:Relay_SPDT_Schrack-RT1-16A-FormC_RM5mm" H 2500 3750 50  0001 C CNN
F 3 "https://www.te.com/commerce/DocumentDelivery/DDEController?Action=srchrtrv&DocNm=RT1_bistable&DocType=DS&DocLang=English" H 950 3800 50  0001 C CNN
	1    950  3800
	0    1    1    0   
$EndComp
$Comp
L Transistor_Array:ULN2003A U8
U 1 1 6192CF3E
P 10050 4300
F 0 "U8" H 10050 4967 50  0000 C CNN
F 1 "ULN2003A" H 10050 4876 50  0000 C CNN
F 2 "Package_SO:SO-16_5.3x10.2mm_P1.27mm" H 10100 3750 50  0001 L CNN
F 3 "http://www.ti.com/lit/ds/symlink/uln2003a.pdf" H 10150 4100 50  0001 C CNN
	1    10050 4300
	0    1    -1   0   
$EndComp
$Comp
L power:+12V #PWR0104
U 1 1 6194061F
P 1250 2700
F 0 "#PWR0104" H 1250 2550 50  0001 C CNN
F 1 "+12V" H 1265 2873 50  0000 C CNN
F 2 "" H 1250 2700 50  0001 C CNN
F 3 "" H 1250 2700 50  0001 C CNN
	1    1250 2700
	1    0    0    -1  
$EndComp
$Comp
L Diode:1N4148WS D1
U 1 1 61945D3D
P 950 3100
F 0 "D1" H 950 2883 50  0000 C CNN
F 1 "1N4148WS" H 950 2974 50  0000 C CNN
F 2 "Diode_SMD:D_SOD-123" H 950 2925 50  0001 C CNN
F 3 "https://www.vishay.com/docs/85751/1n4148ws.pdf" H 950 3100 50  0001 C CNN
	1    950  3100
	-1   0    0    1   
$EndComp
Wire Wire Line
	1100 3100 1250 3100
Wire Wire Line
	1250 3100 1250 3600
Connection ~ 1250 3100
Wire Wire Line
	650  3600 650  3100
Wire Wire Line
	650  3100 800  3100
$Comp
L Device:LED D2
U 1 1 61964767
P 1100 2700
F 0 "D2" H 1093 2917 50  0000 C CNN
F 1 "LED" H 1093 2826 50  0000 C CNN
F 2 "LED_SMD:LED_0805_2012Metric_Pad1.15x1.40mm_HandSolder" H 1100 2700 50  0001 C CNN
F 3 "~" H 1100 2700 50  0001 C CNN
	1    1100 2700
	1    0    0    -1  
$EndComp
Wire Wire Line
	1250 2700 1250 3100
Connection ~ 1250 2700
$Comp
L Device:R R6
U 1 1 6196D6DB
P 800 2700
F 0 "R6" V 593 2700 50  0000 C CNN
F 1 "1K" V 684 2700 50  0000 C CNN
F 2 "Resistor_SMD:R_0805_2012Metric_Pad1.20x1.40mm_HandSolder" V 730 2700 50  0001 C CNN
F 3 "~" H 800 2700 50  0001 C CNN
	1    800  2700
	0    -1   -1   0   
$EndComp
Wire Wire Line
	650  3100 650  2700
Connection ~ 650  3100
$Comp
L power:GND #PWR0110
U 1 1 6198E75D
P 7600 4300
F 0 "#PWR0110" H 7600 4050 50  0001 C CNN
F 1 "GND" V 7605 4172 50  0000 R CNN
F 2 "" H 7600 4300 50  0001 C CNN
F 3 "" H 7600 4300 50  0001 C CNN
	1    7600 4300
	0    1    -1   0   
$EndComp
$Comp
L power:GND #PWR0126
U 1 1 6198EF08
P 9450 4300
F 0 "#PWR0126" H 9450 4050 50  0001 C CNN
F 1 "GND" V 9455 4172 50  0000 R CNN
F 2 "" H 9450 4300 50  0001 C CNN
F 3 "" H 9450 4300 50  0001 C CNN
	1    9450 4300
	0    1    -1   0   
$EndComp
$Comp
L power:+3V3 #PWR0130
U 1 1 6199404E
P 10650 3250
F 0 "#PWR0130" H 10650 3100 50  0001 C CNN
F 1 "+3V3" H 10665 3423 50  0000 C CNN
F 2 "" H 10650 3250 50  0001 C CNN
F 3 "" H 10650 3250 50  0001 C CNN
	1    10650 3250
	0    -1   -1   0   
$EndComp
$Comp
L power:GND #PWR0131
U 1 1 61996A9E
P 10950 3250
F 0 "#PWR0131" H 10950 3000 50  0001 C CNN
F 1 "GND" H 10955 3077 50  0000 C CNN
F 2 "" H 10950 3250 50  0001 C CNN
F 3 "" H 10950 3250 50  0001 C CNN
	1    10950 3250
	0    -1   -1   0   
$EndComp
$Comp
L Device:C C5
U 1 1 619973EA
P 10800 3250
F 0 "C5" H 10915 3296 50  0000 L CNN
F 1 "100n" H 10915 3205 50  0000 L CNN
F 2 "Capacitor_SMD:C_0805_2012Metric_Pad1.18x1.45mm_HandSolder" H 10838 3100 50  0001 C CNN
F 3 "~" H 10800 3250 50  0001 C CNN
	1    10800 3250
	0    -1   -1   0   
$EndComp
$Comp
L Device:C C11
U 1 1 619A1577
P 10800 2850
F 0 "C11" H 10915 2896 50  0000 L CNN
F 1 "100n" H 10915 2805 50  0000 L CNN
F 2 "Capacitor_SMD:C_0805_2012Metric_Pad1.18x1.45mm_HandSolder" H 10838 2700 50  0001 C CNN
F 3 "~" H 10800 2850 50  0001 C CNN
	1    10800 2850
	0    -1   -1   0   
$EndComp
Wire Wire Line
	10650 2850 10650 3250
Connection ~ 10650 3250
Wire Wire Line
	10950 2850 10950 3250
Connection ~ 10950 3250
$Comp
L power:GND2 #PWR0132
U 1 1 619A8ED7
P 8600 3900
F 0 "#PWR0132" H 8600 3650 50  0001 C CNN
F 1 "GND2" H 8605 3727 50  0000 C CNN
F 2 "" H 8600 3900 50  0001 C CNN
F 3 "" H 8600 3900 50  0001 C CNN
	1    8600 3900
	-1   0    0    1   
$EndComp
$Comp
L power:GND2 #PWR0133
U 1 1 619AF0ED
P 10450 3900
F 0 "#PWR0133" H 10450 3650 50  0001 C CNN
F 1 "GND2" H 10455 3727 50  0000 C CNN
F 2 "" H 10450 3900 50  0001 C CNN
F 3 "" H 10450 3900 50  0001 C CNN
	1    10450 3900
	-1   0    0    1   
$EndComp
Text Label 650  3100 1    50   ~ 0
R0
$Comp
L power:+12V #PWR0134
U 1 1 618930B7
P 2050 2700
F 0 "#PWR0134" H 2050 2550 50  0001 C CNN
F 1 "+12V" H 2065 2873 50  0000 C CNN
F 2 "" H 2050 2700 50  0001 C CNN
F 3 "" H 2050 2700 50  0001 C CNN
	1    2050 2700
	1    0    0    -1  
$EndComp
$Comp
L Diode:1N4148WS D3
U 1 1 618930C1
P 1750 3100
F 0 "D3" H 1750 2883 50  0000 C CNN
F 1 "1N4148WS" H 1750 2974 50  0000 C CNN
F 2 "Diode_SMD:D_SOD-123" H 1750 2925 50  0001 C CNN
F 3 "https://www.vishay.com/docs/85751/1n4148ws.pdf" H 1750 3100 50  0001 C CNN
	1    1750 3100
	-1   0    0    1   
$EndComp
Wire Wire Line
	1900 3100 2050 3100
Wire Wire Line
	2050 3100 2050 3600
Connection ~ 2050 3100
Wire Wire Line
	1450 3600 1450 3100
Wire Wire Line
	1450 3100 1600 3100
$Comp
L Device:LED D4
U 1 1 618930D0
P 1900 2700
F 0 "D4" H 1893 2917 50  0000 C CNN
F 1 "LED" H 1893 2826 50  0000 C CNN
F 2 "LED_SMD:LED_0805_2012Metric_Pad1.15x1.40mm_HandSolder" H 1900 2700 50  0001 C CNN
F 3 "~" H 1900 2700 50  0001 C CNN
	1    1900 2700
	1    0    0    -1  
$EndComp
Wire Wire Line
	2050 2700 2050 3100
Connection ~ 2050 2700
$Comp
L Device:R R7
U 1 1 618930DC
P 1600 2700
F 0 "R7" V 1393 2700 50  0000 C CNN
F 1 "1K" V 1484 2700 50  0000 C CNN
F 2 "Resistor_SMD:R_0805_2012Metric_Pad1.20x1.40mm_HandSolder" V 1530 2700 50  0001 C CNN
F 3 "~" H 1600 2700 50  0001 C CNN
	1    1600 2700
	0    -1   -1   0   
$EndComp
Wire Wire Line
	1450 3100 1450 2700
Connection ~ 1450 3100
Text Label 1450 3100 1    50   ~ 0
R1
$Comp
L Relay:RT314A12 K3
U 1 1 618AB7BC
P 2700 3800
F 0 "K3" V 2133 3800 50  0000 C CNN
F 1 "RT314A12" V 2224 3800 50  0000 C CNN
F 2 "Relay_THT:Relay_SPDT_Schrack-RT1-16A-FormC_RM5mm" H 4250 3750 50  0001 C CNN
F 3 "https://www.te.com/commerce/DocumentDelivery/DDEController?Action=srchrtrv&DocNm=RT1_bistable&DocType=DS&DocLang=English" H 2700 3800 50  0001 C CNN
	1    2700 3800
	0    1    1    0   
$EndComp
$Comp
L power:+12V #PWR0135
U 1 1 618ABB12
P 3000 2700
F 0 "#PWR0135" H 3000 2550 50  0001 C CNN
F 1 "+12V" H 3015 2873 50  0000 C CNN
F 2 "" H 3000 2700 50  0001 C CNN
F 3 "" H 3000 2700 50  0001 C CNN
	1    3000 2700
	1    0    0    -1  
$EndComp
$Comp
L Diode:1N4148WS D5
U 1 1 618ABB1C
P 2700 3100
F 0 "D5" H 2700 2883 50  0000 C CNN
F 1 "1N4148WS" H 2700 2974 50  0000 C CNN
F 2 "Diode_SMD:D_SOD-123" H 2700 2925 50  0001 C CNN
F 3 "https://www.vishay.com/docs/85751/1n4148ws.pdf" H 2700 3100 50  0001 C CNN
	1    2700 3100
	-1   0    0    1   
$EndComp
Wire Wire Line
	2850 3100 3000 3100
Wire Wire Line
	3000 3100 3000 3600
Connection ~ 3000 3100
Wire Wire Line
	2400 3600 2400 3100
Wire Wire Line
	2400 3100 2550 3100
$Comp
L Device:LED D6
U 1 1 618ABB2B
P 2850 2700
F 0 "D6" H 2843 2917 50  0000 C CNN
F 1 "LED" H 2843 2826 50  0000 C CNN
F 2 "LED_SMD:LED_0805_2012Metric_Pad1.15x1.40mm_HandSolder" H 2850 2700 50  0001 C CNN
F 3 "~" H 2850 2700 50  0001 C CNN
	1    2850 2700
	1    0    0    -1  
$EndComp
Wire Wire Line
	3000 2700 3000 3100
Connection ~ 3000 2700
$Comp
L Device:R R8
U 1 1 618ABB37
P 2550 2700
F 0 "R8" V 2343 2700 50  0000 C CNN
F 1 "1K" V 2434 2700 50  0000 C CNN
F 2 "Resistor_SMD:R_0805_2012Metric_Pad1.20x1.40mm_HandSolder" V 2480 2700 50  0001 C CNN
F 3 "~" H 2550 2700 50  0001 C CNN
	1    2550 2700
	0    -1   -1   0   
$EndComp
Wire Wire Line
	2400 3100 2400 2700
Connection ~ 2400 3100
Text Label 2400 3100 1    50   ~ 0
R2
$Comp
L Relay:RT314A12 K4
U 1 1 618ABB5A
P 3500 3800
F 0 "K4" V 2933 3800 50  0000 C CNN
F 1 "RT314A12" V 3024 3800 50  0000 C CNN
F 2 "Relay_THT:Relay_SPDT_Schrack-RT1-16A-FormC_RM5mm" H 5050 3750 50  0001 C CNN
F 3 "https://www.te.com/commerce/DocumentDelivery/DDEController?Action=srchrtrv&DocNm=RT1_bistable&DocType=DS&DocLang=English" H 3500 3800 50  0001 C CNN
	1    3500 3800
	0    1    1    0   
$EndComp
$Comp
L power:+12V #PWR0136
U 1 1 618ABB64
P 3800 2700
F 0 "#PWR0136" H 3800 2550 50  0001 C CNN
F 1 "+12V" H 3815 2873 50  0000 C CNN
F 2 "" H 3800 2700 50  0001 C CNN
F 3 "" H 3800 2700 50  0001 C CNN
	1    3800 2700
	1    0    0    -1  
$EndComp
$Comp
L Diode:1N4148WS D7
U 1 1 618ABB6E
P 3500 3100
F 0 "D7" H 3500 2883 50  0000 C CNN
F 1 "1N4148WS" H 3500 2974 50  0000 C CNN
F 2 "Diode_SMD:D_SOD-123" H 3500 2925 50  0001 C CNN
F 3 "https://www.vishay.com/docs/85751/1n4148ws.pdf" H 3500 3100 50  0001 C CNN
	1    3500 3100
	-1   0    0    1   
$EndComp
Wire Wire Line
	3650 3100 3800 3100
Wire Wire Line
	3800 3100 3800 3600
Connection ~ 3800 3100
Wire Wire Line
	3200 3600 3200 3100
Wire Wire Line
	3200 3100 3350 3100
$Comp
L Device:LED D8
U 1 1 618ABB7D
P 3650 2700
F 0 "D8" H 3643 2917 50  0000 C CNN
F 1 "LED" H 3643 2826 50  0000 C CNN
F 2 "LED_SMD:LED_0805_2012Metric_Pad1.15x1.40mm_HandSolder" H 3650 2700 50  0001 C CNN
F 3 "~" H 3650 2700 50  0001 C CNN
	1    3650 2700
	1    0    0    -1  
$EndComp
Wire Wire Line
	3800 2700 3800 3100
Connection ~ 3800 2700
$Comp
L Device:R R9
U 1 1 618ABB89
P 3350 2700
F 0 "R9" V 3143 2700 50  0000 C CNN
F 1 "1K" V 3234 2700 50  0000 C CNN
F 2 "Resistor_SMD:R_0805_2012Metric_Pad1.20x1.40mm_HandSolder" V 3280 2700 50  0001 C CNN
F 3 "~" H 3350 2700 50  0001 C CNN
	1    3350 2700
	0    -1   -1   0   
$EndComp
Wire Wire Line
	3200 3100 3200 2700
Connection ~ 3200 3100
Text Label 3200 3100 1    50   ~ 0
R3
$Comp
L Relay:RT314A12 K5
U 1 1 618BCEBD
P 4500 3800
F 0 "K5" V 3933 3800 50  0000 C CNN
F 1 "RT314A12" V 4024 3800 50  0000 C CNN
F 2 "Relay_THT:Relay_SPDT_Schrack-RT1-16A-FormC_RM5mm" H 6050 3750 50  0001 C CNN
F 3 "https://www.te.com/commerce/DocumentDelivery/DDEController?Action=srchrtrv&DocNm=RT1_bistable&DocType=DS&DocLang=English" H 4500 3800 50  0001 C CNN
	1    4500 3800
	0    1    1    0   
$EndComp
$Comp
L power:+12V #PWR0137
U 1 1 618BD3FB
P 4800 2700
F 0 "#PWR0137" H 4800 2550 50  0001 C CNN
F 1 "+12V" H 4815 2873 50  0000 C CNN
F 2 "" H 4800 2700 50  0001 C CNN
F 3 "" H 4800 2700 50  0001 C CNN
	1    4800 2700
	1    0    0    -1  
$EndComp
$Comp
L Diode:1N4148WS D9
U 1 1 618BD405
P 4500 3100
F 0 "D9" H 4500 2883 50  0000 C CNN
F 1 "1N4148WS" H 4500 2974 50  0000 C CNN
F 2 "Diode_SMD:D_SOD-123" H 4500 2925 50  0001 C CNN
F 3 "https://www.vishay.com/docs/85751/1n4148ws.pdf" H 4500 3100 50  0001 C CNN
	1    4500 3100
	-1   0    0    1   
$EndComp
Wire Wire Line
	4650 3100 4800 3100
Wire Wire Line
	4800 3100 4800 3600
Connection ~ 4800 3100
Wire Wire Line
	4200 3600 4200 3100
Wire Wire Line
	4200 3100 4350 3100
$Comp
L Device:LED D10
U 1 1 618BD414
P 4650 2700
F 0 "D10" H 4643 2917 50  0000 C CNN
F 1 "LED" H 4643 2826 50  0000 C CNN
F 2 "LED_SMD:LED_0805_2012Metric_Pad1.15x1.40mm_HandSolder" H 4650 2700 50  0001 C CNN
F 3 "~" H 4650 2700 50  0001 C CNN
	1    4650 2700
	1    0    0    -1  
$EndComp
Wire Wire Line
	4800 2700 4800 3100
Connection ~ 4800 2700
$Comp
L Device:R R10
U 1 1 618BD420
P 4350 2700
F 0 "R10" V 4143 2700 50  0000 C CNN
F 1 "1K" V 4234 2700 50  0000 C CNN
F 2 "Resistor_SMD:R_0805_2012Metric_Pad1.20x1.40mm_HandSolder" V 4280 2700 50  0001 C CNN
F 3 "~" H 4350 2700 50  0001 C CNN
	1    4350 2700
	0    -1   -1   0   
$EndComp
Wire Wire Line
	4200 3100 4200 2700
Connection ~ 4200 3100
Text Label 4200 3100 1    50   ~ 0
R4
$Comp
L Relay:RT314A12 K6
U 1 1 618BD443
P 5300 3800
F 0 "K6" V 4733 3800 50  0000 C CNN
F 1 "RT314A12" V 4824 3800 50  0000 C CNN
F 2 "Relay_THT:Relay_SPDT_Schrack-RT1-16A-FormC_RM5mm" H 6850 3750 50  0001 C CNN
F 3 "https://www.te.com/commerce/DocumentDelivery/DDEController?Action=srchrtrv&DocNm=RT1_bistable&DocType=DS&DocLang=English" H 5300 3800 50  0001 C CNN
	1    5300 3800
	0    1    1    0   
$EndComp
$Comp
L power:+12V #PWR0138
U 1 1 618BD44D
P 5600 2700
F 0 "#PWR0138" H 5600 2550 50  0001 C CNN
F 1 "+12V" H 5615 2873 50  0000 C CNN
F 2 "" H 5600 2700 50  0001 C CNN
F 3 "" H 5600 2700 50  0001 C CNN
	1    5600 2700
	1    0    0    -1  
$EndComp
$Comp
L Diode:1N4148WS D11
U 1 1 618BD457
P 5300 3100
F 0 "D11" H 5300 2883 50  0000 C CNN
F 1 "1N4148WS" H 5300 2974 50  0000 C CNN
F 2 "Diode_SMD:D_SOD-123" H 5300 2925 50  0001 C CNN
F 3 "https://www.vishay.com/docs/85751/1n4148ws.pdf" H 5300 3100 50  0001 C CNN
	1    5300 3100
	-1   0    0    1   
$EndComp
Wire Wire Line
	5450 3100 5600 3100
Wire Wire Line
	5600 3100 5600 3600
Connection ~ 5600 3100
Wire Wire Line
	5000 3600 5000 3100
Wire Wire Line
	5000 3100 5150 3100
$Comp
L Device:LED D12
U 1 1 618BD466
P 5450 2700
F 0 "D12" H 5443 2917 50  0000 C CNN
F 1 "LED" H 5443 2826 50  0000 C CNN
F 2 "LED_SMD:LED_0805_2012Metric_Pad1.15x1.40mm_HandSolder" H 5450 2700 50  0001 C CNN
F 3 "~" H 5450 2700 50  0001 C CNN
	1    5450 2700
	1    0    0    -1  
$EndComp
Wire Wire Line
	5600 2700 5600 3100
Connection ~ 5600 2700
$Comp
L Device:R R11
U 1 1 618BD472
P 5150 2700
F 0 "R11" V 4943 2700 50  0000 C CNN
F 1 "1K" V 5034 2700 50  0000 C CNN
F 2 "Resistor_SMD:R_0805_2012Metric_Pad1.20x1.40mm_HandSolder" V 5080 2700 50  0001 C CNN
F 3 "~" H 5150 2700 50  0001 C CNN
	1    5150 2700
	0    -1   -1   0   
$EndComp
Wire Wire Line
	5000 3100 5000 2700
Connection ~ 5000 3100
Text Label 5000 3100 1    50   ~ 0
R5
$Comp
L Relay:RT314A12 K7
U 1 1 618BD495
P 6250 3800
F 0 "K7" V 5683 3800 50  0000 C CNN
F 1 "RT314A12" V 5774 3800 50  0000 C CNN
F 2 "Relay_THT:Relay_SPDT_Schrack-RT1-16A-FormC_RM5mm" H 7800 3750 50  0001 C CNN
F 3 "https://www.te.com/commerce/DocumentDelivery/DDEController?Action=srchrtrv&DocNm=RT1_bistable&DocType=DS&DocLang=English" H 6250 3800 50  0001 C CNN
	1    6250 3800
	0    1    1    0   
$EndComp
$Comp
L power:+12V #PWR0139
U 1 1 618BD49F
P 6550 2700
F 0 "#PWR0139" H 6550 2550 50  0001 C CNN
F 1 "+12V" H 6565 2873 50  0000 C CNN
F 2 "" H 6550 2700 50  0001 C CNN
F 3 "" H 6550 2700 50  0001 C CNN
	1    6550 2700
	1    0    0    -1  
$EndComp
$Comp
L Diode:1N4148WS D13
U 1 1 618BD4A9
P 6250 3100
F 0 "D13" H 6250 2883 50  0000 C CNN
F 1 "1N4148WS" H 6250 2974 50  0000 C CNN
F 2 "Diode_SMD:D_SOD-123" H 6250 2925 50  0001 C CNN
F 3 "https://www.vishay.com/docs/85751/1n4148ws.pdf" H 6250 3100 50  0001 C CNN
	1    6250 3100
	-1   0    0    1   
$EndComp
Wire Wire Line
	6400 3100 6550 3100
Wire Wire Line
	6550 3100 6550 3600
Connection ~ 6550 3100
Wire Wire Line
	5950 3600 5950 3100
Wire Wire Line
	5950 3100 6100 3100
$Comp
L Device:LED D14
U 1 1 618BD4B8
P 6400 2700
F 0 "D14" H 6393 2917 50  0000 C CNN
F 1 "LED" H 6393 2826 50  0000 C CNN
F 2 "LED_SMD:LED_0805_2012Metric_Pad1.15x1.40mm_HandSolder" H 6400 2700 50  0001 C CNN
F 3 "~" H 6400 2700 50  0001 C CNN
	1    6400 2700
	1    0    0    -1  
$EndComp
Wire Wire Line
	6550 2700 6550 3100
Connection ~ 6550 2700
$Comp
L Device:R R12
U 1 1 618BD4C4
P 6100 2700
F 0 "R12" V 5893 2700 50  0000 C CNN
F 1 "1K" V 5984 2700 50  0000 C CNN
F 2 "Resistor_SMD:R_0805_2012Metric_Pad1.20x1.40mm_HandSolder" V 6030 2700 50  0001 C CNN
F 3 "~" H 6100 2700 50  0001 C CNN
	1    6100 2700
	0    -1   -1   0   
$EndComp
Wire Wire Line
	5950 3100 5950 2700
Connection ~ 5950 3100
Text Label 5950 3100 1    50   ~ 0
R6
$Comp
L Relay:RT314A12 K8
U 1 1 618BD4E7
P 7050 3800
F 0 "K8" V 6483 3800 50  0000 C CNN
F 1 "RT314A12" V 6574 3800 50  0000 C CNN
F 2 "Relay_THT:Relay_SPDT_Schrack-RT1-16A-FormC_RM5mm" H 8600 3750 50  0001 C CNN
F 3 "https://www.te.com/commerce/DocumentDelivery/DDEController?Action=srchrtrv&DocNm=RT1_bistable&DocType=DS&DocLang=English" H 7050 3800 50  0001 C CNN
	1    7050 3800
	0    1    1    0   
$EndComp
$Comp
L power:+12V #PWR0141
U 1 1 618BD4F1
P 7350 2700
F 0 "#PWR0141" H 7350 2550 50  0001 C CNN
F 1 "+12V" H 7365 2873 50  0000 C CNN
F 2 "" H 7350 2700 50  0001 C CNN
F 3 "" H 7350 2700 50  0001 C CNN
	1    7350 2700
	1    0    0    -1  
$EndComp
$Comp
L Diode:1N4148WS D15
U 1 1 618BD4FB
P 7050 3100
F 0 "D15" H 7050 2883 50  0000 C CNN
F 1 "1N4148WS" H 7050 2974 50  0000 C CNN
F 2 "Diode_SMD:D_SOD-123" H 7050 2925 50  0001 C CNN
F 3 "https://www.vishay.com/docs/85751/1n4148ws.pdf" H 7050 3100 50  0001 C CNN
	1    7050 3100
	-1   0    0    1   
$EndComp
Wire Wire Line
	7200 3100 7350 3100
Wire Wire Line
	7350 3100 7350 3600
Connection ~ 7350 3100
Wire Wire Line
	6750 3600 6750 3100
Wire Wire Line
	6750 3100 6900 3100
$Comp
L Device:LED D16
U 1 1 618BD50A
P 7200 2700
F 0 "D16" H 7193 2917 50  0000 C CNN
F 1 "LED" H 7193 2826 50  0000 C CNN
F 2 "LED_SMD:LED_0805_2012Metric_Pad1.15x1.40mm_HandSolder" H 7200 2700 50  0001 C CNN
F 3 "~" H 7200 2700 50  0001 C CNN
	1    7200 2700
	1    0    0    -1  
$EndComp
Wire Wire Line
	7350 2700 7350 3100
Connection ~ 7350 2700
$Comp
L Device:R R13
U 1 1 618BD516
P 6900 2700
F 0 "R13" V 6693 2700 50  0000 C CNN
F 1 "1K" V 6784 2700 50  0000 C CNN
F 2 "Resistor_SMD:R_0805_2012Metric_Pad1.20x1.40mm_HandSolder" V 6830 2700 50  0001 C CNN
F 3 "~" H 6900 2700 50  0001 C CNN
	1    6900 2700
	0    -1   -1   0   
$EndComp
Wire Wire Line
	6750 3100 6750 2700
Connection ~ 6750 3100
Text Label 6750 3100 1    50   ~ 0
R7
$Comp
L Relay:RT314A12 K9
U 1 1 618DF079
P 950 6650
F 0 "K9" V 383 6650 50  0000 C CNN
F 1 "RT314A12" V 474 6650 50  0000 C CNN
F 2 "Relay_THT:Relay_SPDT_Schrack-RT1-16A-FormC_RM5mm" H 2500 6600 50  0001 C CNN
F 3 "https://www.te.com/commerce/DocumentDelivery/DDEController?Action=srchrtrv&DocNm=RT1_bistable&DocType=DS&DocLang=English" H 950 6650 50  0001 C CNN
	1    950  6650
	0    1    1    0   
$EndComp
$Comp
L power:+12V #PWR0142
U 1 1 618DFA75
P 1250 5550
F 0 "#PWR0142" H 1250 5400 50  0001 C CNN
F 1 "+12V" H 1265 5723 50  0000 C CNN
F 2 "" H 1250 5550 50  0001 C CNN
F 3 "" H 1250 5550 50  0001 C CNN
	1    1250 5550
	1    0    0    -1  
$EndComp
$Comp
L Diode:1N4148WS D17
U 1 1 618DFA7F
P 950 5950
F 0 "D17" H 950 5733 50  0000 C CNN
F 1 "1N4148WS" H 950 5824 50  0000 C CNN
F 2 "Diode_SMD:D_SOD-123" H 950 5775 50  0001 C CNN
F 3 "https://www.vishay.com/docs/85751/1n4148ws.pdf" H 950 5950 50  0001 C CNN
	1    950  5950
	-1   0    0    1   
$EndComp
Wire Wire Line
	1100 5950 1250 5950
Wire Wire Line
	1250 5950 1250 6450
Connection ~ 1250 5950
Wire Wire Line
	650  6450 650  5950
Wire Wire Line
	650  5950 800  5950
$Comp
L Device:LED D18
U 1 1 618DFA8E
P 1100 5550
F 0 "D18" H 1093 5767 50  0000 C CNN
F 1 "LED" H 1093 5676 50  0000 C CNN
F 2 "LED_SMD:LED_0805_2012Metric_Pad1.15x1.40mm_HandSolder" H 1100 5550 50  0001 C CNN
F 3 "~" H 1100 5550 50  0001 C CNN
	1    1100 5550
	1    0    0    -1  
$EndComp
Wire Wire Line
	1250 5550 1250 5950
Connection ~ 1250 5550
$Comp
L Device:R R22
U 1 1 618DFA9A
P 800 5550
F 0 "R22" V 593 5550 50  0000 C CNN
F 1 "1K" V 684 5550 50  0000 C CNN
F 2 "Resistor_SMD:R_0805_2012Metric_Pad1.20x1.40mm_HandSolder" V 730 5550 50  0001 C CNN
F 3 "~" H 800 5550 50  0001 C CNN
	1    800  5550
	0    -1   -1   0   
$EndComp
Wire Wire Line
	650  5950 650  5550
Connection ~ 650  5950
Text Label 650  5950 1    50   ~ 0
R8
$Comp
L Relay:RT314A12 K10
U 1 1 618DFABD
P 1750 6650
F 0 "K10" V 1183 6650 50  0000 C CNN
F 1 "RT314A12" V 1274 6650 50  0000 C CNN
F 2 "Relay_THT:Relay_SPDT_Schrack-RT1-16A-FormC_RM5mm" H 3300 6600 50  0001 C CNN
F 3 "https://www.te.com/commerce/DocumentDelivery/DDEController?Action=srchrtrv&DocNm=RT1_bistable&DocType=DS&DocLang=English" H 1750 6650 50  0001 C CNN
	1    1750 6650
	0    1    1    0   
$EndComp
$Comp
L power:+12V #PWR0145
U 1 1 618DFAC7
P 2050 5550
F 0 "#PWR0145" H 2050 5400 50  0001 C CNN
F 1 "+12V" H 2065 5723 50  0000 C CNN
F 2 "" H 2050 5550 50  0001 C CNN
F 3 "" H 2050 5550 50  0001 C CNN
	1    2050 5550
	1    0    0    -1  
$EndComp
$Comp
L Diode:1N4148WS D19
U 1 1 618DFAD1
P 1750 5950
F 0 "D19" H 1750 5733 50  0000 C CNN
F 1 "1N4148WS" H 1750 5824 50  0000 C CNN
F 2 "Diode_SMD:D_SOD-123" H 1750 5775 50  0001 C CNN
F 3 "https://www.vishay.com/docs/85751/1n4148ws.pdf" H 1750 5950 50  0001 C CNN
	1    1750 5950
	-1   0    0    1   
$EndComp
Wire Wire Line
	1900 5950 2050 5950
Wire Wire Line
	2050 5950 2050 6450
Connection ~ 2050 5950
Wire Wire Line
	1450 6450 1450 5950
Wire Wire Line
	1450 5950 1600 5950
$Comp
L Device:LED D20
U 1 1 618DFAE0
P 1900 5550
F 0 "D20" H 1893 5767 50  0000 C CNN
F 1 "LED" H 1893 5676 50  0000 C CNN
F 2 "LED_SMD:LED_0805_2012Metric_Pad1.15x1.40mm_HandSolder" H 1900 5550 50  0001 C CNN
F 3 "~" H 1900 5550 50  0001 C CNN
	1    1900 5550
	1    0    0    -1  
$EndComp
Wire Wire Line
	2050 5550 2050 5950
Connection ~ 2050 5550
$Comp
L Device:R R23
U 1 1 618DFAEC
P 1600 5550
F 0 "R23" V 1393 5550 50  0000 C CNN
F 1 "1K" V 1484 5550 50  0000 C CNN
F 2 "Resistor_SMD:R_0805_2012Metric_Pad1.20x1.40mm_HandSolder" V 1530 5550 50  0001 C CNN
F 3 "~" H 1600 5550 50  0001 C CNN
	1    1600 5550
	0    -1   -1   0   
$EndComp
Wire Wire Line
	1450 5950 1450 5550
Connection ~ 1450 5950
Text Label 1450 5950 1    50   ~ 0
R9
$Comp
L Relay:RT314A12 K11
U 1 1 618DFB0F
P 2700 6650
F 0 "K11" V 2133 6650 50  0000 C CNN
F 1 "RT314A12" V 2224 6650 50  0000 C CNN
F 2 "Relay_THT:Relay_SPDT_Schrack-RT1-16A-FormC_RM5mm" H 4250 6600 50  0001 C CNN
F 3 "https://www.te.com/commerce/DocumentDelivery/DDEController?Action=srchrtrv&DocNm=RT1_bistable&DocType=DS&DocLang=English" H 2700 6650 50  0001 C CNN
	1    2700 6650
	0    1    1    0   
$EndComp
$Comp
L power:+12V #PWR0146
U 1 1 618DFB19
P 3000 5550
F 0 "#PWR0146" H 3000 5400 50  0001 C CNN
F 1 "+12V" H 3015 5723 50  0000 C CNN
F 2 "" H 3000 5550 50  0001 C CNN
F 3 "" H 3000 5550 50  0001 C CNN
	1    3000 5550
	1    0    0    -1  
$EndComp
$Comp
L Diode:1N4148WS D21
U 1 1 618DFB23
P 2700 5950
F 0 "D21" H 2700 5733 50  0000 C CNN
F 1 "1N4148WS" H 2700 5824 50  0000 C CNN
F 2 "Diode_SMD:D_SOD-123" H 2700 5775 50  0001 C CNN
F 3 "https://www.vishay.com/docs/85751/1n4148ws.pdf" H 2700 5950 50  0001 C CNN
	1    2700 5950
	-1   0    0    1   
$EndComp
Wire Wire Line
	2850 5950 3000 5950
Wire Wire Line
	3000 5950 3000 6450
Connection ~ 3000 5950
Wire Wire Line
	2400 6450 2400 5950
Wire Wire Line
	2400 5950 2550 5950
$Comp
L Device:LED D22
U 1 1 618DFB32
P 2850 5550
F 0 "D22" H 2843 5767 50  0000 C CNN
F 1 "LED" H 2843 5676 50  0000 C CNN
F 2 "LED_SMD:LED_0805_2012Metric_Pad1.15x1.40mm_HandSolder" H 2850 5550 50  0001 C CNN
F 3 "~" H 2850 5550 50  0001 C CNN
	1    2850 5550
	1    0    0    -1  
$EndComp
Wire Wire Line
	3000 5550 3000 5950
Connection ~ 3000 5550
$Comp
L Device:R R24
U 1 1 618DFB3E
P 2550 5550
F 0 "R24" V 2343 5550 50  0000 C CNN
F 1 "1K" V 2434 5550 50  0000 C CNN
F 2 "Resistor_SMD:R_0805_2012Metric_Pad1.20x1.40mm_HandSolder" V 2480 5550 50  0001 C CNN
F 3 "~" H 2550 5550 50  0001 C CNN
	1    2550 5550
	0    -1   -1   0   
$EndComp
Wire Wire Line
	2400 5950 2400 5550
Connection ~ 2400 5950
Text Label 2400 5950 1    50   ~ 0
R10
$Comp
L Relay:RT314A12 K12
U 1 1 618DFB61
P 3500 6650
F 0 "K12" V 2933 6650 50  0000 C CNN
F 1 "RT314A12" V 3024 6650 50  0000 C CNN
F 2 "Relay_THT:Relay_SPDT_Schrack-RT1-16A-FormC_RM5mm" H 5050 6600 50  0001 C CNN
F 3 "https://www.te.com/commerce/DocumentDelivery/DDEController?Action=srchrtrv&DocNm=RT1_bistable&DocType=DS&DocLang=English" H 3500 6650 50  0001 C CNN
	1    3500 6650
	0    1    1    0   
$EndComp
$Comp
L power:+12V #PWR0147
U 1 1 618DFB6B
P 3800 5550
F 0 "#PWR0147" H 3800 5400 50  0001 C CNN
F 1 "+12V" H 3815 5723 50  0000 C CNN
F 2 "" H 3800 5550 50  0001 C CNN
F 3 "" H 3800 5550 50  0001 C CNN
	1    3800 5550
	1    0    0    -1  
$EndComp
$Comp
L Diode:1N4148WS D23
U 1 1 618DFB75
P 3500 5950
F 0 "D23" H 3500 5733 50  0000 C CNN
F 1 "1N4148WS" H 3500 5824 50  0000 C CNN
F 2 "Diode_SMD:D_SOD-123" H 3500 5775 50  0001 C CNN
F 3 "https://www.vishay.com/docs/85751/1n4148ws.pdf" H 3500 5950 50  0001 C CNN
	1    3500 5950
	-1   0    0    1   
$EndComp
Wire Wire Line
	3650 5950 3800 5950
Wire Wire Line
	3800 5950 3800 6450
Connection ~ 3800 5950
Wire Wire Line
	3200 6450 3200 5950
Wire Wire Line
	3200 5950 3350 5950
$Comp
L Device:LED D24
U 1 1 618DFB84
P 3650 5550
F 0 "D24" H 3643 5767 50  0000 C CNN
F 1 "LED" H 3643 5676 50  0000 C CNN
F 2 "LED_SMD:LED_0805_2012Metric_Pad1.15x1.40mm_HandSolder" H 3650 5550 50  0001 C CNN
F 3 "~" H 3650 5550 50  0001 C CNN
	1    3650 5550
	1    0    0    -1  
$EndComp
Wire Wire Line
	3800 5550 3800 5950
Connection ~ 3800 5550
$Comp
L Device:R R25
U 1 1 618DFB90
P 3350 5550
F 0 "R25" V 3143 5550 50  0000 C CNN
F 1 "1K" V 3234 5550 50  0000 C CNN
F 2 "Resistor_SMD:R_0805_2012Metric_Pad1.20x1.40mm_HandSolder" V 3280 5550 50  0001 C CNN
F 3 "~" H 3350 5550 50  0001 C CNN
	1    3350 5550
	0    -1   -1   0   
$EndComp
Wire Wire Line
	3200 5950 3200 5550
Connection ~ 3200 5950
Text Label 3200 5950 1    50   ~ 0
R11
Text Label 7800 3900 1    50   ~ 0
R0
Text Label 7900 3900 1    50   ~ 0
R1
Text Label 8000 3900 1    50   ~ 0
R2
Text Label 8100 3900 1    50   ~ 0
R3
Text Label 8200 3900 1    50   ~ 0
R4
Text Label 8300 3900 1    50   ~ 0
R5
Text Label 8400 3900 1    50   ~ 0
R6
Text Label 9650 3900 1    50   ~ 0
R7
Text Label 9750 3900 1    50   ~ 0
R8
Text Label 9850 3900 1    50   ~ 0
R9
Text Label 9950 3900 1    50   ~ 0
R10
Text Label 10050 3900 1    50   ~ 0
R11
$Comp
L Device:R R14
U 1 1 619B80A5
P 10650 1100
F 0 "R14" V 10443 1100 50  0000 C CNN
F 1 "10K" V 10534 1100 50  0000 C CNN
F 2 "Resistor_SMD:R_0805_2012Metric_Pad1.20x1.40mm_HandSolder" V 10580 1100 50  0001 C CNN
F 3 "~" H 10650 1100 50  0001 C CNN
	1    10650 1100
	0    1    1    0   
$EndComp
$Comp
L power:+3V3 #PWR0153
U 1 1 619B88B9
P 10500 1100
F 0 "#PWR0153" H 10500 950 50  0001 C CNN
F 1 "+3V3" H 10515 1273 50  0000 C CNN
F 2 "" H 10500 1100 50  0001 C CNN
F 3 "" H 10500 1100 50  0001 C CNN
	1    10500 1100
	0    -1   -1   0   
$EndComp
$Comp
L Device:R R21
U 1 1 619D2DA4
P 10650 800
F 0 "R21" V 10443 800 50  0000 C CNN
F 1 "10K" V 10534 800 50  0000 C CNN
F 2 "Resistor_SMD:R_0805_2012Metric_Pad1.20x1.40mm_HandSolder" V 10580 800 50  0001 C CNN
F 3 "~" H 10650 800 50  0001 C CNN
	1    10650 800 
	0    1    1    0   
$EndComp
$Comp
L power:+3V3 #PWR0156
U 1 1 619D31AC
P 10500 800
F 0 "#PWR0156" H 10500 650 50  0001 C CNN
F 1 "+3V3" H 10515 973 50  0000 C CNN
F 2 "" H 10500 800 50  0001 C CNN
F 3 "" H 10500 800 50  0001 C CNN
	1    10500 800 
	0    -1   -1   0   
$EndComp
Text Label 10800 1100 0    50   ~ 0
SCL
Text Label 10800 800  0    50   ~ 0
SDA
Text Label 9950 2350 0    50   ~ 0
SCL
Text Label 9950 2450 0    50   ~ 0
SDA
$Comp
L Relay:RT314A12 K2
U 1 1 61892E55
P 1750 3800
F 0 "K2" V 1183 3800 50  0000 C CNN
F 1 "RT314A12" V 1274 3800 50  0000 C CNN
F 2 "Relay_THT:Relay_SPDT_Schrack-RT1-16A-FormC_RM5mm" H 3300 3750 50  0001 C CNN
F 3 "https://www.te.com/commerce/DocumentDelivery/DDEController?Action=srchrtrv&DocNm=RT1_bistable&DocType=DS&DocLang=English" H 1750 3800 50  0001 C CNN
	1    1750 3800
	0    1    1    0   
$EndComp
Connection ~ 7850 1200
Wire Wire Line
	7850 1200 7700 1200
Connection ~ 7850 900 
Wire Wire Line
	7850 900  8000 900 
Wire Wire Line
	9950 1550 10300 1550
Text Label 10700 1950 2    50   ~ 0
SCL_EXT
Text Label 10700 1850 2    50   ~ 0
SDA_EXT
$Comp
L Device:R R20
U 1 1 60B2AF43
P 10450 1850
F 0 "R20" V 10243 1850 50  0000 C CNN
F 1 "100R" V 10334 1850 50  0000 C CNN
F 2 "Resistor_SMD:R_0805_2012Metric_Pad1.20x1.40mm_HandSolder" V 10380 1850 50  0001 C CNN
F 3 "~" H 10450 1850 50  0001 C CNN
	1    10450 1850
	0    -1   -1   0   
$EndComp
$Comp
L Device:R R19
U 1 1 60B2AB46
P 10450 1950
F 0 "R19" V 10243 1950 50  0000 C CNN
F 1 "100R" V 10334 1950 50  0000 C CNN
F 2 "Resistor_SMD:R_0805_2012Metric_Pad1.20x1.40mm_HandSolder" V 10380 1950 50  0001 C CNN
F 3 "~" H 10450 1950 50  0001 C CNN
	1    10450 1950
	0    -1   -1   0   
$EndComp
$Comp
L Device:R R18
U 1 1 60B2A761
P 10450 2050
F 0 "R18" V 10243 2050 50  0000 C CNN
F 1 "100R" V 10334 2050 50  0000 C CNN
F 2 "Resistor_SMD:R_0805_2012Metric_Pad1.20x1.40mm_HandSolder" V 10380 2050 50  0001 C CNN
F 3 "~" H 10450 2050 50  0001 C CNN
	1    10450 2050
	0    -1   -1   0   
$EndComp
$Comp
L Device:R R17
U 1 1 60B2A355
P 10450 2150
F 0 "R17" V 10243 2150 50  0000 C CNN
F 1 "100R" V 10334 2150 50  0000 C CNN
F 2 "Resistor_SMD:R_0805_2012Metric_Pad1.20x1.40mm_HandSolder" V 10380 2150 50  0001 C CNN
F 3 "~" H 10450 2150 50  0001 C CNN
	1    10450 2150
	0    -1   -1   0   
$EndComp
$Comp
L Device:R R16
U 1 1 60B29F4C
P 10450 2250
F 0 "R16" V 10243 2250 50  0000 C CNN
F 1 "100R" V 10334 2250 50  0000 C CNN
F 2 "Resistor_SMD:R_0805_2012Metric_Pad1.20x1.40mm_HandSolder" V 10380 2250 50  0001 C CNN
F 3 "~" H 10450 2250 50  0001 C CNN
	1    10450 2250
	0    -1   -1   0   
$EndComp
$Comp
L Device:R R5
U 1 1 60B1AF56
P 10450 2350
F 0 "R5" V 10243 2350 50  0000 C CNN
F 1 "100R" V 10334 2350 50  0000 C CNN
F 2 "Resistor_SMD:R_0805_2012Metric_Pad1.20x1.40mm_HandSolder" V 10380 2350 50  0001 C CNN
F 3 "~" H 10450 2350 50  0001 C CNN
	1    10450 2350
	0    -1   -1   0   
$EndComp
Wire Wire Line
	10700 1850 10600 1850
Wire Wire Line
	10700 1950 10600 1950
Wire Wire Line
	10700 2050 10600 2050
Wire Wire Line
	10700 2150 10600 2150
Wire Wire Line
	10700 2250 10600 2250
Wire Wire Line
	10700 2350 10600 2350
$Comp
L Connector:Conn_01x06_Female J1
U 1 1 60413583
P 10900 2150
F 0 "J1" H 10792 1625 50  0000 C CNN
F 1 "SWITCHES-SENSORS" H 10792 1716 50  0000 C CNN
F 2 "kahiwi:02x03MicroMatch" H 10900 2150 50  0001 C CNN
F 3 "~" H 10900 2150 50  0001 C CNN
	1    10900 2150
	1    0    0    1   
$EndComp
Wire Wire Line
	10300 1950 9950 1950
Wire Wire Line
	9950 2050 10300 2050
Wire Wire Line
	10300 2150 9950 2150
Wire Wire Line
	9950 2250 10300 2250
Wire Wire Line
	10300 1550 10300 1850
Wire Wire Line
	10300 2450 10950 2450
Wire Wire Line
	10950 2450 10950 1250
Wire Wire Line
	10300 2450 10300 2350
Wire Wire Line
	1450 1350 2000 1350
Wire Wire Line
	1450 1150 1800 1150
Wire Wire Line
	2000 1450 2000 1350
Connection ~ 2000 1350
Wire Wire Line
	1800 1450 1800 1150
Connection ~ 1800 1150
Wire Wire Line
	1800 1150 2000 1150
Wire Notes Line
	3500 500  3500 2350
Wire Notes Line
	500  2350 500  500 
Text Label 10550 6150 3    50   ~ 0
SDA
Text Label 10650 6150 3    50   ~ 0
SCL
Wire Wire Line
	10250 6150 10350 6150
Connection ~ 10250 6150
Connection ~ 10150 6150
Wire Wire Line
	10150 6150 10250 6150
$Comp
L power:+3V3 #PWR0152
U 1 1 6197D59F
P 10150 6150
F 0 "#PWR0152" H 10150 6000 50  0001 C CNN
F 1 "+3V3" H 10165 6323 50  0000 C CNN
F 2 "" H 10150 6150 50  0001 C CNN
F 3 "" H 10150 6150 50  0001 C CNN
	1    10150 6150
	1    0    0    1   
$EndComp
$Comp
L power:+3V3 #PWR0129
U 1 1 61992D31
P 10950 5650
F 0 "#PWR0129" H 10950 5500 50  0001 C CNN
F 1 "+3V3" H 10965 5823 50  0000 C CNN
F 2 "" H 10950 5650 50  0001 C CNN
F 3 "" H 10950 5650 50  0001 C CNN
	1    10950 5650
	0    1    -1   0   
$EndComp
$Comp
L power:GND #PWR0127
U 1 1 6198F702
P 9550 5650
F 0 "#PWR0127" H 9550 5400 50  0001 C CNN
F 1 "GND" V 9555 5522 50  0000 R CNN
F 2 "" H 9550 5650 50  0001 C CNN
F 3 "" H 9550 5650 50  0001 C CNN
	1    9550 5650
	0    1    -1   0   
$EndComp
$Comp
L Interface_Expansion:PCF8574A U6
U 1 1 618E44E8
P 10250 5650
F 0 "U6" H 10250 6531 50  0000 C CNN
F 1 "PCF8574A" H 10250 6440 50  0000 C CNN
F 2 "Package_SO:SOIC-16W_7.5x10.3mm_P1.27mm" H 10250 5650 50  0001 C CNN
F 3 "http://www.nxp.com/documents/data_sheet/PCF8574_PCF8574A.pdf" H 10250 5650 50  0001 C CNN
	1    10250 5650
	0    1    -1   0   
$EndComp
$Comp
L Interface_Expansion:PCF8574A U5
U 1 1 6191867A
P 8400 5650
F 0 "U5" H 8400 6531 50  0000 C CNN
F 1 "PCF8574A" H 8400 6440 50  0000 C CNN
F 2 "Package_SO:SOIC-16W_7.5x10.3mm_P1.27mm" H 8400 5650 50  0001 C CNN
F 3 "http://www.nxp.com/documents/data_sheet/PCF8574_PCF8574A.pdf" H 8400 5650 50  0001 C CNN
	1    8400 5650
	0    1    -1   0   
$EndComp
$Comp
L power:GND #PWR0105
U 1 1 6198DF10
P 7700 5650
F 0 "#PWR0105" H 7700 5400 50  0001 C CNN
F 1 "GND" V 7705 5522 50  0000 R CNN
F 2 "" H 7700 5650 50  0001 C CNN
F 3 "" H 7700 5650 50  0001 C CNN
	1    7700 5650
	0    1    -1   0   
$EndComp
$Comp
L power:+3V3 #PWR0128
U 1 1 619923F6
P 9100 5650
F 0 "#PWR0128" H 9100 5500 50  0001 C CNN
F 1 "+3V3" H 9115 5823 50  0000 C CNN
F 2 "" H 9100 5650 50  0001 C CNN
F 3 "" H 9100 5650 50  0001 C CNN
	1    9100 5650
	0    1    -1   0   
$EndComp
$Comp
L power:GND #PWR0150
U 1 1 6197BAB5
P 8500 6150
F 0 "#PWR0150" H 8500 5900 50  0001 C CNN
F 1 "GND" V 8505 6022 50  0000 R CNN
F 2 "" H 8500 6150 50  0001 C CNN
F 3 "" H 8500 6150 50  0001 C CNN
	1    8500 6150
	-1   0    0    -1  
$EndComp
$Comp
L power:+3V3 #PWR0151
U 1 1 6197CA2B
P 8300 6150
F 0 "#PWR0151" H 8300 6000 50  0001 C CNN
F 1 "+3V3" H 8315 6323 50  0000 C CNN
F 2 "" H 8300 6150 50  0001 C CNN
F 3 "" H 8300 6150 50  0001 C CNN
	1    8300 6150
	1    0    0    1   
$EndComp
Wire Wire Line
	8400 6150 8300 6150
Connection ~ 8300 6150
Text Label 8800 6150 3    50   ~ 0
SCL
Text Label 8700 6150 3    50   ~ 0
SDA
Wire Wire Line
	8400 5150 8400 4700
Wire Wire Line
	8300 4700 8300 5150
Wire Wire Line
	8200 5150 8200 4700
Wire Wire Line
	8100 5150 8100 4700
Wire Wire Line
	10250 5150 10250 4700
Wire Wire Line
	10150 4700 10150 5150
Wire Wire Line
	10050 5150 10050 4700
Wire Wire Line
	9950 4700 9950 5150
Wire Wire Line
	10350 5150 10350 5100
Wire Wire Line
	10350 5100 9650 5100
Wire Wire Line
	9650 5100 9650 4700
Wire Wire Line
	10450 5050 10450 5150
Wire Wire Line
	10450 5050 9750 5050
Wire Wire Line
	9750 5050 9750 4700
Wire Wire Line
	10550 5000 9850 5000
Wire Wire Line
	9850 5000 9850 4700
Wire Wire Line
	10550 5000 10550 5150
Wire Wire Line
	8500 5150 8500 5100
Wire Wire Line
	8500 5100 7800 5100
Wire Wire Line
	7800 5100 7800 4700
Wire Wire Line
	8600 5150 8600 5050
Wire Wire Line
	8600 5050 7900 5050
Wire Wire Line
	7900 5050 7900 4700
Wire Wire Line
	8700 5150 8700 5000
Wire Wire Line
	8700 5000 8000 5000
Wire Wire Line
	8000 5000 8000 4700
Wire Wire Line
	1250 4100 1450 4100
Wire Wire Line
	1450 4100 1450 4000
Wire Wire Line
	650  4300 650  4000
Wire Wire Line
	2150 3900 2050 3900
Wire Wire Line
	2400 4300 2400 4000
Wire Wire Line
	3000 4100 3200 4100
Wire Wire Line
	3200 4100 3200 4000
Wire Wire Line
	3900 4300 3900 3900
Wire Wire Line
	3900 3900 3800 3900
Wire Wire Line
	5950 4300 5950 4000
Wire Wire Line
	6550 4100 6750 4100
Wire Wire Line
	6750 4100 6750 4000
Wire Wire Line
	7400 3900 7350 3900
Wire Wire Line
	1250 6950 1450 6950
Wire Wire Line
	1450 6950 1450 6850
Wire Wire Line
	3000 6950 3200 6950
Wire Wire Line
	3200 6950 3200 6850
Wire Wire Line
	2400 7150 2400 6850
Wire Wire Line
	4800 4100 5000 4100
Wire Wire Line
	5000 4100 5000 4000
Wire Wire Line
	4200 4300 4200 4000
$Comp
L kahiwi:WAGO2604-1102 J4
U 1 1 618F55BF
P 2100 4650
F 0 "J4" V 1939 4402 60  0000 R CNN
F 1 "WAGO2604-1102" V 2045 4402 60  0000 R CNN
F 2 "WAGO2604-1102" H 2150 4350 60  0001 C CNN
F 3 "" H 2200 4600 60  0000 C CNN
	1    2100 4650
	0    -1   1    0   
$EndComp
Wire Wire Line
	2400 4300 3050 4300
Wire Wire Line
	4200 4300 4850 4300
Wire Wire Line
	5950 4300 6600 4300
Wire Wire Line
	2050 4100 2050 4350
Wire Wire Line
	2150 3900 2150 4350
Wire Wire Line
	2150 4350 2250 4350
Connection ~ 2150 4350
Wire Wire Line
	2050 4350 1950 4350
Connection ~ 2050 4350
$Comp
L kahiwi:WAGO2604-1102 J9
U 1 1 619A2399
P 3850 4600
F 0 "J9" V 3689 4352 60  0000 R CNN
F 1 "WAGO2604-1102" V 3795 4352 60  0000 R CNN
F 2 "WAGO2604-1102" H 3900 4300 60  0001 C CNN
F 3 "" H 3950 4550 60  0000 C CNN
	1    3850 4600
	0    -1   1    0   
$EndComp
Wire Wire Line
	3800 4300 3800 4100
Wire Wire Line
	3700 4300 3800 4300
Connection ~ 3800 4300
Wire Wire Line
	3900 4300 4000 4300
Connection ~ 3900 4300
$Comp
L kahiwi:WAGO2604-1102 J11
U 1 1 619D9FDB
P 5650 4600
F 0 "J11" V 5489 4352 60  0000 R CNN
F 1 "WAGO2604-1102" V 5595 4352 60  0000 R CNN
F 2 "WAGO2604-1102" H 5700 4300 60  0001 C CNN
F 3 "" H 5750 4550 60  0000 C CNN
	1    5650 4600
	0    -1   1    0   
$EndComp
Wire Wire Line
	5600 4100 5600 4300
Wire Wire Line
	5700 4300 5700 3900
Wire Wire Line
	5600 3900 5700 3900
Wire Wire Line
	5500 4300 5600 4300
Connection ~ 5600 4300
Wire Wire Line
	5800 4300 5700 4300
Connection ~ 5700 4300
$Comp
L kahiwi:WAGO2604-1102 J12
U 1 1 61A1B5D1
P 7350 4700
F 0 "J12" V 7189 4452 60  0000 R CNN
F 1 "WAGO2604-1102" V 7295 4452 60  0000 R CNN
F 2 "WAGO2604-1102" H 7400 4400 60  0001 C CNN
F 3 "" H 7450 4650 60  0000 C CNN
	1    7350 4700
	0    -1   1    0   
$EndComp
Wire Wire Line
	7400 3900 7400 4400
Wire Wire Line
	7350 4400 7300 4400
Wire Wire Line
	7350 4100 7350 4400
Connection ~ 7300 4400
Wire Wire Line
	7300 4400 7200 4400
Wire Wire Line
	7500 4400 7400 4400
Connection ~ 7400 4400
$Comp
L kahiwi:WAGO2604-1102 J8
U 1 1 61A61032
P 2100 7450
F 0 "J8" V 1939 7202 60  0000 R CNN
F 1 "WAGO2604-1102" V 2045 7202 60  0000 R CNN
F 2 "WAGO2604-1102" H 2150 7150 60  0001 C CNN
F 3 "" H 2200 7400 60  0000 C CNN
	1    2100 7450
	0    -1   1    0   
$EndComp
$Comp
L kahiwi:WAGO2604-1102 J10
U 1 1 61A6305D
P 3850 7450
F 0 "J10" V 3689 7202 60  0000 R CNN
F 1 "WAGO2604-1102" V 3795 7202 60  0000 R CNN
F 2 "WAGO2604-1102" H 3900 7150 60  0001 C CNN
F 3 "" H 3950 7400 60  0000 C CNN
	1    3850 7450
	0    -1   1    0   
$EndComp
Wire Wire Line
	3800 6950 3800 7150
Wire Wire Line
	3900 7150 3900 6750
Wire Wire Line
	3800 6750 3900 6750
Wire Wire Line
	2050 6950 2050 7150
Wire Wire Line
	2150 7150 2150 6750
Wire Wire Line
	2050 6750 2150 6750
Wire Wire Line
	1950 7150 2050 7150
Connection ~ 2050 7150
Wire Wire Line
	2250 7150 2150 7150
Connection ~ 2150 7150
Wire Wire Line
	3700 7150 3800 7150
Connection ~ 3800 7150
Wire Wire Line
	4000 7150 3900 7150
Connection ~ 3900 7150
$Comp
L kahiwi:WAGO2604-1104 J2
U 1 1 61AC2061
P 850 4700
F 0 "J2" V 639 5178 60  0000 L CNN
F 1 "WAGO2604-1104" V 745 5178 60  0000 L CNN
F 2 "kahiwi:WAGO2604-1104" H 900 4400 60  0001 C CNN
F 3 "" H 950 4650 60  0000 C CNN
	1    850  4700
	0    1    1    0   
$EndComp
Wire Wire Line
	550  4300 650  4300
Connection ~ 650  4300
Wire Wire Line
	650  4300 750  4300
Connection ~ 750  4300
Wire Wire Line
	750  4300 850  4300
$Comp
L power:AC #PWR0148
U 1 1 61ACE77E
P 600 4000
F 0 "#PWR0148" H 600 3900 50  0001 C CNN
F 1 "AC" H 600 4275 50  0000 C CNN
F 2 "" H 600 4000 50  0001 C CNN
F 3 "" H 600 4000 50  0001 C CNN
	1    600  4000
	1    0    0    -1  
$EndComp
Wire Wire Line
	600  4000 650  4000
Connection ~ 650  4000
$Comp
L power:AC #PWR0149
U 1 1 61ADB245
P 4850 4300
F 0 "#PWR0149" H 4850 4200 50  0001 C CNN
F 1 "AC" V 4850 4530 50  0000 L CNN
F 2 "" H 4850 4300 50  0001 C CNN
F 3 "" H 4850 4300 50  0001 C CNN
	1    4850 4300
	0    1    1    0   
$EndComp
$Comp
L power:AC #PWR0157
U 1 1 61ADCDAE
P 6600 4300
F 0 "#PWR0157" H 6600 4200 50  0001 C CNN
F 1 "AC" V 6600 4530 50  0000 L CNN
F 2 "" H 6600 4300 50  0001 C CNN
F 3 "" H 6600 4300 50  0001 C CNN
	1    6600 4300
	0    1    1    0   
$EndComp
$Comp
L power:AC #PWR0158
U 1 1 61ADF4BC
P 1200 7200
F 0 "#PWR0158" H 1200 7100 50  0001 C CNN
F 1 "AC" V 1200 7430 50  0000 L CNN
F 2 "" H 1200 7200 50  0001 C CNN
F 3 "" H 1200 7200 50  0001 C CNN
	1    1200 7200
	0    1    1    0   
$EndComp
$Comp
L power:AC #PWR0159
U 1 1 61AE48D5
P 3000 7150
F 0 "#PWR0159" H 3000 7050 50  0001 C CNN
F 1 "AC" V 3000 7380 50  0000 L CNN
F 2 "" H 3000 7150 50  0001 C CNN
F 3 "" H 3000 7150 50  0001 C CNN
	1    3000 7150
	0    1    1    0   
$EndComp
Wire Wire Line
	3000 7150 2400 7150
Wire Wire Line
	1200 7200 650  7200
Wire Wire Line
	650  6850 650  7200
$Comp
L Converter_ACDC:IRM-02-12 PS1
U 1 1 61B05D1B
P 5500 6400
F 0 "PS1" H 5500 6725 50  0000 C CNN
F 1 "IRM-02-12" H 5500 6634 50  0000 C CNN
F 2 "Converter_ACDC:Converter_ACDC_MeanWell_IRM-02-xx_THT" H 5500 6100 50  0001 C CNN
F 3 "https://www.meanwell.com/Upload/PDF/IRM-02/IRM-02-SPEC.PDF" H 5900 6050 50  0001 C CNN
	1    5500 6400
	1    0    0    -1  
$EndComp
Wire Wire Line
	950  4300 1050 4300
Connection ~ 1050 4300
Wire Wire Line
	1050 4300 1150 4300
Connection ~ 1150 4300
Wire Wire Line
	1150 4300 1250 4300
$Comp
L power:NEUT #PWR0160
U 1 1 61B25163
P 1250 4300
F 0 "#PWR0160" H 1250 4150 50  0001 C CNN
F 1 "NEUT" V 1265 4428 50  0000 L CNN
F 2 "" H 1250 4300 50  0001 C CNN
F 3 "" H 1250 4300 50  0001 C CNN
	1    1250 4300
	0    1    1    0   
$EndComp
Connection ~ 1250 4300
$Comp
L power:AC #PWR0161
U 1 1 61B30015
P 4950 6300
F 0 "#PWR0161" H 4950 6200 50  0001 C CNN
F 1 "AC" H 4950 6575 50  0000 C CNN
F 2 "" H 4950 6300 50  0001 C CNN
F 3 "" H 4950 6300 50  0001 C CNN
	1    4950 6300
	1    0    0    -1  
$EndComp
Wire Wire Line
	4950 6300 5100 6300
$Comp
L power:NEUT #PWR0163
U 1 1 61B428DB
P 4950 6500
F 0 "#PWR0163" H 4950 6350 50  0001 C CNN
F 1 "NEUT" H 4965 6673 50  0000 C CNN
F 2 "" H 4950 6500 50  0001 C CNN
F 3 "" H 4950 6500 50  0001 C CNN
	1    4950 6500
	-1   0    0    1   
$EndComp
Wire Wire Line
	4950 6500 5100 6500
$Comp
L power:+12V #PWR0164
U 1 1 61B534E1
P 5900 6300
F 0 "#PWR0164" H 5900 6150 50  0001 C CNN
F 1 "+12V" H 5915 6473 50  0000 C CNN
F 2 "" H 5900 6300 50  0001 C CNN
F 3 "" H 5900 6300 50  0001 C CNN
	1    5900 6300
	0    1    1    0   
$EndComp
$Comp
L power:GND2 #PWR0165
U 1 1 61B5AE80
P 5900 6500
F 0 "#PWR0165" H 5900 6250 50  0001 C CNN
F 1 "GND2" H 5905 6327 50  0000 C CNN
F 2 "" H 5900 6500 50  0001 C CNN
F 3 "" H 5900 6500 50  0001 C CNN
	1    5900 6500
	0    -1   -1   0   
$EndComp
$Comp
L Jumper:Jumper_2_Open JP1
U 1 1 61B6E03E
P 1700 600
F 0 "JP1" H 1700 835 50  0000 C CNN
F 1 "Jumper_2_Open" H 1700 744 50  0000 C CNN
F 2 "Connector_PinHeader_2.54mm:PinHeader_1x02_P2.54mm_Vertical" H 1700 600 50  0001 C CNN
F 3 "~" H 1700 600 50  0001 C CNN
	1    1700 600 
	1    0    0    -1  
$EndComp
$Comp
L Jumper:Jumper_2_Open JP2
U 1 1 61B74918
P 1700 800
F 0 "JP2" H 1700 1035 50  0000 C CNN
F 1 "Jumper_2_Open" H 1700 944 50  0000 C CNN
F 2 "Connector_PinHeader_2.54mm:PinHeader_1x02_P2.54mm_Vertical" H 1700 800 50  0001 C CNN
F 3 "~" H 1700 800 50  0001 C CNN
	1    1700 800 
	1    0    0    -1  
$EndComp
Wire Wire Line
	1500 800  1500 1050
Wire Wire Line
	1500 1050 1450 1050
Wire Wire Line
	1450 950  1450 600 
Wire Wire Line
	1450 600  1500 600 
$Comp
L power:AC #PWR?
U 1 1 61C7433C
P 3050 4300
F 0 "#PWR?" H 3050 4200 50  0001 C CNN
F 1 "AC" V 3050 4530 50  0000 L CNN
F 2 "" H 3050 4300 50  0001 C CNN
F 3 "" H 3050 4300 50  0001 C CNN
	1    3050 4300
	0    1    1    0   
$EndComp
$EndSCHEMATC
