EESchema Schematic File Version 4
EELAYER 30 0
EELAYER END
$Descr A4 11693 8268
encoding utf-8
Sheet 1 1
Title ""
Date ""
Rev ""
Comp ""
Comment1 ""
Comment2 ""
Comment3 ""
Comment4 ""
$EndDescr
Text GLabel 6350 2800 2    50   Output ~ 0
PWM0
Text GLabel 6350 2900 2    50   Output ~ 0
PWM1
Text GLabel 6350 3000 2    50   Output ~ 0
PWM2
Text GLabel 5050 2300 0    50   Output ~ 0
PWM3
Text GLabel 5050 2400 0    50   Output ~ 0
PWM4
Text GLabel 6350 3200 2    50   Output ~ 0
PWM5
Text GLabel 5050 3300 0    50   Output ~ 0
PWM6
Text GLabel 5050 3400 0    50   Output ~ 0
PWM7
Wire Wire Line
	6600 3300 6600 3500
Wire Wire Line
	6600 3500 6350 3500
Wire Wire Line
	6600 3300 7400 3300
Text GLabel 6450 3700 2    50   Input ~ 0
SWCLK
Text GLabel 6450 3600 2    50   BiDi ~ 0
SWDIO
Wire Wire Line
	6450 3600 6350 3600
$Comp
L power:GND #PWR0101
U 1 1 5E24901B
P 7500 1250
F 0 "#PWR0101" H 7500 1000 50  0001 C CNN
F 1 "GND" H 7505 1077 50  0000 C CNN
F 2 "" H 7500 1250 50  0001 C CNN
F 3 "" H 7500 1250 50  0001 C CNN
	1    7500 1250
	1    0    0    -1  
$EndComp
$Comp
L power:GND #PWR0102
U 1 1 5E24B444
P 7900 3900
F 0 "#PWR0102" H 7900 3650 50  0001 C CNN
F 1 "GND" H 7905 3727 50  0000 C CNN
F 2 "" H 7900 3900 50  0001 C CNN
F 3 "" H 7900 3900 50  0001 C CNN
	1    7900 3900
	1    0    0    -1  
$EndComp
$Comp
L power:GND #PWR0103
U 1 1 5E24EC58
P 5250 4000
F 0 "#PWR0103" H 5250 3750 50  0001 C CNN
F 1 "GND" H 5255 3827 50  0000 C CNN
F 2 "" H 5250 4000 50  0001 C CNN
F 3 "" H 5250 4000 50  0001 C CNN
	1    5250 4000
	1    0    0    -1  
$EndComp
$Comp
L Interface_CAN_LIN:MCP2562-E-SN U4
U 1 1 5E25921A
P 7900 3500
F 0 "U4" H 7900 4081 50  0000 C CNN
F 1 "MCP2562-E-SN" H 7900 3990 50  0000 C CNN
F 2 "Package_SO:SOIC-8_3.9x4.9mm_P1.27mm" H 7900 3000 50  0001 C CIN
F 3 "http://ww1.microchip.com/downloads/en/DeviceDoc/25167A.pdf" H 7900 3500 50  0001 C CNN
	1    7900 3500
	1    0    0    -1  
$EndComp
Wire Wire Line
	6950 750  6950 950 
$Comp
L power:+3V3 #PWR0107
U 1 1 5E2A351D
P 8000 750
F 0 "#PWR0107" H 8000 600 50  0001 C CNN
F 1 "+3V3" H 8015 923 50  0000 C CNN
F 2 "" H 8000 750 50  0001 C CNN
F 3 "" H 8000 750 50  0001 C CNN
	1    8000 750 
	1    0    0    -1  
$EndComp
Wire Wire Line
	8000 750  8000 950 
Wire Wire Line
	8000 950  7800 950 
$Comp
L Device:C C7
U 1 1 5E2A7C01
P 6950 1100
F 0 "C7" H 7068 1146 50  0000 L CNN
F 1 "10μF" H 7068 1055 50  0000 L CNN
F 2 "Capacitor_SMD:C_0805_2012Metric_Pad1.18x1.45mm_HandSolder" H 6988 950 50  0001 C CNN
F 3 "~" H 6950 1100 50  0001 C CNN
	1    6950 1100
	1    0    0    -1  
$EndComp
Connection ~ 6950 950 
$Comp
L Device:C C11
U 1 1 5E2A83FB
P 8000 1100
F 0 "C11" H 8118 1146 50  0000 L CNN
F 1 "10μF" H 8118 1055 50  0000 L CNN
F 2 "Capacitor_SMD:C_0805_2012Metric_Pad1.18x1.45mm_HandSolder" H 8038 950 50  0001 C CNN
F 3 "~" H 8000 1100 50  0001 C CNN
	1    8000 1100
	1    0    0    -1  
$EndComp
Connection ~ 8000 950 
Connection ~ 7500 1250
Wire Wire Line
	7500 1250 8000 1250
Wire Wire Line
	6950 950  7200 950 
Wire Wire Line
	5250 4000 5550 4000
Wire Wire Line
	5550 4000 5650 4000
Connection ~ 5550 4000
Wire Wire Line
	5650 4000 5750 4000
Connection ~ 5650 4000
Wire Wire Line
	5750 4000 5850 4000
Connection ~ 5750 4000
Wire Wire Line
	5550 1100 5550 1000
Wire Wire Line
	5550 1000 5650 1000
Wire Wire Line
	5650 1000 5750 1000
Connection ~ 5650 1000
Wire Wire Line
	5750 1000 5850 1000
Connection ~ 5750 1000
Wire Wire Line
	5850 1000 5950 1000
Connection ~ 5850 1000
$Comp
L power:+3V3 #PWR0111
U 1 1 5E28E9AA
P 7400 3600
F 0 "#PWR0111" H 7400 3450 50  0001 C CNN
F 1 "+3V3" H 7415 3773 50  0000 C CNN
F 2 "" H 7400 3600 50  0001 C CNN
F 3 "" H 7400 3600 50  0001 C CNN
	1    7400 3600
	0    -1   -1   0   
$EndComp
$Comp
L power:+5V #PWR0112
U 1 1 5E28F41C
P 8300 3100
F 0 "#PWR0112" H 8300 2950 50  0001 C CNN
F 1 "+5V" H 8315 3273 50  0000 C CNN
F 2 "" H 8300 3100 50  0001 C CNN
F 3 "" H 8300 3100 50  0001 C CNN
	1    8300 3100
	1    0    0    -1  
$EndComp
Wire Wire Line
	8300 3100 7900 3100
Text GLabel 3150 1150 2    50   Output ~ 0
SWCLK
Text GLabel 3150 1350 2    50   BiDi ~ 0
SWDIO
$Comp
L MCU_ST_STM32F1:STM32F103C8Tx U2
U 1 1 5E211558
P 5750 2500
F 0 "U2" H 5700 911 50  0000 C CNN
F 1 "STM32L431CBT6" H 5700 820 50  0000 C CNN
F 2 "Package_QFP:LQFP-48_7x7mm_P0.5mm" H 5150 1100 50  0001 R CNN
F 3 "http://www.st.com/st-web-ui/static/active/en/resource/technical/document/datasheet/CD00161566.pdf" H 5750 2500 50  0001 C CNN
	1    5750 2500
	1    0    0    -1  
$EndComp
Connection ~ 5550 1000
Wire Wire Line
	5550 1000 5450 1000
$Comp
L power:+3V3 #PWR0115
U 1 1 5E2EEAD5
P 5450 1000
F 0 "#PWR0115" H 5450 850 50  0001 C CNN
F 1 "+3V3" H 5465 1173 50  0000 C CNN
F 2 "" H 5450 1000 50  0001 C CNN
F 3 "" H 5450 1000 50  0001 C CNN
	1    5450 1000
	1    0    0    -1  
$EndComp
$Comp
L power:GND #PWR0119
U 1 1 5E3EC3DE
P 5050 1400
F 0 "#PWR0119" H 5050 1150 50  0001 C CNN
F 1 "GND" H 5055 1227 50  0000 C CNN
F 2 "" H 5050 1400 50  0001 C CNN
F 3 "" H 5050 1400 50  0001 C CNN
	1    5050 1400
	0    1    1    0   
$EndComp
$Comp
L Device:C C6
U 1 1 5E3F1A7D
P 5000 900
F 0 "C6" H 4885 854 50  0000 R CNN
F 1 "1nF" H 4885 945 50  0000 R CNN
F 2 "Capacitor_SMD:C_0603_1608Metric_Pad1.08x0.95mm_HandSolder" H 5038 750 50  0001 C CNN
F 3 "~" H 5000 900 50  0001 C CNN
	1    5000 900 
	-1   0    0    1   
$EndComp
$Comp
L power:GND #PWR0120
U 1 1 5E3F3D82
P 5000 750
F 0 "#PWR0120" H 5000 500 50  0001 C CNN
F 1 "GND" H 5005 577 50  0000 C CNN
F 2 "" H 5000 750 50  0001 C CNN
F 3 "" H 5000 750 50  0001 C CNN
	1    5000 750 
	-1   0    0    1   
$EndComp
Wire Wire Line
	5050 1200 5000 1200
Wire Wire Line
	5000 1200 5000 1050
Text GLabel 2000 1900 2    50   Input ~ 0
PWM7
Text GLabel 2000 1800 2    50   Input ~ 0
PWM6
Text GLabel 2000 1500 2    50   Input ~ 0
PWM3
Text GLabel 2000 1400 2    50   Input ~ 0
PWM2
Text GLabel 2000 1600 2    50   Input ~ 0
PWM4
Text GLabel 2000 1700 2    50   Input ~ 0
PWM5
Text GLabel 2000 3900 2    50   Input ~ 0
PWM14
Text GLabel 2000 4000 2    50   Input ~ 0
PWM15
Text GLabel 2000 5450 2    50   Input ~ 0
PWM16
Text GLabel 2000 5550 2    50   Input ~ 0
PWM17
Text GLabel 2000 5650 2    50   Input ~ 0
PWM18
Text GLabel 2000 5750 2    50   Input ~ 0
PWM19
Text GLabel 2000 5850 2    50   Input ~ 0
PWM20
Text GLabel 2000 5950 2    50   Input ~ 0
PWM21
Text GLabel 2000 6050 2    50   Input ~ 0
PWM22
Text GLabel 5050 2100 0    50   Output ~ 0
PWM8
Text GLabel 5050 1600 0    50   Output ~ 0
PWM9
Text GLabel 5050 1700 0    50   Output ~ 0
PWM10
Text GLabel 6350 2300 2    50   Output ~ 0
PWM11
$Comp
L Device:C C9
U 1 1 5E5BB486
P 6700 1750
F 0 "C9" H 6585 1704 50  0000 R CNN
F 1 "100nF" H 6585 1795 50  0000 R CNN
F 2 "Capacitor_SMD:C_0603_1608Metric_Pad1.08x0.95mm_HandSolder" H 6738 1600 50  0001 C CNN
F 3 "~" H 6700 1750 50  0001 C CNN
	1    6700 1750
	-1   0    0    1   
$EndComp
$Comp
L Device:C C10
U 1 1 5E5C375F
P 7150 1750
F 0 "C10" H 7035 1704 50  0000 R CNN
F 1 "100nF" H 7035 1795 50  0000 R CNN
F 2 "Capacitor_SMD:C_0603_1608Metric_Pad1.08x0.95mm_HandSolder" H 7188 1600 50  0001 C CNN
F 3 "~" H 7150 1750 50  0001 C CNN
	1    7150 1750
	-1   0    0    1   
$EndComp
$Comp
L Device:C C12
U 1 1 5E5C4155
P 7600 1750
F 0 "C12" H 7485 1704 50  0000 R CNN
F 1 "100nF" H 7485 1795 50  0000 R CNN
F 2 "Capacitor_SMD:C_0603_1608Metric_Pad1.08x0.95mm_HandSolder" H 7638 1600 50  0001 C CNN
F 3 "~" H 7600 1750 50  0001 C CNN
	1    7600 1750
	-1   0    0    1   
$EndComp
$Comp
L power:GND #PWR0127
U 1 1 5E5CFCB6
P 6700 1900
F 0 "#PWR0127" H 6700 1650 50  0001 C CNN
F 1 "GND" H 6705 1727 50  0000 C CNN
F 2 "" H 6700 1900 50  0001 C CNN
F 3 "" H 6700 1900 50  0001 C CNN
	1    6700 1900
	1    0    0    -1  
$EndComp
$Comp
L power:+3V3 #PWR0128
U 1 1 5E5D0D29
P 6700 1600
F 0 "#PWR0128" H 6700 1450 50  0001 C CNN
F 1 "+3V3" H 6715 1773 50  0000 C CNN
F 2 "" H 6700 1600 50  0001 C CNN
F 3 "" H 6700 1600 50  0001 C CNN
	1    6700 1600
	1    0    0    -1  
$EndComp
Connection ~ 6700 1600
Connection ~ 7150 1600
Wire Wire Line
	7150 1600 6700 1600
Connection ~ 7600 1600
Wire Wire Line
	7600 1600 7150 1600
Connection ~ 6700 1900
Connection ~ 7150 1900
Wire Wire Line
	7150 1900 6700 1900
Connection ~ 7600 1900
Wire Wire Line
	7600 1900 7150 1900
Text GLabel 2000 6150 2    50   Input ~ 0
PWM23
Wire Wire Line
	6950 1250 7500 1250
$Comp
L Device:C C18
U 1 1 5E4291D1
P 10200 3650
F 0 "C18" H 10085 3604 50  0000 R CNN
F 1 "100nF" H 10085 3695 50  0000 R CNN
F 2 "Capacitor_SMD:C_0603_1608Metric_Pad1.08x0.95mm_HandSolder" H 10238 3500 50  0001 C CNN
F 3 "~" H 10200 3650 50  0001 C CNN
	1    10200 3650
	-1   0    0    1   
$EndComp
$Comp
L power:+5V #PWR0135
U 1 1 5E5AFC65
P 6950 750
F 0 "#PWR0135" H 6950 600 50  0001 C CNN
F 1 "+5V" H 6965 923 50  0000 C CNN
F 2 "" H 6950 750 50  0001 C CNN
F 3 "" H 6950 750 50  0001 C CNN
	1    6950 750 
	1    0    0    -1  
$EndComp
Wire Wire Line
	8400 3600 8400 3500
Wire Wire Line
	8400 3400 8600 3400
Wire Wire Line
	8600 3400 8600 3600
$Comp
L power:GND #PWR0137
U 1 1 5E68DB37
P 8800 3200
F 0 "#PWR0137" H 8800 2950 50  0001 C CNN
F 1 "GND" H 8805 3027 50  0000 C CNN
F 2 "" H 8800 3200 50  0001 C CNN
F 3 "" H 8800 3200 50  0001 C CNN
	1    8800 3200
	0    1    1    0   
$EndComp
$Comp
L power:GND #PWR0138
U 1 1 5E68E077
P 8800 3900
F 0 "#PWR0138" H 8800 3650 50  0001 C CNN
F 1 "GND" H 8805 3727 50  0000 C CNN
F 2 "" H 8800 3900 50  0001 C CNN
F 3 "" H 8800 3900 50  0001 C CNN
	1    8800 3900
	0    1    1    0   
$EndComp
$Comp
L power:+5V #PWR0139
U 1 1 5E68E4E1
P 8600 3800
F 0 "#PWR0139" H 8600 3650 50  0001 C CNN
F 1 "+5V" H 8615 3973 50  0000 C CNN
F 2 "" H 8600 3800 50  0001 C CNN
F 3 "" H 8600 3800 50  0001 C CNN
	1    8600 3800
	0    -1   -1   0   
$EndComp
$Comp
L power:+12V #PWR0140
U 1 1 5E697F3A
P 8600 3300
F 0 "#PWR0140" H 8600 3150 50  0001 C CNN
F 1 "+12V" H 8615 3473 50  0000 C CNN
F 2 "" H 8600 3300 50  0001 C CNN
F 3 "" H 8600 3300 50  0001 C CNN
	1    8600 3300
	0    -1   -1   0   
$EndComp
Wire Wire Line
	8600 3300 8800 3300
Text GLabel 2000 3700 2    50   Input ~ 0
PWM12
Text GLabel 2000 3800 2    50   Input ~ 0
PWM13
$Comp
L Device:C C21
U 1 1 5E73EEB0
P 10800 1750
F 0 "C21" H 10685 1704 50  0000 R CNN
F 1 "100nF" H 10685 1795 50  0000 R CNN
F 2 "Capacitor_SMD:C_0603_1608Metric_Pad1.08x0.95mm_HandSolder" H 10838 1600 50  0001 C CNN
F 3 "~" H 10800 1750 50  0001 C CNN
	1    10800 1750
	-1   0    0    1   
$EndComp
$Comp
L Device:R R11
U 1 1 5E7DE0FF
P 4800 900
F 0 "R11" V 5007 900 50  0000 C CNN
F 1 "4K7" V 4916 900 50  0000 C CNN
F 2 "Resistor_SMD:R_0603_1608Metric_Pad0.98x0.95mm_HandSolder" V 4730 900 50  0001 C CNN
F 3 "~" H 4800 900 50  0001 C CNN
	1    4800 900 
	-1   0    0    1   
$EndComp
$Comp
L power:+3V3 #PWR0141
U 1 1 5E7DEA6E
P 4800 750
F 0 "#PWR0141" H 4800 600 50  0001 C CNN
F 1 "+3V3" H 4815 923 50  0000 C CNN
F 2 "" H 4800 750 50  0001 C CNN
F 3 "" H 4800 750 50  0001 C CNN
	1    4800 750 
	1    0    0    -1  
$EndComp
Wire Wire Line
	5000 1200 4800 1200
Wire Wire Line
	4800 1200 4800 1050
Connection ~ 5000 1200
Wire Wire Line
	4300 1200 4800 1200
Connection ~ 4800 1200
$Comp
L power:+3V3 #PWR0142
U 1 1 5EBF9A45
P 10200 2350
F 0 "#PWR0142" H 10200 2200 50  0001 C CNN
F 1 "+3V3" H 10215 2523 50  0000 C CNN
F 2 "" H 10200 2350 50  0001 C CNN
F 3 "" H 10200 2350 50  0001 C CNN
	1    10200 2350
	1    0    0    -1  
$EndComp
Wire Wire Line
	4600 3500 5050 3500
Text Label 4600 3500 0    50   ~ 0
LED0
Text Label 4600 3600 0    50   ~ 0
LED1
Wire Wire Line
	10500 2350 10200 2350
Connection ~ 10200 2350
$Comp
L Device:R R13
U 1 1 5EBDB450
P 10200 2800
F 0 "R13" H 10130 2754 50  0000 R CNN
F 1 "1K7" H 10130 2845 50  0000 R CNN
F 2 "Resistor_SMD:R_0603_1608Metric_Pad0.98x0.95mm_HandSolder" V 10130 2800 50  0001 C CNN
F 3 "~" H 10200 2800 50  0001 C CNN
	1    10200 2800
	1    0    0    -1  
$EndComp
$Comp
L Device:R R14
U 1 1 5EBE013D
P 10500 2800
F 0 "R14" H 10430 2754 50  0000 R CNN
F 1 "1K7" H 10430 2845 50  0000 R CNN
F 2 "Resistor_SMD:R_0603_1608Metric_Pad0.98x0.95mm_HandSolder" V 10430 2800 50  0001 C CNN
F 3 "~" H 10500 2800 50  0001 C CNN
	1    10500 2800
	1    0    0    -1  
$EndComp
$Comp
L Device:LED D3
U 1 1 5EBF83F7
P 10200 2500
F 0 "D3" V 10239 2383 50  0000 R CNN
F 1 "LED" V 10148 2383 50  0000 R CNN
F 2 "LED_SMD:LED_0603_1608Metric_Pad1.05x0.95mm_HandSolder" H 10200 2500 50  0001 C CNN
F 3 "~" H 10200 2500 50  0001 C CNN
	1    10200 2500
	0    -1   -1   0   
$EndComp
$Comp
L Device:LED D4
U 1 1 5EBF9030
P 10500 2500
F 0 "D4" V 10539 2383 50  0000 R CNN
F 1 "LED" V 10448 2383 50  0000 R CNN
F 2 "LED_SMD:LED_0603_1608Metric_Pad1.05x0.95mm_HandSolder" H 10500 2500 50  0001 C CNN
F 3 "~" H 10500 2500 50  0001 C CNN
	1    10500 2500
	0    -1   -1   0   
$EndComp
Wire Wire Line
	10500 2950 10850 2950
Wire Wire Line
	10200 2950 10200 3150
Wire Wire Line
	10200 3150 10850 3150
Text Label 10850 3150 2    50   ~ 0
LED0
Text Label 10850 2950 2    50   ~ 0
LED1
Wire Wire Line
	5050 3600 4600 3600
Text Label 4500 1200 0    50   ~ 0
NRST
Text Label 6800 3300 0    50   ~ 0
CAN_TXD
Text Label 6800 3400 0    50   ~ 0
CAN_RXD
Text Label 8500 3400 0    50   ~ 0
CANH
Text Label 8400 3500 0    50   ~ 0
CANL
$Comp
L power:GND #PWR0143
U 1 1 5E4E8405
P 3150 1250
F 0 "#PWR0143" H 3150 1000 50  0001 C CNN
F 1 "GND" H 3155 1077 50  0000 C CNN
F 2 "" H 3150 1250 50  0001 C CNN
F 3 "" H 3150 1250 50  0001 C CNN
	1    3150 1250
	0    -1   -1   0   
$EndComp
Text GLabel 3900 2500 3    50   BiDi ~ 0
SWDIO
Text GLabel 4200 2500 3    50   Output ~ 0
SWCLK
$Comp
L Device:R R16
U 1 1 5E5752DE
P 3900 2350
F 0 "R16" H 3830 2304 50  0000 R CNN
F 1 "100K" H 3830 2395 50  0000 R CNN
F 2 "Resistor_SMD:R_0603_1608Metric_Pad0.98x0.95mm_HandSolder" V 3830 2350 50  0001 C CNN
F 3 "~" H 3900 2350 50  0001 C CNN
	1    3900 2350
	1    0    0    -1  
$EndComp
$Comp
L Device:R R18
U 1 1 5E575D22
P 4200 2350
F 0 "R18" H 4130 2304 50  0000 R CNN
F 1 "100K" H 4130 2395 50  0000 R CNN
F 2 "Resistor_SMD:R_0603_1608Metric_Pad0.98x0.95mm_HandSolder" V 4130 2350 50  0001 C CNN
F 3 "~" H 4200 2350 50  0001 C CNN
	1    4200 2350
	1    0    0    -1  
$EndComp
$Comp
L power:GND #PWR0147
U 1 1 5E58837D
P 4200 2200
F 0 "#PWR0147" H 4200 1950 50  0001 C CNN
F 1 "GND" H 4205 2027 50  0000 C CNN
F 2 "" H 4200 2200 50  0001 C CNN
F 3 "" H 4200 2200 50  0001 C CNN
	1    4200 2200
	-1   0    0    1   
$EndComp
$Comp
L power:+3V3 #PWR0148
U 1 1 5E588BB4
P 3900 2200
F 0 "#PWR0148" H 3900 2050 50  0001 C CNN
F 1 "+3V3" H 3915 2373 50  0000 C CNN
F 2 "" H 3900 2200 50  0001 C CNN
F 3 "" H 3900 2200 50  0001 C CNN
	1    3900 2200
	1    0    0    -1  
$EndComp
$Comp
L Device:R_Pack04 RN6
U 1 1 5EB61379
P 1800 6050
F 0 "RN6" V 1383 6050 50  0000 C CNN
F 1 "R_Pack04" V 1474 6050 50  0000 C CNN
F 2 "kahiwi:RESCAXE80P320X160X70-8N" V 2075 6050 50  0001 C CNN
F 3 "~" H 1800 6050 50  0001 C CNN
	1    1800 6050
	0    1    1    0   
$EndComp
$Comp
L Device:R_Pack04 RN5
U 1 1 5EB86A54
P 1800 5650
F 0 "RN5" V 1383 5650 50  0000 C CNN
F 1 "R_Pack04" V 1474 5650 50  0000 C CNN
F 2 "kahiwi:RESCAXE80P320X160X70-8N" V 2075 5650 50  0001 C CNN
F 3 "~" H 1800 5650 50  0001 C CNN
	1    1800 5650
	0    1    1    0   
$EndComp
$Comp
L Device:R_Pack04 RN4
U 1 1 5EBA5DE7
P 1800 3900
F 0 "RN4" V 1383 3900 50  0000 C CNN
F 1 "R_Pack04" V 1474 3900 50  0000 C CNN
F 2 "kahiwi:RESCAXE80P320X160X70-8N" V 2075 3900 50  0001 C CNN
F 3 "~" H 1800 3900 50  0001 C CNN
	1    1800 3900
	0    1    1    0   
$EndComp
$Comp
L Device:R_Pack04 RN3
U 1 1 5EBA6732
P 1800 3500
F 0 "RN3" V 1383 3500 50  0000 C CNN
F 1 "R_Pack04" V 1474 3500 50  0000 C CNN
F 2 "kahiwi:RESCAXE80P320X160X70-8N" V 2075 3500 50  0001 C CNN
F 3 "~" H 1800 3500 50  0001 C CNN
	1    1800 3500
	0    1    1    0   
$EndComp
$Comp
L Device:R_Pack04 RN2
U 1 1 5EBC464C
P 1800 1800
F 0 "RN2" V 1383 1800 50  0000 C CNN
F 1 "R_Pack04" V 1474 1800 50  0000 C CNN
F 2 "kahiwi:RESCAXE80P320X160X70-8N" V 2075 1800 50  0001 C CNN
F 3 "~" H 1800 1800 50  0001 C CNN
	1    1800 1800
	0    1    1    0   
$EndComp
$Comp
L Device:R_Pack04 RN1
U 1 1 5EBC4E2A
P 1800 1400
F 0 "RN1" V 1383 1400 50  0000 C CNN
F 1 "R_Pack04" V 1474 1400 50  0000 C CNN
F 2 "kahiwi:RESCAXE80P320X160X70-8N" V 2075 1400 50  0001 C CNN
F 3 "~" H 1800 1400 50  0001 C CNN
	1    1800 1400
	0    1    1    0   
$EndComp
$Comp
L kahiwi:RJ45-CAN J11
U 1 1 5FFC4710
P 9200 2450
F 0 "J11" H 9200 1883 50  0000 C CNN
F 1 "RJ45_LED" H 9200 1974 50  0000 C CNN
F 2 "Connector_RJ:RJ45_OST_PJ012-8P8CX_Vertical" V 9200 2475 50  0001 C CNN
F 3 "~" V 9200 2475 50  0001 C CNN
	1    9200 2450
	1    0    0    -1  
$EndComp
$Comp
L power:GND #PWR0105
U 1 1 5FFC5BB0
P 8800 2100
F 0 "#PWR0105" H 8800 1850 50  0001 C CNN
F 1 "GND" H 8805 1927 50  0000 C CNN
F 2 "" H 8800 2100 50  0001 C CNN
F 3 "" H 8800 2100 50  0001 C CNN
	1    8800 2100
	0    1    1    0   
$EndComp
$Comp
L power:GND #PWR0106
U 1 1 5FFC6259
P 8800 2800
F 0 "#PWR0106" H 8800 2550 50  0001 C CNN
F 1 "GND" H 8805 2627 50  0000 C CNN
F 2 "" H 8800 2800 50  0001 C CNN
F 3 "" H 8800 2800 50  0001 C CNN
	1    8800 2800
	0    1    1    0   
$EndComp
$Comp
L power:+12V #PWR0108
U 1 1 5FFC685D
P 8550 2200
F 0 "#PWR0108" H 8550 2050 50  0001 C CNN
F 1 "+12V" H 8565 2373 50  0000 C CNN
F 2 "" H 8550 2200 50  0001 C CNN
F 3 "" H 8550 2200 50  0001 C CNN
	1    8550 2200
	0    -1   -1   0   
$EndComp
$Comp
L power:+5V #PWR0129
U 1 1 5FFC6F3D
P 8550 2700
F 0 "#PWR0129" H 8550 2550 50  0001 C CNN
F 1 "+5V" H 8565 2873 50  0000 C CNN
F 2 "" H 8550 2700 50  0001 C CNN
F 3 "" H 8550 2700 50  0001 C CNN
	1    8550 2700
	0    -1   -1   0   
$EndComp
Wire Wire Line
	8600 3800 8800 3800
Wire Wire Line
	8550 2700 8800 2700
Wire Wire Line
	8550 2200 8800 2200
Wire Wire Line
	8800 3400 9000 3400
Wire Wire Line
	9000 3400 9000 2300
Wire Wire Line
	9050 3500 9050 2400
Wire Wire Line
	9100 3600 9100 2500
Wire Wire Line
	8800 3700 9150 3700
Wire Wire Line
	9150 3700 9150 2600
$Comp
L power:GND #PWR0110
U 1 1 60293D5B
P 7900 5300
F 0 "#PWR0110" H 7900 5050 50  0001 C CNN
F 1 "GND" H 7905 5127 50  0000 C CNN
F 2 "" H 7900 5300 50  0001 C CNN
F 3 "" H 7900 5300 50  0001 C CNN
	1    7900 5300
	1    0    0    -1  
$EndComp
Wire Wire Line
	6350 3400 7400 3400
Text GLabel 2000 1300 2    50   Input ~ 0
PWM1
Text GLabel 2000 1200 2    50   Input ~ 0
PWM0
$Comp
L power:+5V #PWR0124
U 1 1 607F800F
P 10000 3500
F 0 "#PWR0124" H 10000 3350 50  0001 C CNN
F 1 "+5V" H 10015 3673 50  0000 C CNN
F 2 "" H 10000 3500 50  0001 C CNN
F 3 "" H 10000 3500 50  0001 C CNN
	1    10000 3500
	1    0    0    -1  
$EndComp
$Comp
L power:GND #PWR0131
U 1 1 607F8950
P 10000 3800
F 0 "#PWR0131" H 10000 3550 50  0001 C CNN
F 1 "GND" H 10005 3627 50  0000 C CNN
F 2 "" H 10000 3800 50  0001 C CNN
F 3 "" H 10000 3800 50  0001 C CNN
	1    10000 3800
	1    0    0    -1  
$EndComp
Wire Wire Line
	10000 3800 10200 3800
Wire Wire Line
	10200 3500 10000 3500
$Comp
L Device:C C3
U 1 1 60822B8E
P 9450 1750
F 0 "C3" H 9335 1704 50  0000 R CNN
F 1 "100nF" H 9335 1795 50  0000 R CNN
F 2 "Capacitor_SMD:C_0603_1608Metric_Pad1.08x0.95mm_HandSolder" H 9488 1600 50  0001 C CNN
F 3 "~" H 9450 1750 50  0001 C CNN
	1    9450 1750
	-1   0    0    1   
$EndComp
Connection ~ 9450 1900
Connection ~ 9450 1600
Wire Wire Line
	1600 1200 1600 800 
Wire Wire Line
	1600 800  800  800 
Wire Wire Line
	1600 1300 1550 1300
Wire Wire Line
	1550 1300 1550 900 
Wire Wire Line
	1550 900  800  900 
Wire Wire Line
	1600 1400 1500 1400
Wire Wire Line
	1600 1500 1450 1500
Wire Wire Line
	1600 1600 1200 1600
Wire Wire Line
	1200 1600 1200 1700
Wire Wire Line
	1200 1700 800  1700
Wire Wire Line
	1600 1700 1250 1700
Wire Wire Line
	1250 1800 800  1800
Wire Wire Line
	1250 1700 1250 1800
Wire Wire Line
	1600 1800 1300 1800
Wire Wire Line
	1600 1900 1350 1900
$Comp
L power:+48V #PWR0130
U 1 1 60D35C6B
P 800 1100
F 0 "#PWR0130" H 800 950 50  0001 C CNN
F 1 "+48V" V 815 1228 50  0000 L CNN
F 2 "" H 800 1100 50  0001 C CNN
F 3 "" H 800 1100 50  0001 C CNN
	1    800  1100
	0    1    1    0   
$EndComp
$Comp
L power:+48V #PWR0132
U 1 1 60D3B611
P 800 1500
F 0 "#PWR0132" H 800 1350 50  0001 C CNN
F 1 "+48V" V 815 1628 50  0000 L CNN
F 2 "" H 800 1500 50  0001 C CNN
F 3 "" H 800 1500 50  0001 C CNN
	1    800  1500
	0    1    1    0   
$EndComp
$Comp
L power:+48V #PWR0133
U 1 1 60D3BBCA
P 800 2000
F 0 "#PWR0133" H 800 1850 50  0001 C CNN
F 1 "+48V" V 815 2128 50  0000 L CNN
F 2 "" H 800 2000 50  0001 C CNN
F 3 "" H 800 2000 50  0001 C CNN
	1    800  2000
	0    1    1    0   
$EndComp
$Comp
L power:+48V #PWR0134
U 1 1 60D3CF9C
P 800 2400
F 0 "#PWR0134" H 800 2250 50  0001 C CNN
F 1 "+48V" V 815 2528 50  0000 L CNN
F 2 "" H 800 2400 50  0001 C CNN
F 3 "" H 800 2400 50  0001 C CNN
	1    800  2400
	0    1    1    0   
$EndComp
$Comp
L power:GND #PWR0136
U 1 1 60D3FAAC
P 800 1000
F 0 "#PWR0136" H 800 750 50  0001 C CNN
F 1 "GND" H 805 827 50  0000 C CNN
F 2 "" H 800 1000 50  0001 C CNN
F 3 "" H 800 1000 50  0001 C CNN
	1    800  1000
	0    -1   -1   0   
$EndComp
$Comp
L power:GND #PWR0149
U 1 1 60D405A8
P 800 1400
F 0 "#PWR0149" H 800 1150 50  0001 C CNN
F 1 "GND" H 805 1227 50  0000 C CNN
F 2 "" H 800 1400 50  0001 C CNN
F 3 "" H 800 1400 50  0001 C CNN
	1    800  1400
	0    -1   -1   0   
$EndComp
$Comp
L power:GND #PWR0150
U 1 1 60D41005
P 800 1900
F 0 "#PWR0150" H 800 1650 50  0001 C CNN
F 1 "GND" H 805 1727 50  0000 C CNN
F 2 "" H 800 1900 50  0001 C CNN
F 3 "" H 800 1900 50  0001 C CNN
	1    800  1900
	0    -1   -1   0   
$EndComp
$Comp
L power:GND #PWR0151
U 1 1 60D41913
P 800 2300
F 0 "#PWR0151" H 800 2050 50  0001 C CNN
F 1 "GND" H 805 2127 50  0000 C CNN
F 2 "" H 800 2300 50  0001 C CNN
F 3 "" H 800 2300 50  0001 C CNN
	1    800  2300
	0    -1   -1   0   
$EndComp
Text GLabel 5050 3100 0    50   Output ~ 0
PWM20
Text GLabel 6350 2500 2    50   Output ~ 0
PWM13
Text GLabel 5050 2000 0    50   Output ~ 0
PWM23
Text GLabel 5050 1900 0    50   Output ~ 0
PWM22
Text GLabel 6350 2400 2    50   Output ~ 0
PWM12
Text GLabel 6350 3100 2    50   Output ~ 0
PWM19
Text GLabel 5050 3200 0    50   Output ~ 0
PWM21
Text GLabel 6350 3800 2    50   Output ~ 0
PWM16
Text GLabel 6350 3300 2    50   Output ~ 0
PWM17
Text GLabel 6350 2600 2    50   Output ~ 0
PWM14
Text GLabel 6350 2700 2    50   Output ~ 0
PWM15
Text GLabel 5050 3800 0    50   Output ~ 0
PWM18
Wire Wire Line
	1600 2800 850  2800
Wire Wire Line
	1600 2800 1600 3300
Wire Wire Line
	1600 3400 1550 3400
Wire Wire Line
	1550 3400 1550 2900
Wire Wire Line
	1550 2900 850  2900
Wire Wire Line
	1600 3500 1500 3500
Wire Wire Line
	1500 3200 850  3200
Wire Wire Line
	1600 3600 1450 3600
Wire Wire Line
	1450 3300 850  3300
Wire Wire Line
	1600 5450 1600 4900
Wire Wire Line
	1600 4900 850  4900
Wire Wire Line
	1600 5550 1550 5550
Wire Wire Line
	1550 5550 1550 5000
Wire Wire Line
	1550 5000 850  5000
Wire Wire Line
	1600 5650 1500 5650
Wire Wire Line
	1600 5750 1450 5750
Wire Wire Line
	1600 5850 1600 5800
Wire Wire Line
	1600 5800 850  5800
Wire Wire Line
	1600 5950 1550 5950
Wire Wire Line
	1550 5950 1550 5900
Wire Wire Line
	1550 5900 850  5900
$Comp
L power:+48V #PWR0152
U 1 1 611194BC
P 850 3100
F 0 "#PWR0152" H 850 2950 50  0001 C CNN
F 1 "+48V" V 865 3228 50  0000 L CNN
F 2 "" H 850 3100 50  0001 C CNN
F 3 "" H 850 3100 50  0001 C CNN
	1    850  3100
	0    1    1    0   
$EndComp
$Comp
L power:+48V #PWR0153
U 1 1 6111C5E6
P 850 3500
F 0 "#PWR0153" H 850 3350 50  0001 C CNN
F 1 "+48V" V 865 3628 50  0000 L CNN
F 2 "" H 850 3500 50  0001 C CNN
F 3 "" H 850 3500 50  0001 C CNN
	1    850  3500
	0    1    1    0   
$EndComp
$Comp
L power:+48V #PWR0154
U 1 1 6111DBDC
P 850 4050
F 0 "#PWR0154" H 850 3900 50  0001 C CNN
F 1 "+48V" V 865 4178 50  0000 L CNN
F 2 "" H 850 4050 50  0001 C CNN
F 3 "" H 850 4050 50  0001 C CNN
	1    850  4050
	0    1    1    0   
$EndComp
$Comp
L power:+48V #PWR0155
U 1 1 6111EC94
P 850 4450
F 0 "#PWR0155" H 850 4300 50  0001 C CNN
F 1 "+48V" V 865 4578 50  0000 L CNN
F 2 "" H 850 4450 50  0001 C CNN
F 3 "" H 850 4450 50  0001 C CNN
	1    850  4450
	0    1    1    0   
$EndComp
$Comp
L power:+48V #PWR0156
U 1 1 6111F94B
P 850 5200
F 0 "#PWR0156" H 850 5050 50  0001 C CNN
F 1 "+48V" V 865 5328 50  0000 L CNN
F 2 "" H 850 5200 50  0001 C CNN
F 3 "" H 850 5200 50  0001 C CNN
	1    850  5200
	0    1    1    0   
$EndComp
$Comp
L power:+48V #PWR0157
U 1 1 6112068C
P 850 5600
F 0 "#PWR0157" H 850 5450 50  0001 C CNN
F 1 "+48V" V 865 5728 50  0000 L CNN
F 2 "" H 850 5600 50  0001 C CNN
F 3 "" H 850 5600 50  0001 C CNN
	1    850  5600
	0    1    1    0   
$EndComp
$Comp
L power:+48V #PWR0158
U 1 1 6112124C
P 850 6100
F 0 "#PWR0158" H 850 5950 50  0001 C CNN
F 1 "+48V" V 865 6228 50  0000 L CNN
F 2 "" H 850 6100 50  0001 C CNN
F 3 "" H 850 6100 50  0001 C CNN
	1    850  6100
	0    1    1    0   
$EndComp
$Comp
L power:+48V #PWR0159
U 1 1 61121C64
P 850 6500
F 0 "#PWR0159" H 850 6350 50  0001 C CNN
F 1 "+48V" V 865 6628 50  0000 L CNN
F 2 "" H 850 6500 50  0001 C CNN
F 3 "" H 850 6500 50  0001 C CNN
	1    850  6500
	0    1    1    0   
$EndComp
$Comp
L power:GND #PWR0160
U 1 1 61124B47
P 850 3000
F 0 "#PWR0160" H 850 2750 50  0001 C CNN
F 1 "GND" H 855 2827 50  0000 C CNN
F 2 "" H 850 3000 50  0001 C CNN
F 3 "" H 850 3000 50  0001 C CNN
	1    850  3000
	0    -1   -1   0   
$EndComp
$Comp
L power:GND #PWR0161
U 1 1 61126AD9
P 850 3400
F 0 "#PWR0161" H 850 3150 50  0001 C CNN
F 1 "GND" H 855 3227 50  0000 C CNN
F 2 "" H 850 3400 50  0001 C CNN
F 3 "" H 850 3400 50  0001 C CNN
	1    850  3400
	0    -1   -1   0   
$EndComp
$Comp
L power:GND #PWR0162
U 1 1 61127AAB
P 850 3950
F 0 "#PWR0162" H 850 3700 50  0001 C CNN
F 1 "GND" H 855 3777 50  0000 C CNN
F 2 "" H 850 3950 50  0001 C CNN
F 3 "" H 850 3950 50  0001 C CNN
	1    850  3950
	0    -1   -1   0   
$EndComp
$Comp
L power:GND #PWR0163
U 1 1 6112859C
P 850 4350
F 0 "#PWR0163" H 850 4100 50  0001 C CNN
F 1 "GND" H 855 4177 50  0000 C CNN
F 2 "" H 850 4350 50  0001 C CNN
F 3 "" H 850 4350 50  0001 C CNN
	1    850  4350
	0    -1   -1   0   
$EndComp
$Comp
L power:GND #PWR0164
U 1 1 61129483
P 850 5100
F 0 "#PWR0164" H 850 4850 50  0001 C CNN
F 1 "GND" H 855 4927 50  0000 C CNN
F 2 "" H 850 5100 50  0001 C CNN
F 3 "" H 850 5100 50  0001 C CNN
	1    850  5100
	0    -1   -1   0   
$EndComp
$Comp
L power:GND #PWR0165
U 1 1 6112A367
P 850 5500
F 0 "#PWR0165" H 850 5250 50  0001 C CNN
F 1 "GND" H 855 5327 50  0000 C CNN
F 2 "" H 850 5500 50  0001 C CNN
F 3 "" H 850 5500 50  0001 C CNN
	1    850  5500
	0    -1   -1   0   
$EndComp
$Comp
L power:GND #PWR0166
U 1 1 6112AF49
P 850 6000
F 0 "#PWR0166" H 850 5750 50  0001 C CNN
F 1 "GND" H 855 5827 50  0000 C CNN
F 2 "" H 850 6000 50  0001 C CNN
F 3 "" H 850 6000 50  0001 C CNN
	1    850  6000
	0    -1   -1   0   
$EndComp
$Comp
L power:GND #PWR0167
U 1 1 6112BD6C
P 850 6400
F 0 "#PWR0167" H 850 6150 50  0001 C CNN
F 1 "GND" H 855 6227 50  0000 C CNN
F 2 "" H 850 6400 50  0001 C CNN
F 3 "" H 850 6400 50  0001 C CNN
	1    850  6400
	0    -1   -1   0   
$EndComp
$Comp
L power:+48V #PWR0168
U 1 1 61198A53
P 850 7350
F 0 "#PWR0168" H 850 7200 50  0001 C CNN
F 1 "+48V" V 865 7478 50  0000 L CNN
F 2 "" H 850 7350 50  0001 C CNN
F 3 "" H 850 7350 50  0001 C CNN
	1    850  7350
	0    1    1    0   
$EndComp
$Comp
L power:GND #PWR0169
U 1 1 6119A83F
P 850 7250
F 0 "#PWR0169" H 850 7000 50  0001 C CNN
F 1 "GND" H 855 7077 50  0000 C CNN
F 2 "" H 850 7250 50  0001 C CNN
F 3 "" H 850 7250 50  0001 C CNN
	1    850  7250
	0    -1   -1   0   
$EndComp
$Comp
L Connector:Conn_01x03_Male J22
U 1 1 6137ADA6
P 3900 3450
F 0 "J22" H 4008 3731 50  0000 C CNN
F 1 "Conn_01x03_Male" H 4008 3640 50  0000 C CNN
F 2 "Connector_Molex:Molex_KK-254_AE-6410-03A_1x03_P2.54mm_Vertical" H 3900 3450 50  0001 C CNN
F 3 "~" H 3900 3450 50  0001 C CNN
	1    3900 3450
	1    0    0    -1  
$EndComp
$Comp
L Connector:Conn_01x03_Male J21
U 1 1 61386952
P 3550 3450
F 0 "J21" H 3658 3731 50  0000 C CNN
F 1 "Conn_01x03_Male" H 3658 3640 50  0000 C CNN
F 2 "Connector_Molex:Molex_KK-254_AE-6410-03A_1x03_P2.54mm_Vertical" H 3550 3450 50  0001 C CNN
F 3 "~" H 3550 3450 50  0001 C CNN
	1    3550 3450
	1    0    0    -1  
$EndComp
$Comp
L Connector:Conn_01x03_Male J20
U 1 1 6138721A
P 3200 3450
F 0 "J20" H 3308 3731 50  0000 C CNN
F 1 "Conn_01x03_Male" H 3308 3640 50  0000 C CNN
F 2 "Connector_Molex:Molex_KK-254_AE-6410-03A_1x03_P2.54mm_Vertical" H 3200 3450 50  0001 C CNN
F 3 "~" H 3200 3450 50  0001 C CNN
	1    3200 3450
	1    0    0    -1  
$EndComp
$Comp
L power:GND #PWR0171
U 1 1 613E4B63
P 4350 3550
F 0 "#PWR0171" H 4350 3300 50  0001 C CNN
F 1 "GND" H 4355 3377 50  0000 C CNN
F 2 "" H 4350 3550 50  0001 C CNN
F 3 "" H 4350 3550 50  0001 C CNN
	1    4350 3550
	1    0    0    -1  
$EndComp
Wire Wire Line
	4350 3550 4100 3550
Connection ~ 3750 3550
Wire Wire Line
	3750 3550 3400 3550
Connection ~ 4100 3550
Wire Wire Line
	4100 3550 3750 3550
Connection ~ 3750 3350
Wire Wire Line
	3750 3350 3400 3350
Connection ~ 4100 3350
Wire Wire Line
	4100 3350 3750 3350
Wire Wire Line
	4100 3350 4500 3350
Connection ~ 3750 3450
Wire Wire Line
	3750 3450 3400 3450
Wire Wire Line
	3750 3450 4100 3450
$Comp
L Connector:Conn_01x08_Female J1
U 1 1 60094945
P 600 1200
F 0 "J1" H 492 575 50  0000 C CNN
F 1 "Conn_01x08_Female" H 492 666 50  0000 C CNN
F 2 "dim:WAGO_250-208" H 600 1200 50  0001 C CNN
F 3 "~" H 600 1200 50  0001 C CNN
	1    600  1200
	-1   0    0    1   
$EndComp
Wire Wire Line
	1500 1200 800  1200
Wire Wire Line
	1500 1200 1500 1400
Wire Wire Line
	1450 1300 800  1300
Wire Wire Line
	1450 1300 1450 1500
$Comp
L Connector:Conn_01x08_Female J2
U 1 1 60100482
P 600 2100
F 0 "J2" H 492 1475 50  0000 C CNN
F 1 "Conn_01x08_Female" H 492 1566 50  0000 C CNN
F 2 "dim:WAGO_250-208" H 600 2100 50  0001 C CNN
F 3 "~" H 600 2100 50  0001 C CNN
	1    600  2100
	-1   0    0    1   
$EndComp
Wire Wire Line
	1300 1800 1300 2100
Wire Wire Line
	1300 2100 800  2100
Wire Wire Line
	1350 1900 1350 2200
Wire Wire Line
	1350 2200 800  2200
$Comp
L Connector:Conn_01x08_Female J3
U 1 1 601354D3
P 650 3200
F 0 "J3" H 542 2575 50  0000 C CNN
F 1 "Conn_01x08_Female" H 542 2666 50  0000 C CNN
F 2 "dim:WAGO_250-208" H 650 3200 50  0001 C CNN
F 3 "~" H 650 3200 50  0001 C CNN
	1    650  3200
	-1   0    0    1   
$EndComp
Wire Wire Line
	1450 3300 1450 3600
Wire Wire Line
	1500 3200 1500 3500
$Comp
L Connector:Conn_01x08_Female J7
U 1 1 601B9C07
P 650 4150
F 0 "J7" H 542 3525 50  0000 C CNN
F 1 "Conn_01x08_Female" H 542 3616 50  0000 C CNN
F 2 "dim:WAGO_250-208" H 650 4150 50  0001 C CNN
F 3 "~" H 650 4150 50  0001 C CNN
	1    650  4150
	-1   0    0    1   
$EndComp
$Comp
L Connector:Conn_01x08_Female J9
U 1 1 601EC18D
P 650 5300
F 0 "J9" H 542 4675 50  0000 C CNN
F 1 "Conn_01x08_Female" H 542 4766 50  0000 C CNN
F 2 "dim:WAGO_250-208" H 650 5300 50  0001 C CNN
F 3 "~" H 650 5300 50  0001 C CNN
	1    650  5300
	-1   0    0    1   
$EndComp
$Comp
L Connector:Conn_01x08_Female J10
U 1 1 601ED2AF
P 650 6200
F 0 "J10" H 542 5575 50  0000 C CNN
F 1 "Conn_01x08_Female" H 542 5666 50  0000 C CNN
F 2 "dim:WAGO_250-208" H 650 6200 50  0001 C CNN
F 3 "~" H 650 6200 50  0001 C CNN
	1    650  6200
	-1   0    0    1   
$EndComp
Wire Wire Line
	850  5300 1500 5300
Wire Wire Line
	1500 5300 1500 5650
Wire Wire Line
	850  5400 1450 5400
Wire Wire Line
	1450 5400 1450 5750
Wire Wire Line
	1400 6200 1400 6050
Wire Wire Line
	1400 6050 1600 6050
Wire Wire Line
	1450 6300 1450 6150
Wire Wire Line
	1450 6150 1600 6150
Wire Wire Line
	850  6200 1400 6200
Wire Wire Line
	850  6300 1450 6300
$Comp
L Connector:Conn_01x04_Female J12
U 1 1 602DB59C
P 650 7250
F 0 "J12" H 542 6825 50  0000 C CNN
F 1 "Conn_01x04_Female" H 542 6916 50  0000 C CNN
F 2 "dim:WAGO_250-204" H 650 7250 50  0001 C CNN
F 3 "~" H 650 7250 50  0001 C CNN
	1    650  7250
	-1   0    0    1   
$EndComp
$Comp
L power:+48V #PWR0121
U 1 1 60309110
P 850 7150
F 0 "#PWR0121" H 850 7000 50  0001 C CNN
F 1 "+48V" V 865 7278 50  0000 L CNN
F 2 "" H 850 7150 50  0001 C CNN
F 3 "" H 850 7150 50  0001 C CNN
	1    850  7150
	0    1    1    0   
$EndComp
$Comp
L power:GND #PWR0172
U 1 1 6030A674
P 850 7050
F 0 "#PWR0172" H 850 6800 50  0001 C CNN
F 1 "GND" H 855 6877 50  0000 C CNN
F 2 "" H 850 7050 50  0001 C CNN
F 3 "" H 850 7050 50  0001 C CNN
	1    850  7050
	0    -1   -1   0   
$EndComp
Text GLabel 2000 3500 2    50   Input ~ 0
PWM10
Text GLabel 2000 3400 2    50   Input ~ 0
PWM9
Text GLabel 2000 3600 2    50   Input ~ 0
PWM11
Wire Wire Line
	1500 4150 850  4150
Wire Wire Line
	1600 3900 1200 3900
Wire Wire Line
	1200 3900 1200 3850
Wire Wire Line
	1200 3850 850  3850
Wire Wire Line
	1600 4000 1150 4000
Wire Wire Line
	1150 4000 1150 3750
Wire Wire Line
	1150 3750 850  3750
$Comp
L Device:R R5
U 1 1 604260B1
P 2900 3350
F 0 "R5" H 2830 3304 50  0000 R CNN
F 1 "4k7" H 2830 3395 50  0000 R CNN
F 2 "Resistor_SMD:R_0603_1608Metric_Pad0.98x0.95mm_HandSolder" V 2830 3350 50  0001 C CNN
F 3 "~" H 2900 3350 50  0001 C CNN
	1    2900 3350
	0    1    1    0   
$EndComp
$Comp
L Device:C C4
U 1 1 6043A59A
P 2900 3550
F 0 "C4" H 2785 3504 50  0000 R CNN
F 1 "100nF" H 2785 3595 50  0000 R CNN
F 2 "Capacitor_SMD:C_0603_1608Metric_Pad1.08x0.95mm_HandSolder" H 2938 3400 50  0001 C CNN
F 3 "~" H 2900 3550 50  0001 C CNN
	1    2900 3550
	0    -1   -1   0   
$EndComp
Wire Wire Line
	3050 3350 3400 3350
Connection ~ 3400 3350
Wire Wire Line
	2750 3350 2750 3450
Wire Wire Line
	2750 3450 3400 3450
Connection ~ 3400 3450
Wire Wire Line
	3050 3550 3400 3550
Connection ~ 3400 3550
Wire Wire Line
	2750 3550 2750 3450
Connection ~ 2750 3450
$Comp
L power:+3V3 #PWR0170
U 1 1 602BC9AA
P 4100 3450
F 0 "#PWR0170" H 4100 3300 50  0001 C CNN
F 1 "+3V3" H 4115 3623 50  0000 C CNN
F 2 "" H 4100 3450 50  0001 C CNN
F 3 "" H 4100 3450 50  0001 C CNN
	1    4100 3450
	0    1    1    0   
$EndComp
Connection ~ 4100 3450
$Comp
L Device:C C8
U 1 1 602C9898
P 8450 1100
F 0 "C8" H 8335 1054 50  0000 R CNN
F 1 "100nF" H 8335 1145 50  0000 R CNN
F 2 "Capacitor_SMD:C_0603_1608Metric_Pad1.08x0.95mm_HandSolder" H 8488 950 50  0001 C CNN
F 3 "~" H 8450 1100 50  0001 C CNN
	1    8450 1100
	-1   0    0    1   
$EndComp
$Comp
L Device:C C5
U 1 1 602C9FEC
P 6550 1100
F 0 "C5" H 6435 1054 50  0000 R CNN
F 1 "100nF" H 6435 1145 50  0000 R CNN
F 2 "Capacitor_SMD:C_0603_1608Metric_Pad1.08x0.95mm_HandSolder" H 6588 950 50  0001 C CNN
F 3 "~" H 6550 1100 50  0001 C CNN
	1    6550 1100
	-1   0    0    1   
$EndComp
Wire Wire Line
	6550 950  6950 950 
Wire Wire Line
	6950 1250 6550 1250
Connection ~ 6950 1250
Wire Wire Line
	8000 1250 8450 1250
Connection ~ 8000 1250
Wire Wire Line
	8450 950  8000 950 
$Comp
L Regulator_Linear:MCP1703A-3302_SOT223 U3
U 1 1 6032A9FA
P 7500 950
F 0 "U3" H 7500 1192 50  0000 C CNN
F 1 "MCP1703A-3302_SOT223" H 7500 1101 50  0000 C CNN
F 2 "Package_TO_SOT_SMD:SOT-223-3_TabPin2" H 7500 1150 50  0001 C CNN
F 3 "http://ww1.microchip.com/downloads/en/DeviceDoc/20005122B.pdf" H 7500 900 50  0001 C CNN
	1    7500 950 
	1    0    0    -1  
$EndComp
$Comp
L kahiwi:PESD2CAN U6
U 1 1 602D0F65
P 7500 2650
F 0 "U6" H 7500 2135 50  0000 C CNN
F 1 "PESD2CAN" H 7500 2226 50  0000 C CNN
F 2 "Package_TO_SOT_SMD:SOT-23" H 7500 2650 50  0001 C CNN
F 3 "" H 7500 2650 50  0001 C CNN
	1    7500 2650
	-1   0    0    1   
$EndComp
$Comp
L Device:R R6
U 1 1 602E288D
P 8050 2250
F 0 "R6" H 7980 2204 50  0000 R CNN
F 1 "0R" H 7980 2295 50  0000 R CNN
F 2 "Resistor_SMD:R_0603_1608Metric_Pad0.98x0.95mm_HandSolder" V 7980 2250 50  0001 C CNN
F 3 "~" H 8050 2250 50  0001 C CNN
	1    8050 2250
	1    0    0    -1  
$EndComp
$Comp
L Device:R R7
U 1 1 602E5DF9
P 8050 2650
F 0 "R7" H 7980 2604 50  0000 R CNN
F 1 "0R" H 7980 2695 50  0000 R CNN
F 2 "Resistor_SMD:R_0603_1608Metric_Pad0.98x0.95mm_HandSolder" V 7980 2650 50  0001 C CNN
F 3 "~" H 8050 2650 50  0001 C CNN
	1    8050 2650
	1    0    0    -1  
$EndComp
Wire Wire Line
	8200 2300 8200 2100
Wire Wire Line
	8200 2100 8050 2100
Wire Wire Line
	8200 2600 8200 2800
Wire Wire Line
	8200 2800 8050 2800
Wire Wire Line
	8050 2400 7750 2400
Wire Wire Line
	7750 2400 7750 2350
Connection ~ 8050 2400
Wire Wire Line
	8050 2500 7750 2500
Wire Wire Line
	7750 2500 7750 2550
Connection ~ 8050 2500
$Comp
L power:GND #PWR0173
U 1 1 60378F1E
P 7250 2450
F 0 "#PWR0173" H 7250 2200 50  0001 C CNN
F 1 "GND" H 7255 2277 50  0000 C CNN
F 2 "" H 7250 2450 50  0001 C CNN
F 3 "" H 7250 2450 50  0001 C CNN
	1    7250 2450
	0    1    1    0   
$EndComp
Text GLabel 2000 3300 2    50   Input ~ 0
PWM8
Wire Wire Line
	1500 3700 1600 3700
Wire Wire Line
	1500 3700 1500 4150
Wire Wire Line
	1600 3800 1550 3800
Wire Wire Line
	1550 3800 1550 4250
Wire Wire Line
	850  4250 1550 4250
$Comp
L kahiwi:LM5163 U7
U 1 1 604D575B
P 9350 5250
F 0 "U7" H 9350 5365 50  0000 C CNN
F 1 "LM5163" H 9350 5274 50  0000 C CNN
F 2 "Package_SO:Texas_R-PDSO-G8_EP2.95x4.9mm_Mask2.4x3.1mm_ThermalVias" H 9350 5250 50  0001 C CNN
F 3 "" H 9350 5250 50  0001 C CNN
	1    9350 5250
	1    0    0    -1  
$EndComp
$Comp
L Device:L L1
U 1 1 604D8C3F
P 10050 5400
F 0 "L1" V 9869 5400 50  0000 C CNN
F 1 "L" V 9960 5400 50  0000 C CNN
F 2 "Inductor_SMD:L_1210_3225Metric_Pad1.42x2.65mm_HandSolder" H 10050 5400 50  0001 C CNN
F 3 "~" H 10050 5400 50  0001 C CNN
	1    10050 5400
	0    1    1    0   
$EndComp
$Comp
L Device:C CIN2
U 1 1 604DA69A
P 8550 5550
F 0 "CIN2" H 8665 5596 50  0000 L CNN
F 1 "100nF" H 8665 5505 50  0000 L CNN
F 2 "Capacitor_SMD:C_0603_1608Metric_Pad1.08x0.95mm_HandSolder" H 8588 5400 50  0001 C CNN
F 3 "~" H 8550 5550 50  0001 C CNN
	1    8550 5550
	1    0    0    -1  
$EndComp
$Comp
L Device:R RRON1
U 1 1 604DB2BC
P 8700 6150
F 0 "RRON1" H 8770 6196 50  0000 L CNN
F 1 "R" H 8770 6105 50  0000 L CNN
F 2 "Resistor_SMD:R_0603_1608Metric_Pad0.98x0.95mm_HandSolder" V 8630 6150 50  0001 C CNN
F 3 "~" H 8700 6150 50  0001 C CNN
	1    8700 6150
	1    0    0    -1  
$EndComp
$Comp
L power:+48V #PWR0174
U 1 1 604DDDC8
P 7950 6000
F 0 "#PWR0174" H 7950 5850 50  0001 C CNN
F 1 "+48V" H 7965 6173 50  0000 C CNN
F 2 "" H 7950 6000 50  0001 C CNN
F 3 "" H 7950 6000 50  0001 C CNN
	1    7950 6000
	-1   0    0    1   
$EndComp
$Comp
L power:+5V #PWR0176
U 1 1 604DE911
P 10900 4600
F 0 "#PWR0176" H 10900 4450 50  0001 C CNN
F 1 "+5V" H 10915 4773 50  0000 C CNN
F 2 "" H 10900 4600 50  0001 C CNN
F 3 "" H 10900 4600 50  0001 C CNN
	1    10900 4600
	1    0    0    -1  
$EndComp
$Comp
L power:GND #PWR0177
U 1 1 604DF402
P 8700 6300
F 0 "#PWR0177" H 8700 6050 50  0001 C CNN
F 1 "GND" H 8705 6127 50  0000 C CNN
F 2 "" H 8700 6300 50  0001 C CNN
F 3 "" H 8700 6300 50  0001 C CNN
	1    8700 6300
	1    0    0    -1  
$EndComp
Wire Wire Line
	8950 5700 8950 5400
Connection ~ 8550 5400
Wire Wire Line
	8550 5700 8550 6300
Wire Wire Line
	8550 6300 8700 6300
$Comp
L Device:C CBST1
U 1 1 605628FE
P 9900 5550
F 0 "CBST1" H 10015 5596 50  0000 L CNN
F 1 "C" H 10015 5505 50  0000 L CNN
F 2 "Capacitor_SMD:C_0603_1608Metric_Pad1.08x0.95mm_HandSolder" H 9938 5400 50  0001 C CNN
F 3 "~" H 9900 5550 50  0001 C CNN
	1    9900 5550
	1    0    0    -1  
$EndComp
Wire Wire Line
	9900 5400 9750 5400
Connection ~ 9900 5400
Wire Wire Line
	9750 5700 9900 5700
$Comp
L Device:C CFF1
U 1 1 605AAC6C
P 10200 5850
F 0 "CFF1" H 10315 5896 50  0000 L CNN
F 1 "C" H 10315 5805 50  0000 L CNN
F 2 "Capacitor_SMD:C_0603_1608Metric_Pad1.08x0.95mm_HandSolder" H 10238 5700 50  0001 C CNN
F 3 "~" H 10200 5850 50  0001 C CNN
	1    10200 5850
	1    0    0    -1  
$EndComp
$Comp
L Device:R RFB1
U 1 1 605AB0D5
P 10500 5850
F 0 "RFB1" H 10570 5896 50  0000 L CNN
F 1 "R" H 10570 5805 50  0000 L CNN
F 2 "Resistor_SMD:R_0603_1608Metric_Pad0.98x0.95mm_HandSolder" V 10430 5850 50  0001 C CNN
F 3 "~" H 10500 5850 50  0001 C CNN
	1    10500 5850
	1    0    0    -1  
$EndComp
$Comp
L Device:R RFB2
U 1 1 605AB595
P 10500 6150
F 0 "RFB2" H 10570 6196 50  0000 L CNN
F 1 "R" H 10570 6105 50  0000 L CNN
F 2 "Resistor_SMD:R_0603_1608Metric_Pad0.98x0.95mm_HandSolder" V 10430 6150 50  0001 C CNN
F 3 "~" H 10500 6150 50  0001 C CNN
	1    10500 6150
	1    0    0    -1  
$EndComp
$Comp
L Device:C COUT1
U 1 1 605AC08D
P 10900 6150
F 0 "COUT1" H 11015 6196 50  0000 L CNN
F 1 "C" H 11015 6105 50  0000 L CNN
F 2 "Capacitor_SMD:C_0805_2012Metric_Pad1.18x1.45mm_HandSolder" H 10938 6000 50  0001 C CNN
F 3 "~" H 10900 6150 50  0001 C CNN
	1    10900 6150
	1    0    0    -1  
$EndComp
$Comp
L Device:R RESR1
U 1 1 605AD452
P 10900 5850
F 0 "RESR1" H 10970 5896 50  0000 L CNN
F 1 "R" H 10970 5805 50  0000 L CNN
F 2 "Resistor_SMD:R_0603_1608Metric_Pad0.98x0.95mm_HandSolder" V 10830 5850 50  0001 C CNN
F 3 "~" H 10900 5850 50  0001 C CNN
	1    10900 5850
	1    0    0    -1  
$EndComp
Wire Wire Line
	10500 6000 10200 6000
Connection ~ 10500 6000
Connection ~ 10200 6000
Wire Wire Line
	10200 6000 9750 6000
$Comp
L power:GND #PWR0178
U 1 1 605F7F2A
P 10500 6300
F 0 "#PWR0178" H 10500 6050 50  0001 C CNN
F 1 "GND" H 10505 6127 50  0000 C CNN
F 2 "" H 10500 6300 50  0001 C CNN
F 3 "" H 10500 6300 50  0001 C CNN
	1    10500 6300
	1    0    0    -1  
$EndComp
Wire Wire Line
	10200 5700 10200 5400
Wire Wire Line
	10200 5400 10500 5400
Connection ~ 10200 5400
Wire Wire Line
	10500 5700 10500 5400
Connection ~ 10500 5400
Connection ~ 10500 6300
Wire Wire Line
	10500 5400 10900 5400
Wire Wire Line
	10900 5700 10900 5400
Wire Wire Line
	10500 6300 10900 6300
Connection ~ 8700 6300
Wire Wire Line
	8700 6300 8950 6300
Wire Wire Line
	8700 6000 8950 6000
$Comp
L Device:D D5
U 1 1 60707F0D
P 7950 5850
F 0 "D5" V 7904 5930 50  0000 L CNN
F 1 "D" V 7995 5930 50  0000 L CNN
F 2 "Diode_SMD:D_SOD-323" H 7950 5850 50  0001 C CNN
F 3 "~" H 7950 5850 50  0001 C CNN
	1    7950 5850
	0    1    1    0   
$EndComp
$Comp
L Device:C CIN1
U 1 1 6070BBE9
P 8150 5550
F 0 "CIN1" H 8265 5596 50  0000 L CNN
F 1 "10uF" H 8265 5505 50  0000 L CNN
F 2 "Capacitor_SMD:C_0805_2012Metric_Pad1.18x1.45mm_HandSolder" H 8188 5400 50  0001 C CNN
F 3 "~" H 8150 5550 50  0001 C CNN
	1    8150 5550
	1    0    0    -1  
$EndComp
Wire Wire Line
	8050 5400 8150 5400
Wire Wire Line
	8550 5400 8950 5400
Connection ~ 8150 5400
Wire Wire Line
	8150 5400 8550 5400
Wire Wire Line
	7950 5700 8050 5700
Wire Wire Line
	8050 5700 8050 5400
Wire Wire Line
	8150 5700 8550 5700
Connection ~ 8550 5700
$Comp
L power:+3V3 #PWR0179
U 1 1 607C47E6
P 10650 4600
F 0 "#PWR0179" H 10650 4450 50  0001 C CNN
F 1 "+3V3" H 10665 4773 50  0000 C CNN
F 2 "" H 10650 4600 50  0001 C CNN
F 3 "" H 10650 4600 50  0001 C CNN
	1    10650 4600
	1    0    0    -1  
$EndComp
Connection ~ 10900 5400
$Comp
L Device:D D7
U 1 1 6081C8CE
P 10900 4750
F 0 "D7" V 10854 4830 50  0000 L CNN
F 1 "D" V 10945 4830 50  0000 L CNN
F 2 "Diode_SMD:D_SOD-323" H 10900 4750 50  0001 C CNN
F 3 "~" H 10900 4750 50  0001 C CNN
	1    10900 4750
	0    1    1    0   
$EndComp
$Comp
L Device:D D6
U 1 1 6081FC94
P 10650 4750
F 0 "D6" V 10604 4830 50  0000 L CNN
F 1 "D" V 10695 4830 50  0000 L CNN
F 2 "Diode_SMD:D_SOD-323" H 10650 4750 50  0001 C CNN
F 3 "~" H 10650 4750 50  0001 C CNN
	1    10650 4750
	0    1    1    0   
$EndComp
$Comp
L kahiwi:wuerthDebug U1
U 1 1 60740D0F
P 2900 1000
F 0 "U1" H 2933 1115 50  0000 C CNN
F 1 "wuerthDebug" H 2933 1024 50  0000 C CNN
F 2 "kahiwi:wuerthDebug" H 2900 1000 50  0001 C CNN
F 3 "" H 2900 1000 50  0001 C CNN
	1    2900 1000
	1    0    0    -1  
$EndComp
Wire Wire Line
	3150 1450 4300 1450
Wire Wire Line
	4300 1450 4300 1200
Wire Wire Line
	9450 1900 10800 1900
Wire Wire Line
	9450 1600 10800 1600
Wire Wire Line
	7600 1900 9450 1900
Wire Wire Line
	7600 1600 9450 1600
Wire Wire Line
	6350 3700 6450 3700
Wire Wire Line
	5050 3700 4500 3700
Wire Wire Line
	4500 3700 4500 3350
$Comp
L kahiwi:Button-Sensors-MicroMatch2X03 J4
U 1 1 60CCD5C0
P 5550 5450
F 0 "J4" H 5173 5009 50  0000 R CNN
F 1 "Conn_01x06" H 5173 5100 50  0000 R CNN
F 2 "kahiwi:02x03MicroMatch" H 5550 5450 50  0001 C CNN
F 3 "~" H 5550 5450 50  0001 C CNN
	1    5550 5450
	1    0    0    1   
$EndComp
Text GLabel 5050 2800 0    50   Input ~ 0
B5
Text GLabel 5050 2500 0    50   Input ~ 0
B2
Text GLabel 5050 2600 0    50   Input ~ 0
B3
Text GLabel 5050 2700 0    50   Input ~ 0
B4
Text GLabel 5050 2900 0    50   Input ~ 0
B6
Text GLabel 5050 3000 0    50   Input ~ 0
B7
Text GLabel 6000 4800 2    50   Input ~ 0
B2
Text GLabel 6000 4900 2    50   Input ~ 0
B3
Text GLabel 6000 5000 2    50   Input ~ 0
B4
Text GLabel 6000 5100 2    50   Input ~ 0
B5
Text GLabel 6000 5200 2    50   Input ~ 0
B6
Text GLabel 6000 5300 2    50   Input ~ 0
B7
$Comp
L Device:R R1
U 1 1 606FEED3
P 5850 4800
F 0 "R1" H 5780 4754 50  0000 R CNN
F 1 "100R" H 5780 4845 50  0000 R CNN
F 2 "Resistor_SMD:R_0603_1608Metric_Pad0.98x0.95mm_HandSolder" V 5780 4800 50  0001 C CNN
F 3 "~" H 5850 4800 50  0001 C CNN
	1    5850 4800
	0    1    1    0   
$EndComp
$Comp
L Device:R R2
U 1 1 60700BFA
P 5850 4900
F 0 "R2" H 5780 4854 50  0000 R CNN
F 1 "100R" H 5780 4945 50  0000 R CNN
F 2 "Resistor_SMD:R_0603_1608Metric_Pad0.98x0.95mm_HandSolder" V 5780 4900 50  0001 C CNN
F 3 "~" H 5850 4900 50  0001 C CNN
	1    5850 4900
	0    1    1    0   
$EndComp
$Comp
L Device:R R3
U 1 1 60700D4B
P 5850 5000
F 0 "R3" H 5780 4954 50  0000 R CNN
F 1 "100R" H 5780 5045 50  0000 R CNN
F 2 "Resistor_SMD:R_0603_1608Metric_Pad0.98x0.95mm_HandSolder" V 5780 5000 50  0001 C CNN
F 3 "~" H 5850 5000 50  0001 C CNN
	1    5850 5000
	0    1    1    0   
$EndComp
$Comp
L Device:R R4
U 1 1 60700EC3
P 5850 5100
F 0 "R4" H 5780 5054 50  0000 R CNN
F 1 "100R" H 5780 5145 50  0000 R CNN
F 2 "Resistor_SMD:R_0603_1608Metric_Pad0.98x0.95mm_HandSolder" V 5780 5100 50  0001 C CNN
F 3 "~" H 5850 5100 50  0001 C CNN
	1    5850 5100
	0    1    1    0   
$EndComp
$Comp
L Device:R R10
U 1 1 6070103F
P 5850 5200
F 0 "R10" H 5780 5154 50  0000 R CNN
F 1 "100R" H 5780 5245 50  0000 R CNN
F 2 "Resistor_SMD:R_0603_1608Metric_Pad0.98x0.95mm_HandSolder" V 5780 5200 50  0001 C CNN
F 3 "~" H 5850 5200 50  0001 C CNN
	1    5850 5200
	0    1    1    0   
$EndComp
$Comp
L Device:R R12
U 1 1 60701220
P 5850 5300
F 0 "R12" H 5780 5254 50  0000 R CNN
F 1 "100R" H 5780 5345 50  0000 R CNN
F 2 "Resistor_SMD:R_0603_1608Metric_Pad0.98x0.95mm_HandSolder" V 5780 5300 50  0001 C CNN
F 3 "~" H 5850 5300 50  0001 C CNN
	1    5850 5300
	0    1    1    0   
$EndComp
Wire Wire Line
	10900 4900 10900 5400
Wire Wire Line
	10900 4900 10650 4900
Connection ~ 10900 4900
$Comp
L Device:R R8
U 1 1 607223A1
P 9750 2450
F 0 "R8" H 9680 2404 50  0000 R CNN
F 1 "R" H 9680 2495 50  0000 R CNN
F 2 "Resistor_SMD:R_0603_1608Metric_Pad0.98x0.95mm_HandSolder" V 9680 2450 50  0001 C CNN
F 3 "~" H 9750 2450 50  0001 C CNN
	1    9750 2450
	1    0    0    -1  
$EndComp
Wire Wire Line
	9000 2300 9750 2300
Connection ~ 9000 2300
Wire Wire Line
	9150 2600 9750 2600
Connection ~ 9150 2600
$Comp
L power:GND #PWR?
U 1 1 6122B7E5
P 7400 3700
F 0 "#PWR?" H 7400 3450 50  0001 C CNN
F 1 "GND" H 7405 3527 50  0000 C CNN
F 2 "" H 7400 3700 50  0001 C CNN
F 3 "" H 7400 3700 50  0001 C CNN
	1    7400 3700
	1    0    0    -1  
$EndComp
Wire Wire Line
	8200 2300 8800 2300
Wire Wire Line
	8050 2400 8800 2400
Wire Wire Line
	8050 2500 8800 2500
Wire Wire Line
	8200 2600 8800 2600
Connection ~ 8800 2300
Wire Wire Line
	8800 2300 9000 2300
Connection ~ 8800 2400
Wire Wire Line
	8800 2400 9050 2400
Connection ~ 8800 2500
Wire Wire Line
	8800 2500 9100 2500
Connection ~ 8800 2600
Wire Wire Line
	8800 2600 9150 2600
$Comp
L kahiwi:RJ45-CAN J6
U 1 1 5E1CF282
P 9200 3550
F 0 "J6" H 9200 2983 50  0000 C CNN
F 1 "RJ45_LED" H 9200 3074 50  0000 C CNN
F 2 "Connector_RJ:RJ45_OST_PJ012-8P8CX_Vertical" V 9200 3575 50  0001 C CNN
F 3 "~" V 9200 3575 50  0001 C CNN
	1    9200 3550
	1    0    0    -1  
$EndComp
Wire Wire Line
	8400 3500 8800 3500
Wire Wire Line
	8800 3500 9050 3500
Connection ~ 8800 3500
Wire Wire Line
	8600 3600 8800 3600
Wire Wire Line
	8800 3600 9100 3600
Connection ~ 8800 3600
$EndSCHEMATC
