EESchema Schematic File Version 5
EELAYER 36 0
EELAYER END
$Descr A4 11693 8268
encoding utf-8
Sheet 1 1
Title ""
Date ""
Rev ""
Comp ""
Comment1 ""
Comment2 ""
Comment3 ""
Comment4 ""
Comment5 ""
Comment6 ""
Comment7 ""
Comment8 ""
Comment9 ""
$EndDescr
Connection ~ 1200 6600
Connection ~ 1200 6900
Connection ~ 1200 7500
Connection ~ 1500 7500
Connection ~ 1600 2300
Connection ~ 1650 6600
Connection ~ 1900 1800
Connection ~ 2050 6600
Connection ~ 2100 1700
Connection ~ 2350 1300
Connection ~ 2400 2300
Connection ~ 2550 1300
Connection ~ 3200 6600
Connection ~ 3550 6600
Connection ~ 3550 7200
Connection ~ 3800 800 
Connection ~ 3950 6600
Connection ~ 3950 7200
Connection ~ 4150 7500
Connection ~ 4200 800 
Connection ~ 4200 1100
Connection ~ 4300 2800
Connection ~ 4400 6600
Connection ~ 4700 1100
Connection ~ 5200 800 
Connection ~ 5200 1100
Connection ~ 5200 1850
Connection ~ 5200 2150
Connection ~ 5650 800 
Connection ~ 10050 800 
Connection ~ 10050 1000
Connection ~ 10050 1550
Connection ~ 10050 1750
Connection ~ 10050 2300
Connection ~ 10050 2500
Connection ~ 10050 3050
Connection ~ 10050 3250
Connection ~ 10650 4750
Connection ~ 10700 4750
Wire Wire Line
	900  7500 1200 7500
Wire Wire Line
	1200 6600 1650 6600
Wire Wire Line
	1200 6900 1200 7500
Wire Wire Line
	1200 7500 1500 7500
Wire Wire Line
	1400 1700 2100 1700
Wire Wire Line
	1400 1800 1400 1900
Wire Wire Line
	1500 7500 2050 7500
Wire Wire Line
	1650 6900 1200 6900
Wire Wire Line
	1900 1600 1900 1800
Wire Wire Line
	1900 1600 2550 1600
Wire Wire Line
	1900 1800 1400 1800
Wire Wire Line
	2050 6600 1650 6600
Wire Wire Line
	2050 6900 2050 6600
Wire Wire Line
	2050 7200 1500 7200
Wire Wire Line
	2100 1550 2100 1700
Wire Wire Line
	2100 1700 2100 1800
Wire Wire Line
	2350 1300 2350 1550
Wire Wire Line
	2350 1550 2100 1550
Wire Wire Line
	2450 1300 2350 1300
Wire Wire Line
	2550 1600 2550 1300
Wire Wire Line
	2650 1300 2550 1300
Wire Wire Line
	3200 6600 2850 6600
Wire Wire Line
	3200 6900 2850 6900
Wire Wire Line
	3500 6600 3550 6600
Wire Wire Line
	3550 6600 3950 6600
Wire Wire Line
	3550 6900 3550 6600
Wire Wire Line
	3550 7200 2850 7200
Wire Wire Line
	3800 800  4200 800 
Wire Wire Line
	3800 1100 4200 1100
Wire Wire Line
	3950 6600 3950 6900
Wire Wire Line
	3950 6600 4400 6600
Wire Wire Line
	3950 7200 3550 7200
Wire Wire Line
	3950 7500 4150 7500
Wire Wire Line
	4150 7500 4400 7500
Wire Wire Line
	4200 800  4400 800 
Wire Wire Line
	4200 1100 4700 1100
Wire Wire Line
	4400 6600 4400 6900
Wire Wire Line
	4700 1100 5200 1100
Wire Wire Line
	4700 2800 4300 2800
Wire Wire Line
	4900 1850 5200 1850
Wire Wire Line
	5200 800  5000 800 
Wire Wire Line
	5200 1100 5650 1100
Wire Wire Line
	5200 1850 6450 1850
Wire Wire Line
	5200 2150 4900 2150
Wire Wire Line
	5200 2150 6450 2150
Wire Wire Line
	5650 800  5200 800 
Wire Wire Line
	5850 6600 5850 6700
Wire Wire Line
	5850 6700 6050 6700
Wire Wire Line
	5900 3000 7700 3000
Wire Wire Line
	5900 3300 6800 3300
Wire Wire Line
	5900 3700 6250 3700
Wire Wire Line
	5900 3800 6300 3800
Wire Wire Line
	5900 3900 6350 3900
Wire Wire Line
	5900 4000 6600 4000
Wire Wire Line
	5900 4100 6250 4100
Wire Wire Line
	5900 4200 6250 4200
Wire Wire Line
	5900 4300 6250 4300
Wire Wire Line
	5900 4400 6250 4400
Wire Wire Line
	5900 4500 6250 4500
Wire Wire Line
	5900 4600 6250 4600
Wire Wire Line
	5900 4700 6250 4700
Wire Wire Line
	5900 4800 6250 4800
Wire Wire Line
	6050 3100 5900 3100
Wire Wire Line
	6250 3600 6800 3600
Wire Wire Line
	6250 3700 6250 3600
Wire Wire Line
	6300 3700 6800 3700
Wire Wire Line
	6300 3800 6300 3700
Wire Wire Line
	6350 3800 6800 3800
Wire Wire Line
	6350 3900 6350 3800
Wire Wire Line
	6600 3900 6800 3900
Wire Wire Line
	6600 4000 6600 3900
Wire Wire Line
	6800 3300 6800 3500
Wire Wire Line
	6800 4300 6800 4000
Wire Wire Line
	7200 3500 7100 3500
Wire Wire Line
	7200 3600 7100 3600
Wire Wire Line
	7200 3700 7100 3700
Wire Wire Line
	7200 3800 7100 3800
Wire Wire Line
	7200 3900 7100 3900
Wire Wire Line
	7200 4000 7100 4000
Wire Wire Line
	7700 3000 7700 4300
Wire Wire Line
	7700 4300 6800 4300
Wire Wire Line
	8400 2750 8450 2750
Wire Wire Line
	8400 3800 8450 3800
Wire Wire Line
	8400 4850 8450 4850
Wire Wire Line
	8450 1550 8450 1700
Wire Wire Line
	8450 1700 8400 1700
Wire Wire Line
	8450 2750 8450 2600
Wire Wire Line
	8450 3800 8450 3650
Wire Wire Line
	8450 4850 8450 4700
Wire Wire Line
	10050 800  10050 900 
Wire Wire Line
	10050 1000 10050 1100
Wire Wire Line
	10050 1550 10050 1650
Wire Wire Line
	10050 1750 10050 1850
Wire Wire Line
	10050 2300 10050 2400
Wire Wire Line
	10050 2600 10050 2500
Wire Wire Line
	10050 3050 10050 3150
Wire Wire Line
	10050 3250 10050 3350
Wire Wire Line
	10200 4750 10200 5150
Wire Wire Line
	10200 4750 10650 4750
Wire Wire Line
	10650 4600 10650 4750
Wire Wire Line
	10650 4750 10700 4750
Wire Wire Line
	10700 4750 10800 4750
Wire Wire Line
	10700 5150 10700 4750
Wire Notes Line
	500  500  3500 500 
Wire Notes Line
	500  3200 500  500 
Wire Notes Line
	500  5700 500  7750
Wire Notes Line
	500  7750 4700 7750
Wire Notes Line
	3500 500  3500 3200
Wire Notes Line
	3500 3200 500  3200
Wire Notes Line
	3550 500  6100 500 
Wire Notes Line
	3550 1450 3550 500 
Wire Notes Line
	4700 5700 500  5700
Wire Notes Line
	4700 7750 4700 5700
Wire Notes Line
	6100 500  6100 1450
Wire Notes Line
	6100 1450 3550 1450
Wire Notes Line
	7900 550  9400 550 
Wire Notes Line
	7900 5150 7900 550 
Wire Notes Line
	9400 550  9400 5150
Wire Notes Line
	9400 5150 7900 5150
Wire Notes Line
	9500 550  9500 4100
Wire Notes Line
	9500 4100 11100 4100
Wire Notes Line
	9650 4150 11100 4150
Wire Notes Line
	9650 5400 9650 4150
Wire Notes Line
	11100 550  9500 550 
Wire Notes Line
	11100 4100 11100 550 
Wire Notes Line
	11100 4150 11100 5400
Wire Notes Line
	11100 5400 9650 5400
Text Label 1650 1300 2    50   ~ 0
CANL
Text Label 1800 2800 3    50   ~ 0
CAN_TXD
Text Label 1800 6600 0    50   ~ 0
VIN
Text Label 1850 7200 0    50   ~ 0
RON
Text Label 1900 2800 3    50   ~ 0
CAN_RXD
Text Label 1950 1300 0    50   ~ 0
CANH
Text Label 2100 1700 0    50   ~ 0
CANL
Text Label 2550 1600 2    50   ~ 0
CANH
Text Label 2550 3600 0    50   ~ 0
DTR
Text Label 2550 3700 0    50   ~ 0
RXD
Text Label 2550 3800 0    50   ~ 0
TXD
Text Label 2550 4200 0    50   ~ 0
RTS
Text Label 2550 4650 0    50   ~ 0
SW1
Text Label 2550 4750 0    50   ~ 0
SW2
Text Label 2550 4850 0    50   ~ 0
SW3
Text Label 2550 4950 0    50   ~ 0
SW4
Text Label 2950 6600 0    50   ~ 0
SW
Text Label 2950 6900 0    50   ~ 0
BST
Text Label 2950 7200 0    50   ~ 0
FB
Text Label 3050 3600 2    50   ~ 0
DTR
Text Label 3050 4150 2    50   ~ 0
RTS
Text Label 3650 3400 2    50   ~ 0
EN
Text Label 3650 3800 2    50   ~ 0
RTS
Text Label 3650 3950 0    50   ~ 0
DTR
Text Label 3650 4350 0    50   ~ 0
BOOT0
Text Label 4700 2800 2    50   ~ 0
EN
Text Label 5850 6300 0    50   ~ 0
SW3
Text Label 5900 2800 0    50   ~ 0
BOOT0
Text Label 5900 2900 0    50   ~ 0
TXD
Text Label 5900 3100 0    50   ~ 0
RXD
Text Label 5900 3200 0    50   ~ 0
ONEWIRE-IRDA
Text Label 5900 3400 0    50   ~ 0
SW3
Text Label 5900 3500 0    50   ~ 0
CAN_TXD
Text Label 5900 3600 0    50   ~ 0
CAN_RXD
Text Label 5900 4900 0    50   ~ 0
SW1
Text Label 5900 5000 0    50   ~ 0
SW4
Text Label 5900 5100 0    50   ~ 0
SW2
Text Label 6550 4100 0    50   ~ 0
DIM2
Text Label 6550 4200 0    50   ~ 0
DIM1
Text Label 6550 4300 0    50   ~ 0
DIM6
Text Label 6550 4400 0    50   ~ 0
DIM5
Text Label 6550 4500 0    50   ~ 0
DIM3
Text Label 6550 4600 0    50   ~ 0
DIM8
Text Label 6550 4700 0    50   ~ 0
DIM4
Text Label 6550 4800 0    50   ~ 0
DIM7
Text Label 7200 3500 2    50   ~ 0
SDA
Text Label 7200 3600 2    50   ~ 0
SCL
Text Label 8450 1700 0    50   ~ 0
SW1
Text Label 8450 2750 0    50   ~ 0
SW2
Text Label 8450 3800 0    50   ~ 0
SW3
Text Label 8450 4850 0    50   ~ 0
SW4
Text Label 10050 1200 2    50   ~ 0
DIM4
Text Label 10050 1300 2    50   ~ 0
DIM8
Text Label 10050 1950 2    50   ~ 0
DIM3
Text Label 10050 2050 2    50   ~ 0
DIM7
Text Label 10050 2700 2    50   ~ 0
DIM2
Text Label 10050 2800 2    50   ~ 0
DIM6
Text Label 10050 3450 2    50   ~ 0
DIM1
Text Label 10050 3550 2    50   ~ 0
DIM5
Text Label 10650 4600 2    50   ~ 0
ONEWIRE-IRDA
$Comp
L power:+48V #PWR0110
U 1 1 6050E10E
P 900 6600
F 0 "#PWR0110" H 900 6450 50  0001 C CNN
F 1 "+48V" V 915 6728 50  0000 L CNN
F 2 "" H 900 6600 50  0001 C CNN
F 3 "" H 900 6600 50  0001 C CNN
	1    900  6600
	0    -1   -1   0   
$EndComp
$Comp
L power:+5V #PWR0120
U 1 1 6051BE2E
P 1600 2300
F 0 "#PWR0120" H 1600 2150 50  0001 C CNN
F 1 "+5V" V 1615 2428 50  0000 L CNN
F 2 "" H 1600 2300 50  0001 C CNN
F 3 "" H 1600 2300 50  0001 C CNN
	1    1600 2300
	0    -1   -1   0   
$EndComp
$Comp
L power:+3V3 #PWR0122
U 1 1 6052284A
P 2100 2800
F 0 "#PWR0122" H 2100 2650 50  0001 C CNN
F 1 "+3V3" H 2115 2973 50  0000 C CNN
F 2 "" H 2100 2800 50  0001 C CNN
F 3 "" H 2100 2800 50  0001 C CNN
	1    2100 2800
	-1   0    0    1   
$EndComp
$Comp
L power:+12V #PWR0118
U 1 1 6051ABFD
P 2250 1300
F 0 "#PWR0118" H 2250 1150 50  0001 C CNN
F 1 "+12V" H 2265 1473 50  0000 C CNN
F 2 "" H 2250 1300 50  0001 C CNN
F 3 "" H 2250 1300 50  0001 C CNN
	1    2250 1300
	-1   0    0    1   
$EndComp
$Comp
L power:+3V3 #PWR0125
U 1 1 605B86AA
P 2400 2600
F 0 "#PWR0125" H 2400 2450 50  0001 C CNN
F 1 "+3V3" H 2415 2773 50  0000 C CNN
F 2 "" H 2400 2600 50  0001 C CNN
F 3 "" H 2400 2600 50  0001 C CNN
	1    2400 2600
	-1   0    0    1   
$EndComp
$Comp
L power:+3V3 #PWR0107
U 1 1 6165A0C4
P 2550 3900
F 0 "#PWR0107" H 2550 3750 50  0001 C CNN
F 1 "+3V3" H 2565 4073 50  0000 C CNN
F 2 "" H 2550 3900 50  0001 C CNN
F 3 "" H 2550 3900 50  0001 C CNN
	1    2550 3900
	0    1    1    0   
$EndComp
$Comp
L power:+3V3 #PWR0157
U 1 1 61274DB2
P 2550 4550
F 0 "#PWR0157" H 2550 4400 50  0001 C CNN
F 1 "+3V3" H 2565 4723 50  0000 C CNN
F 2 "" H 2550 4550 50  0001 C CNN
F 3 "" H 2550 4550 50  0001 C CNN
	1    2550 4550
	1    0    0    -1  
$EndComp
$Comp
L power:+5V #PWR0116
U 1 1 60519332
P 2750 1300
F 0 "#PWR0116" H 2750 1150 50  0001 C CNN
F 1 "+5V" H 2765 1473 50  0000 C CNN
F 2 "" H 2750 1300 50  0001 C CNN
F 3 "" H 2750 1300 50  0001 C CNN
	1    2750 1300
	-1   0    0    1   
$EndComp
$Comp
L power:+3V3 #PWR0106
U 1 1 61653EA1
P 3650 4650
F 0 "#PWR0106" H 3650 4500 50  0001 C CNN
F 1 "+3V3" H 3665 4823 50  0000 C CNN
F 2 "" H 3650 4650 50  0001 C CNN
F 3 "" H 3650 4650 50  0001 C CNN
	1    3650 4650
	-1   0    0    1   
$EndComp
$Comp
L power:+5V #PWR0102
U 1 1 604E550C
P 3800 800
F 0 "#PWR0102" H 3800 650 50  0001 C CNN
F 1 "+5V" H 3815 973 50  0000 C CNN
F 2 "" H 3800 800 50  0001 C CNN
F 3 "" H 3800 800 50  0001 C CNN
	1    3800 800 
	1    0    0    -1  
$EndComp
$Comp
L power:+3V3 #PWR0117
U 1 1 61682F83
P 4300 2500
F 0 "#PWR0117" H 4300 2350 50  0001 C CNN
F 1 "+3V3" H 4315 2673 50  0000 C CNN
F 2 "" H 4300 2500 50  0001 C CNN
F 3 "" H 4300 2500 50  0001 C CNN
	1    4300 2500
	1    0    0    -1  
$EndComp
$Comp
L power:+5V #PWR0105
U 1 1 6062F295
P 4400 6300
F 0 "#PWR0105" H 4400 6150 50  0001 C CNN
F 1 "+5V" H 4415 6473 50  0000 C CNN
F 2 "" H 4400 6300 50  0001 C CNN
F 3 "" H 4400 6300 50  0001 C CNN
	1    4400 6300
	1    0    0    -1  
$EndComp
$Comp
L power:+3V3 #PWR0114
U 1 1 61674099
P 5300 2600
F 0 "#PWR0114" H 5300 2450 50  0001 C CNN
F 1 "+3V3" H 5315 2773 50  0000 C CNN
F 2 "" H 5300 2600 50  0001 C CNN
F 3 "" H 5300 2600 50  0001 C CNN
	1    5300 2600
	1    0    0    -1  
$EndComp
$Comp
L power:+3V3 #PWR0103
U 1 1 604E61AE
P 5650 800
F 0 "#PWR0103" H 5650 650 50  0001 C CNN
F 1 "+3V3" H 5665 973 50  0000 C CNN
F 2 "" H 5650 800 50  0001 C CNN
F 3 "" H 5650 800 50  0001 C CNN
	1    5650 800 
	1    0    0    -1  
$EndComp
$Comp
L power:+3V3 #PWR0109
U 1 1 6050637F
P 6450 1850
F 0 "#PWR0109" H 6450 1700 50  0001 C CNN
F 1 "+3V3" H 6465 2023 50  0000 C CNN
F 2 "" H 6450 1850 50  0001 C CNN
F 3 "" H 6450 1850 50  0001 C CNN
	1    6450 1850
	1    0    0    -1  
$EndComp
$Comp
L power:+3V3 #PWR0146
U 1 1 608EDE76
P 8450 1250
F 0 "#PWR0146" H 8450 1100 50  0001 C CNN
F 1 "+3V3" H 8465 1423 50  0000 C CNN
F 2 "" H 8450 1250 50  0001 C CNN
F 3 "" H 8450 1250 50  0001 C CNN
	1    8450 1250
	1    0    0    -1  
$EndComp
$Comp
L power:+3V3 #PWR0148
U 1 1 6092388A
P 8450 2300
F 0 "#PWR0148" H 8450 2150 50  0001 C CNN
F 1 "+3V3" H 8465 2473 50  0000 C CNN
F 2 "" H 8450 2300 50  0001 C CNN
F 3 "" H 8450 2300 50  0001 C CNN
	1    8450 2300
	1    0    0    -1  
$EndComp
$Comp
L power:+3V3 #PWR0150
U 1 1 60954416
P 8450 3350
F 0 "#PWR0150" H 8450 3200 50  0001 C CNN
F 1 "+3V3" H 8465 3523 50  0000 C CNN
F 2 "" H 8450 3350 50  0001 C CNN
F 3 "" H 8450 3350 50  0001 C CNN
	1    8450 3350
	1    0    0    -1  
$EndComp
$Comp
L power:+3V3 #PWR0152
U 1 1 609E632D
P 8450 4400
F 0 "#PWR0152" H 8450 4250 50  0001 C CNN
F 1 "+3V3" H 8465 4573 50  0000 C CNN
F 2 "" H 8450 4400 50  0001 C CNN
F 3 "" H 8450 4400 50  0001 C CNN
	1    8450 4400
	1    0    0    -1  
$EndComp
$Comp
L power:+48V #PWR0128
U 1 1 607DF613
P 10050 800
F 0 "#PWR0128" H 10050 650 50  0001 C CNN
F 1 "+48V" V 10065 928 50  0000 L CNN
F 2 "" H 10050 800 50  0001 C CNN
F 3 "" H 10050 800 50  0001 C CNN
	1    10050 800 
	0    -1   -1   0   
$EndComp
$Comp
L power:+48V #PWR0129
U 1 1 607EF52A
P 10050 1550
F 0 "#PWR0129" H 10050 1400 50  0001 C CNN
F 1 "+48V" V 10065 1678 50  0000 L CNN
F 2 "" H 10050 1550 50  0001 C CNN
F 3 "" H 10050 1550 50  0001 C CNN
	1    10050 1550
	0    -1   -1   0   
$EndComp
$Comp
L power:+48V #PWR0130
U 1 1 607EFECC
P 10050 2300
F 0 "#PWR0130" H 10050 2150 50  0001 C CNN
F 1 "+48V" V 10065 2428 50  0000 L CNN
F 2 "" H 10050 2300 50  0001 C CNN
F 3 "" H 10050 2300 50  0001 C CNN
	1    10050 2300
	0    -1   -1   0   
$EndComp
$Comp
L power:+48V #PWR0131
U 1 1 607F0808
P 10050 3050
F 0 "#PWR0131" H 10050 2900 50  0001 C CNN
F 1 "+48V" V 10065 3178 50  0000 L CNN
F 2 "" H 10050 3050 50  0001 C CNN
F 3 "" H 10050 3050 50  0001 C CNN
	1    10050 3050
	0    -1   -1   0   
$EndComp
$Comp
L power:+48V #PWR0104
U 1 1 604E8D2D
P 10050 3800
F 0 "#PWR0104" H 10050 3650 50  0001 C CNN
F 1 "+48V" V 10065 3928 50  0000 L CNN
F 2 "" H 10050 3800 50  0001 C CNN
F 3 "" H 10050 3800 50  0001 C CNN
	1    10050 3800
	0    -1   -1   0   
$EndComp
$Comp
L power:+3V3 #PWR0154
U 1 1 60FB20FD
P 10300 5150
F 0 "#PWR0154" H 10300 5000 50  0001 C CNN
F 1 "+3V3" H 10315 5323 50  0000 C CNN
F 2 "" H 10300 5150 50  0001 C CNN
F 3 "" H 10300 5150 50  0001 C CNN
	1    10300 5150
	1    0    0    -1  
$EndComp
$Comp
L power:+3V3 #PWR0144
U 1 1 6088EC57
P 10800 4450
F 0 "#PWR0144" H 10800 4300 50  0001 C CNN
F 1 "+3V3" H 10815 4623 50  0000 C CNN
F 2 "" H 10800 4450 50  0001 C CNN
F 3 "" H 10800 4450 50  0001 C CNN
	1    10800 4450
	1    0    0    -1  
$EndComp
$Comp
L power:+3V3 #PWR0143
U 1 1 6087AD95
P 10800 5150
F 0 "#PWR0143" H 10800 5000 50  0001 C CNN
F 1 "+3V3" H 10815 5323 50  0000 C CNN
F 2 "" H 10800 5150 50  0001 C CNN
F 3 "" H 10800 5150 50  0001 C CNN
	1    10800 5150
	1    0    0    -1  
$EndComp
$Comp
L power:GND #PWR0123
U 1 1 60566D22
P 900 1800
F 0 "#PWR0123" H 900 1550 50  0001 C CNN
F 1 "GND" V 905 1672 50  0000 R CNN
F 2 "" H 900 1800 50  0001 C CNN
F 3 "" H 900 1800 50  0001 C CNN
	1    900  1800
	0    1    1    0   
$EndComp
$Comp
L power:GND1 #PWR0139
U 1 1 6085C426
P 900 7500
F 0 "#PWR0139" H 900 7250 50  0001 C CNN
F 1 "GND1" H 905 7327 50  0000 C CNN
F 2 "" H 900 7500 50  0001 C CNN
F 3 "" H 900 7500 50  0001 C CNN
	1    900  7500
	1    0    0    -1  
$EndComp
$Comp
L power:GND #PWR0163
U 1 1 614B4A54
P 1400 5850
F 0 "#PWR0163" H 1400 5600 50  0001 C CNN
F 1 "GND" H 1405 5677 50  0000 C CNN
F 2 "" H 1400 5850 50  0001 C CNN
F 3 "" H 1400 5850 50  0001 C CNN
	1    1400 5850
	1    0    0    -1  
$EndComp
$Comp
L power:GND #PWR0124
U 1 1 605B419A
P 1600 2600
F 0 "#PWR0124" H 1600 2350 50  0001 C CNN
F 1 "GND" H 1605 2427 50  0000 C CNN
F 2 "" H 1600 2600 50  0001 C CNN
F 3 "" H 1600 2600 50  0001 C CNN
	1    1600 2600
	1    0    0    -1  
$EndComp
$Comp
L power:GND1 #PWR0164
U 1 1 614BE469
P 1700 5850
F 0 "#PWR0164" H 1700 5600 50  0001 C CNN
F 1 "GND1" H 1705 5677 50  0000 C CNN
F 2 "" H 1700 5850 50  0001 C CNN
F 3 "" H 1700 5850 50  0001 C CNN
	1    1700 5850
	1    0    0    -1  
$EndComp
$Comp
L power:GND2 #PWR0113
U 1 1 611F0A05
P 2150 1300
F 0 "#PWR0113" H 2150 1050 50  0001 C CNN
F 1 "GND2" H 2155 1127 50  0000 C CNN
F 2 "" H 2150 1300 50  0001 C CNN
F 3 "" H 2150 1300 50  0001 C CNN
	1    2150 1300
	1    0    0    -1  
$EndComp
$Comp
L power:GND #PWR0162
U 1 1 611EE24A
P 2200 2800
F 0 "#PWR0162" H 2200 2550 50  0001 C CNN
F 1 "GND" V 2205 2672 50  0000 R CNN
F 2 "" H 2200 2800 50  0001 C CNN
F 3 "" H 2200 2800 50  0001 C CNN
	1    2200 2800
	1    0    0    -1  
$EndComp
$Comp
L power:GND #PWR0121
U 1 1 6051C48E
P 2400 2300
F 0 "#PWR0121" H 2400 2050 50  0001 C CNN
F 1 "GND" V 2405 2172 50  0000 R CNN
F 2 "" H 2400 2300 50  0001 C CNN
F 3 "" H 2400 2300 50  0001 C CNN
	1    2400 2300
	0    -1   -1   0   
$EndComp
$Comp
L power:GND #PWR0111
U 1 1 6165AF81
P 2550 4100
F 0 "#PWR0111" H 2550 3850 50  0001 C CNN
F 1 "GND" V 2555 3972 50  0000 R CNN
F 2 "" H 2550 4100 50  0001 C CNN
F 3 "" H 2550 4100 50  0001 C CNN
	1    2550 4100
	0    -1   -1   0   
$EndComp
$Comp
L power:GND #PWR0158
U 1 1 61274E14
P 2550 5050
F 0 "#PWR0158" H 2550 4800 50  0001 C CNN
F 1 "GND" H 2555 4877 50  0000 C CNN
F 2 "" H 2550 5050 50  0001 C CNN
F 3 "" H 2550 5050 50  0001 C CNN
	1    2550 5050
	1    0    0    -1  
$EndComp
$Comp
L power:GND #PWR0112
U 1 1 605129A1
P 2850 1300
F 0 "#PWR0112" H 2850 1050 50  0001 C CNN
F 1 "GND" H 2855 1127 50  0000 C CNN
F 2 "" H 2850 1300 50  0001 C CNN
F 3 "" H 2850 1300 50  0001 C CNN
	1    2850 1300
	1    0    0    -1  
$EndComp
$Comp
L power:GND1 #PWR0138
U 1 1 6085083A
P 4150 7500
F 0 "#PWR0138" H 4150 7250 50  0001 C CNN
F 1 "GND1" H 4155 7327 50  0000 C CNN
F 2 "" H 4150 7500 50  0001 C CNN
F 3 "" H 4150 7500 50  0001 C CNN
	1    4150 7500
	1    0    0    -1  
$EndComp
$Comp
L power:GND #PWR0119
U 1 1 61683A05
P 4300 3100
F 0 "#PWR0119" H 4300 2850 50  0001 C CNN
F 1 "GND" V 4305 2972 50  0000 R CNN
F 2 "" H 4300 3100 50  0001 C CNN
F 3 "" H 4300 3100 50  0001 C CNN
	1    4300 3100
	1    0    0    -1  
$EndComp
$Comp
L power:GND #PWR0101
U 1 1 604E4C3B
P 4700 1100
F 0 "#PWR0101" H 4700 850 50  0001 C CNN
F 1 "GND" H 4705 927 50  0000 C CNN
F 2 "" H 4700 1100 50  0001 C CNN
F 3 "" H 4700 1100 50  0001 C CNN
	1    4700 1100
	1    0    0    -1  
$EndComp
$Comp
L power:GND #PWR0115
U 1 1 616751C7
P 5300 5400
F 0 "#PWR0115" H 5300 5150 50  0001 C CNN
F 1 "GND" V 5305 5272 50  0000 R CNN
F 2 "" H 5300 5400 50  0001 C CNN
F 3 "" H 5300 5400 50  0001 C CNN
	1    5300 5400
	1    0    0    -1  
$EndComp
$Comp
L power:GND #PWR0126
U 1 1 6183C002
P 6050 6700
F 0 "#PWR0126" H 6050 6450 50  0001 C CNN
F 1 "GND" V 6055 6572 50  0000 R CNN
F 2 "" H 6050 6700 50  0001 C CNN
F 3 "" H 6050 6700 50  0001 C CNN
	1    6050 6700
	1    0    0    -1  
$EndComp
$Comp
L power:GND #PWR0108
U 1 1 60504002
P 6450 2150
F 0 "#PWR0108" H 6450 1900 50  0001 C CNN
F 1 "GND" H 6455 1977 50  0000 C CNN
F 2 "" H 6450 2150 50  0001 C CNN
F 3 "" H 6450 2150 50  0001 C CNN
	1    6450 2150
	1    0    0    -1  
$EndComp
$Comp
L power:GND #PWR0145
U 1 1 608B1126
P 8000 1700
F 0 "#PWR0145" H 8000 1450 50  0001 C CNN
F 1 "GND" H 8005 1527 50  0000 C CNN
F 2 "" H 8000 1700 50  0001 C CNN
F 3 "" H 8000 1700 50  0001 C CNN
	1    8000 1700
	1    0    0    -1  
$EndComp
$Comp
L power:GND #PWR0147
U 1 1 60921672
P 8000 2750
F 0 "#PWR0147" H 8000 2500 50  0001 C CNN
F 1 "GND" H 8005 2577 50  0000 C CNN
F 2 "" H 8000 2750 50  0001 C CNN
F 3 "" H 8000 2750 50  0001 C CNN
	1    8000 2750
	1    0    0    -1  
$EndComp
$Comp
L power:GND #PWR0149
U 1 1 60952326
P 8000 3800
F 0 "#PWR0149" H 8000 3550 50  0001 C CNN
F 1 "GND" H 8005 3627 50  0000 C CNN
F 2 "" H 8000 3800 50  0001 C CNN
F 3 "" H 8000 3800 50  0001 C CNN
	1    8000 3800
	1    0    0    -1  
$EndComp
$Comp
L power:GND #PWR0151
U 1 1 609E0E0B
P 8000 4850
F 0 "#PWR0151" H 8000 4600 50  0001 C CNN
F 1 "GND" H 8005 4677 50  0000 C CNN
F 2 "" H 8000 4850 50  0001 C CNN
F 3 "" H 8000 4850 50  0001 C CNN
	1    8000 4850
	1    0    0    -1  
$EndComp
$Comp
L power:GND1 #PWR0136
U 1 1 608077DB
P 10050 1000
F 0 "#PWR0136" H 10050 750 50  0001 C CNN
F 1 "GND1" V 10055 872 50  0000 R CNN
F 2 "" H 10050 1000 50  0001 C CNN
F 3 "" H 10050 1000 50  0001 C CNN
	1    10050 1000
	0    1    1    0   
$EndComp
$Comp
L power:GND1 #PWR0135
U 1 1 60804838
P 10050 1750
F 0 "#PWR0135" H 10050 1500 50  0001 C CNN
F 1 "GND1" V 10055 1622 50  0000 R CNN
F 2 "" H 10050 1750 50  0001 C CNN
F 3 "" H 10050 1750 50  0001 C CNN
	1    10050 1750
	0    1    1    0   
$EndComp
$Comp
L power:GND1 #PWR0134
U 1 1 60803BA9
P 10050 2500
F 0 "#PWR0134" H 10050 2250 50  0001 C CNN
F 1 "GND1" V 10055 2372 50  0000 R CNN
F 2 "" H 10050 2500 50  0001 C CNN
F 3 "" H 10050 2500 50  0001 C CNN
	1    10050 2500
	0    1    1    0   
$EndComp
$Comp
L power:GND1 #PWR0133
U 1 1 608035DA
P 10050 3250
F 0 "#PWR0133" H 10050 3000 50  0001 C CNN
F 1 "GND1" V 10055 3122 50  0000 R CNN
F 2 "" H 10050 3250 50  0001 C CNN
F 3 "" H 10050 3250 50  0001 C CNN
	1    10050 3250
	0    1    1    0   
$EndComp
$Comp
L power:GND1 #PWR0132
U 1 1 60801CEB
P 10050 3900
F 0 "#PWR0132" H 10050 3650 50  0001 C CNN
F 1 "GND1" V 10055 3772 50  0000 R CNN
F 2 "" H 10050 3900 50  0001 C CNN
F 3 "" H 10050 3900 50  0001 C CNN
	1    10050 3900
	0    1    1    0   
$EndComp
$Comp
L power:GND #PWR0155
U 1 1 60FB25DA
P 10100 5150
F 0 "#PWR0155" H 10100 4900 50  0001 C CNN
F 1 "GND" H 10105 4977 50  0000 C CNN
F 2 "" H 10100 5150 50  0001 C CNN
F 3 "" H 10100 5150 50  0001 C CNN
	1    10100 5150
	-1   0    0    1   
$EndComp
$Comp
L power:GND #PWR0140
U 1 1 6087654E
P 10600 5150
F 0 "#PWR0140" H 10600 4900 50  0001 C CNN
F 1 "GND" H 10605 4977 50  0000 C CNN
F 2 "" H 10600 5150 50  0001 C CNN
F 3 "" H 10600 5150 50  0001 C CNN
	1    10600 5150
	-1   0    0    1   
$EndComp
$Comp
L Device:L L1
U 1 1 605FC6FC
P 3350 6600
F 0 "L1" V 3169 6600 50  0000 C CNN
F 1 "L" V 3260 6600 50  0000 C CNN
F 2 "Inductor_SMD:L_1210_3225Metric_Pad1.42x2.65mm_HandSolder" H 3350 6600 50  0001 C CNN
F 3 "~" H 3350 6600 50  0001 C CNN
	1    3350 6600
	0    1    1    0   
$EndComp
$Comp
L Device:R RRON1
U 1 1 605E7475
P 1500 7350
F 0 "RRON1" H 1430 7304 50  0000 R CNN
F 1 "?R" H 1430 7395 50  0000 R CNN
F 2 "Resistor_SMD:R_0805_2012Metric_Pad1.20x1.40mm_HandSolder" V 1430 7350 50  0001 C CNN
F 3 "~" H 1500 7350 50  0001 C CNN
	1    1500 7350
	-1   0    0    1   
$EndComp
$Comp
L Device:R R30
U 1 1 614C5B68
P 1550 5850
F 0 "R30" V 1343 5850 50  0000 C CNN
F 1 "0R" V 1434 5850 50  0000 C CNN
F 2 "Resistor_SMD:R_0805_2012Metric_Pad1.20x1.40mm_HandSolder" V 1480 5850 50  0001 C CNN
F 3 "~" H 1550 5850 50  0001 C CNN
	1    1550 5850
	0    1    1    0   
$EndComp
$Comp
L Device:R R27
U 1 1 60753A67
P 1800 1300
F 0 "R27" V 1593 1300 50  0000 C CNN
F 1 "R" V 1684 1300 50  0000 C CNN
F 2 "Resistor_SMD:R_0805_2012Metric_Pad1.20x1.40mm_HandSolder" V 1730 1300 50  0001 C CNN
F 3 "~" H 1800 1300 50  0001 C CNN
	1    1800 1300
	0    1    1    0   
$EndComp
$Comp
L Device:R R1
U 1 1 6163B56A
P 3200 3600
F 0 "R1" V 2993 3600 50  0000 C CNN
F 1 "10K" V 3084 3600 50  0000 C CNN
F 2 "Resistor_SMD:R_0805_2012Metric_Pad1.20x1.40mm_HandSolder" V 3130 3600 50  0001 C CNN
F 3 "~" H 3200 3600 50  0001 C CNN
	1    3200 3600
	0    1    1    0   
$EndComp
$Comp
L Device:R R2
U 1 1 6164B0AE
P 3200 4150
F 0 "R2" V 2993 4150 50  0000 C CNN
F 1 "10K" V 3084 4150 50  0000 C CNN
F 2 "Resistor_SMD:R_0805_2012Metric_Pad1.20x1.40mm_HandSolder" V 3130 4150 50  0001 C CNN
F 3 "~" H 3200 4150 50  0001 C CNN
	1    3200 4150
	0    1    1    0   
$EndComp
$Comp
L Device:R R3
U 1 1 6164B62E
P 3650 4500
F 0 "R3" V 3443 4500 50  0000 C CNN
F 1 "10K" V 3534 4500 50  0000 C CNN
F 2 "Resistor_SMD:R_0805_2012Metric_Pad1.20x1.40mm_HandSolder" V 3580 4500 50  0001 C CNN
F 3 "~" H 3650 4500 50  0001 C CNN
	1    3650 4500
	-1   0    0    1   
$EndComp
$Comp
L Device:R RFB1
U 1 1 60608878
P 3950 7050
F 0 "RFB1" H 3880 7004 50  0000 R CNN
F 1 "?R" H 3880 7095 50  0000 R CNN
F 2 "Resistor_SMD:R_0805_2012Metric_Pad1.20x1.40mm_HandSolder" V 3880 7050 50  0001 C CNN
F 3 "~" H 3950 7050 50  0001 C CNN
	1    3950 7050
	-1   0    0    1   
$EndComp
$Comp
L Device:R RFB2
U 1 1 60609994
P 3950 7350
F 0 "RFB2" H 3880 7304 50  0000 R CNN
F 1 "?R" H 3880 7395 50  0000 R CNN
F 2 "Resistor_SMD:R_0805_2012Metric_Pad1.20x1.40mm_HandSolder" V 3880 7350 50  0001 C CNN
F 3 "~" H 3950 7350 50  0001 C CNN
	1    3950 7350
	-1   0    0    1   
$EndComp
$Comp
L Device:R R4
U 1 1 6167729C
P 4300 2650
F 0 "R4" V 4093 2650 50  0000 C CNN
F 1 "10K" V 4184 2650 50  0000 C CNN
F 2 "Resistor_SMD:R_0805_2012Metric_Pad1.20x1.40mm_HandSolder" V 4230 2650 50  0001 C CNN
F 3 "~" H 4300 2650 50  0001 C CNN
	1    4300 2650
	-1   0    0    1   
$EndComp
$Comp
L Device:R RESR1
U 1 1 6060EC6D
P 4400 7050
F 0 "RESR1" H 4330 7004 50  0000 R CNN
F 1 "?R" H 4330 7095 50  0000 R CNN
F 2 "Resistor_SMD:R_0805_2012Metric_Pad1.20x1.40mm_HandSolder" V 4330 7050 50  0001 C CNN
F 3 "~" H 4400 7050 50  0001 C CNN
	1    4400 7050
	-1   0    0    1   
$EndComp
$Comp
L Device:R R25
U 1 1 618AD135
P 5850 6450
F 0 "R25" V 5643 6450 50  0000 C CNN
F 1 "10K" V 5734 6450 50  0000 C CNN
F 2 "Resistor_SMD:R_0805_2012Metric_Pad1.20x1.40mm_HandSolder" V 5780 6450 50  0001 C CNN
F 3 "~" H 5850 6450 50  0001 C CNN
	1    5850 6450
	-1   0    0    1   
$EndComp
$Comp
L Device:R R23
U 1 1 60B52BCB
P 6400 4100
F 0 "R23" V 6193 4100 50  0000 C CNN
F 1 "100R" V 6284 4100 50  0000 C CNN
F 2 "Resistor_SMD:R_0805_2012Metric_Pad1.20x1.40mm_HandSolder" V 6330 4100 50  0001 C CNN
F 3 "~" H 6400 4100 50  0001 C CNN
	1    6400 4100
	0    1    1    0   
$EndComp
$Comp
L Device:R R24
U 1 1 60B53225
P 6400 4200
F 0 "R24" V 6193 4200 50  0000 C CNN
F 1 "100R" V 6284 4200 50  0000 C CNN
F 2 "Resistor_SMD:R_0805_2012Metric_Pad1.20x1.40mm_HandSolder" V 6330 4200 50  0001 C CNN
F 3 "~" H 6400 4200 50  0001 C CNN
	1    6400 4200
	0    1    1    0   
$EndComp
$Comp
L Device:R R35
U 1 1 6136B45B
P 6400 4300
F 0 "R35" V 6193 4300 50  0000 C CNN
F 1 "100R" V 6284 4300 50  0000 C CNN
F 2 "Resistor_SMD:R_0805_2012Metric_Pad1.20x1.40mm_HandSolder" V 6330 4300 50  0001 C CNN
F 3 "~" H 6400 4300 50  0001 C CNN
	1    6400 4300
	0    1    1    0   
$EndComp
$Comp
L Device:R R36
U 1 1 6136B465
P 6400 4400
F 0 "R36" V 6193 4400 50  0000 C CNN
F 1 "100R" V 6284 4400 50  0000 C CNN
F 2 "Resistor_SMD:R_0805_2012Metric_Pad1.20x1.40mm_HandSolder" V 6330 4400 50  0001 C CNN
F 3 "~" H 6400 4400 50  0001 C CNN
	1    6400 4400
	0    1    1    0   
$EndComp
$Comp
L Device:R R37
U 1 1 6136B447
P 6400 4500
F 0 "R37" V 6193 4500 50  0000 C CNN
F 1 "100R" V 6284 4500 50  0000 C CNN
F 2 "Resistor_SMD:R_0805_2012Metric_Pad1.20x1.40mm_HandSolder" V 6330 4500 50  0001 C CNN
F 3 "~" H 6400 4500 50  0001 C CNN
	1    6400 4500
	0    1    1    0   
$EndComp
$Comp
L Device:R R38
U 1 1 6136B451
P 6400 4600
F 0 "R38" V 6193 4600 50  0000 C CNN
F 1 "100R" V 6284 4600 50  0000 C CNN
F 2 "Resistor_SMD:R_0805_2012Metric_Pad1.20x1.40mm_HandSolder" V 6330 4600 50  0001 C CNN
F 3 "~" H 6400 4600 50  0001 C CNN
	1    6400 4600
	0    1    1    0   
$EndComp
$Comp
L Device:R R21
U 1 1 60B51EE1
P 6400 4700
F 0 "R21" V 6193 4700 50  0000 C CNN
F 1 "100R" V 6284 4700 50  0000 C CNN
F 2 "Resistor_SMD:R_0805_2012Metric_Pad1.20x1.40mm_HandSolder" V 6330 4700 50  0001 C CNN
F 3 "~" H 6400 4700 50  0001 C CNN
	1    6400 4700
	0    1    1    0   
$EndComp
$Comp
L Device:R R22
U 1 1 60B5261C
P 6400 4800
F 0 "R22" V 6193 4800 50  0000 C CNN
F 1 "100R" V 6284 4800 50  0000 C CNN
F 2 "Resistor_SMD:R_0805_2012Metric_Pad1.20x1.40mm_HandSolder" V 6330 4800 50  0001 C CNN
F 3 "~" H 6400 4800 50  0001 C CNN
	1    6400 4800
	0    1    1    0   
$EndComp
$Comp
L Device:R R20
U 1 1 60B2AF43
P 6950 3500
F 0 "R20" V 6743 3500 50  0000 C CNN
F 1 "100R" V 6834 3500 50  0000 C CNN
F 2 "Resistor_SMD:R_0805_2012Metric_Pad1.20x1.40mm_HandSolder" V 6880 3500 50  0001 C CNN
F 3 "~" H 6950 3500 50  0001 C CNN
	1    6950 3500
	0    -1   -1   0   
$EndComp
$Comp
L Device:R R19
U 1 1 60B2AB46
P 6950 3600
F 0 "R19" V 6743 3600 50  0000 C CNN
F 1 "100R" V 6834 3600 50  0000 C CNN
F 2 "Resistor_SMD:R_0805_2012Metric_Pad1.20x1.40mm_HandSolder" V 6880 3600 50  0001 C CNN
F 3 "~" H 6950 3600 50  0001 C CNN
	1    6950 3600
	0    -1   -1   0   
$EndComp
$Comp
L Device:R R18
U 1 1 60B2A761
P 6950 3700
F 0 "R18" V 6743 3700 50  0000 C CNN
F 1 "100R" V 6834 3700 50  0000 C CNN
F 2 "Resistor_SMD:R_0805_2012Metric_Pad1.20x1.40mm_HandSolder" V 6880 3700 50  0001 C CNN
F 3 "~" H 6950 3700 50  0001 C CNN
	1    6950 3700
	0    -1   -1   0   
$EndComp
$Comp
L Device:R R17
U 1 1 60B2A355
P 6950 3800
F 0 "R17" V 6743 3800 50  0000 C CNN
F 1 "100R" V 6834 3800 50  0000 C CNN
F 2 "Resistor_SMD:R_0805_2012Metric_Pad1.20x1.40mm_HandSolder" V 6880 3800 50  0001 C CNN
F 3 "~" H 6950 3800 50  0001 C CNN
	1    6950 3800
	0    -1   -1   0   
$EndComp
$Comp
L Device:R R16
U 1 1 60B29F4C
P 6950 3900
F 0 "R16" V 6743 3900 50  0000 C CNN
F 1 "100R" V 6834 3900 50  0000 C CNN
F 2 "Resistor_SMD:R_0805_2012Metric_Pad1.20x1.40mm_HandSolder" V 6880 3900 50  0001 C CNN
F 3 "~" H 6950 3900 50  0001 C CNN
	1    6950 3900
	0    -1   -1   0   
$EndComp
$Comp
L Device:R R5
U 1 1 60B1AF56
P 6950 4000
F 0 "R5" V 6743 4000 50  0000 C CNN
F 1 "100R" V 6834 4000 50  0000 C CNN
F 2 "Resistor_SMD:R_0805_2012Metric_Pad1.20x1.40mm_HandSolder" V 6880 4000 50  0001 C CNN
F 3 "~" H 6950 4000 50  0001 C CNN
	1    6950 4000
	0    -1   -1   0   
$EndComp
$Comp
L Device:R R7
U 1 1 608AEC5D
P 8450 1400
F 0 "R7" H 8520 1446 50  0000 L CNN
F 1 "10K" H 8520 1355 50  0000 L CNN
F 2 "Resistor_SMD:R_0805_2012Metric_Pad1.20x1.40mm_HandSolder" V 8380 1400 50  0001 C CNN
F 3 "~" H 8450 1400 50  0001 C CNN
	1    8450 1400
	1    0    0    -1  
$EndComp
$Comp
L Device:R R9
U 1 1 6092294E
P 8450 2450
F 0 "R9" H 8520 2496 50  0000 L CNN
F 1 "10K" H 8520 2405 50  0000 L CNN
F 2 "Resistor_SMD:R_0805_2012Metric_Pad1.20x1.40mm_HandSolder" V 8380 2450 50  0001 C CNN
F 3 "~" H 8450 2450 50  0001 C CNN
	1    8450 2450
	1    0    0    -1  
$EndComp
$Comp
L Device:R R11
U 1 1 60953BDB
P 8450 3500
F 0 "R11" H 8520 3546 50  0000 L CNN
F 1 "10K" H 8520 3455 50  0000 L CNN
F 2 "Resistor_SMD:R_0805_2012Metric_Pad1.20x1.40mm_HandSolder" V 8380 3500 50  0001 C CNN
F 3 "~" H 8450 3500 50  0001 C CNN
	1    8450 3500
	1    0    0    -1  
$EndComp
$Comp
L Device:R R13
U 1 1 609E1FD0
P 8450 4550
F 0 "R13" H 8520 4596 50  0000 L CNN
F 1 "10K" H 8520 4505 50  0000 L CNN
F 2 "Resistor_SMD:R_0805_2012Metric_Pad1.20x1.40mm_HandSolder" V 8380 4550 50  0001 C CNN
F 3 "~" H 8450 4550 50  0001 C CNN
	1    8450 4550
	1    0    0    -1  
$EndComp
$Comp
L Device:R R15
U 1 1 60886370
P 10800 4600
F 0 "R15" H 10730 4554 50  0000 R CNN
F 1 "4K7" H 10730 4645 50  0000 R CNN
F 2 "Resistor_SMD:R_0805_2012Metric_Pad1.20x1.40mm_HandSolder" V 10730 4600 50  0001 C CNN
F 3 "~" H 10800 4600 50  0001 C CNN
	1    10800 4600
	-1   0    0    1   
$EndComp
$Comp
L Device:D D1
U 1 1 605EDBEA
P 1050 6600
F 0 "D1" H 1050 6383 50  0000 C CNN
F 1 "D" H 1050 6474 50  0000 C CNN
F 2 "Diode_SMD:D_SOD-123" H 1050 6600 50  0001 C CNN
F 3 "~" H 1050 6600 50  0001 C CNN
	1    1050 6600
	-1   0    0    1   
$EndComp
$Comp
L Device:D D4
U 1 1 60629634
P 4400 6450
F 0 "D4" V 4354 6530 50  0000 L CNN
F 1 "D" V 4445 6530 50  0000 L CNN
F 2 "Diode_SMD:D_SOD-123" H 4400 6450 50  0001 C CNN
F 3 "~" H 4400 6450 50  0001 C CNN
	1    4400 6450
	0    1    1    0   
$EndComp
$Comp
L Connector:Conn_01x03_Female J5
U 1 1 60FB1AC0
P 10200 5350
F 0 "J5" V 10046 5498 50  0000 L CNN
F 1 "IRDA" V 10137 5498 50  0000 L CNN
F 2 "Connector_PinHeader_2.54mm:PinHeader_1x03_P2.54mm_Vertical" H 10200 5350 50  0001 C CNN
F 3 "~" H 10200 5350 50  0001 C CNN
	1    10200 5350
	0    1    1    0   
$EndComp
$Comp
L Connector:Conn_01x03_Female J6
U 1 1 6046A6F9
P 10700 5350
F 0 "J6" V 10546 5498 50  0000 L CNN
F 1 "IRDA" V 10637 5498 50  0000 L CNN
F 2 "Connector_PinHeader_2.54mm:PinHeader_1x03_P2.54mm_Vertical" H 10700 5350 50  0001 C CNN
F 3 "~" H 10700 5350 50  0001 C CNN
	1    10700 5350
	0    1    1    0   
$EndComp
$Comp
L Connector:Screw_Terminal_01x02 J2
U 1 1 60BEE7CD
P 10250 3800
F 0 "J2" H 10330 3792 50  0000 L CNN
F 1 "Screw_Terminal_01x02" H 10330 3701 50  0000 L CNN
F 2 "TerminalBlock_RND:TerminalBlock_RND_205-00001_1x02_P5.00mm_Horizontal" H 10250 3800 50  0001 C CNN
F 3 "~" H 10250 3800 50  0001 C CNN
	1    10250 3800
	1    0    0    -1  
$EndComp
$Comp
L Device:C C11
U 1 1 605DD313
P 1200 6750
F 0 "C11" H 1315 6796 50  0000 L CNN
F 1 "100n" H 1315 6705 50  0000 L CNN
F 2 "Capacitor_SMD:C_0805_2012Metric_Pad1.18x1.45mm_HandSolder" H 1238 6600 50  0001 C CNN
F 3 "~" H 1200 6750 50  0001 C CNN
	1    1200 6750
	1    0    0    -1  
$EndComp
$Comp
L Device:C C9
U 1 1 605B2319
P 1600 2450
F 0 "C9" H 1715 2496 50  0000 L CNN
F 1 "100n" H 1715 2405 50  0000 L CNN
F 2 "Capacitor_SMD:C_0805_2012Metric_Pad1.18x1.45mm_HandSolder" H 1638 2300 50  0001 C CNN
F 3 "~" H 1600 2450 50  0001 C CNN
	1    1600 2450
	1    0    0    -1  
$EndComp
$Comp
L Device:C C12
U 1 1 605DDD7E
P 1650 6750
F 0 "C12" H 1765 6796 50  0000 L CNN
F 1 "10u" H 1765 6705 50  0000 L CNN
F 2 "Capacitor_SMD:C_0805_2012Metric_Pad1.18x1.45mm_HandSolder" H 1688 6600 50  0001 C CNN
F 3 "~" H 1650 6750 50  0001 C CNN
	1    1650 6750
	1    0    0    -1  
$EndComp
$Comp
L Device:C C10
U 1 1 605B5CFF
P 2400 2450
F 0 "C10" H 2285 2404 50  0000 R CNN
F 1 "100n" H 2285 2495 50  0000 R CNN
F 2 "Capacitor_SMD:C_0805_2012Metric_Pad1.18x1.45mm_HandSolder" H 2438 2300 50  0001 C CNN
F 3 "~" H 2400 2450 50  0001 C CNN
	1    2400 2450
	-1   0    0    1   
$EndComp
$Comp
L Device:C CBST1
U 1 1 605FEFAE
P 3200 6750
F 0 "CBST1" H 3315 6796 50  0000 L CNN
F 1 "C" H 3315 6705 50  0000 L CNN
F 2 "Capacitor_SMD:C_0805_2012Metric_Pad1.18x1.45mm_HandSolder" H 3238 6600 50  0001 C CNN
F 3 "~" H 3200 6750 50  0001 C CNN
	1    3200 6750
	1    0    0    -1  
$EndComp
$Comp
L Device:C CFF1
U 1 1 605FE908
P 3550 7050
F 0 "CFF1" H 3665 7096 50  0000 L CNN
F 1 "C" H 3665 7005 50  0000 L CNN
F 2 "Capacitor_SMD:C_0805_2012Metric_Pad1.18x1.45mm_HandSolder" H 3588 6900 50  0001 C CNN
F 3 "~" H 3550 7050 50  0001 C CNN
	1    3550 7050
	1    0    0    -1  
$EndComp
$Comp
L Device:C C4
U 1 1 604E2D06
P 3800 950
F 0 "C4" H 3915 996 50  0000 L CNN
F 1 "100n" H 3915 905 50  0000 L CNN
F 2 "Capacitor_SMD:C_0805_2012Metric_Pad1.18x1.45mm_HandSolder" H 3838 800 50  0001 C CNN
F 3 "~" H 3800 950 50  0001 C CNN
	1    3800 950 
	1    0    0    -1  
$EndComp
$Comp
L Device:C C6
U 1 1 604E1CE9
P 4200 950
F 0 "C6" H 4315 996 50  0000 L CNN
F 1 "10u" H 4315 905 50  0000 L CNN
F 2 "Capacitor_SMD:C_0805_2012Metric_Pad1.18x1.45mm_HandSolder" H 4238 800 50  0001 C CNN
F 3 "~" H 4200 950 50  0001 C CNN
	1    4200 950 
	1    0    0    -1  
$EndComp
$Comp
L Device:C C2
U 1 1 616792A9
P 4300 2950
F 0 "C2" H 4415 2996 50  0000 L CNN
F 1 "1u" H 4415 2905 50  0000 L CNN
F 2 "Capacitor_SMD:C_0805_2012Metric_Pad1.18x1.45mm_HandSolder" H 4338 2800 50  0001 C CNN
F 3 "~" H 4300 2950 50  0001 C CNN
	1    4300 2950
	1    0    0    -1  
$EndComp
$Comp
L Device:C C13
U 1 1 605FF5FD
P 4400 7350
F 0 "C13" H 4515 7396 50  0000 L CNN
F 1 "C" H 4515 7305 50  0000 L CNN
F 2 "Capacitor_SMD:C_0805_2012Metric_Pad1.18x1.45mm_HandSolder" H 4438 7200 50  0001 C CNN
F 3 "~" H 4400 7350 50  0001 C CNN
	1    4400 7350
	1    0    0    -1  
$EndComp
$Comp
L Device:C C3
U 1 1 618D67C4
P 4900 2000
F 0 "C3" H 5015 2046 50  0000 L CNN
F 1 "10u" H 5015 1955 50  0000 L CNN
F 2 "Capacitor_SMD:C_0805_2012Metric_Pad1.18x1.45mm_HandSolder" H 4938 1850 50  0001 C CNN
F 3 "~" H 4900 2000 50  0001 C CNN
	1    4900 2000
	1    0    0    -1  
$EndComp
$Comp
L Device:C C7
U 1 1 604DF870
P 5200 950
F 0 "C7" H 5315 996 50  0000 L CNN
F 1 "10u" H 5315 905 50  0000 L CNN
F 2 "Capacitor_SMD:C_0805_2012Metric_Pad1.18x1.45mm_HandSolder" H 5238 800 50  0001 C CNN
F 3 "~" H 5200 950 50  0001 C CNN
	1    5200 950 
	1    0    0    -1  
$EndComp
$Comp
L Device:C C1
U 1 1 604F76B6
P 5200 2000
F 0 "C1" H 5315 2046 50  0000 L CNN
F 1 "100n" H 5315 1955 50  0000 L CNN
F 2 "Capacitor_SMD:C_0805_2012Metric_Pad1.18x1.45mm_HandSolder" H 5238 1850 50  0001 C CNN
F 3 "~" H 5200 2000 50  0001 C CNN
	1    5200 2000
	1    0    0    -1  
$EndComp
$Comp
L Device:C C8
U 1 1 604E22D2
P 5650 950
F 0 "C8" H 5765 996 50  0000 L CNN
F 1 "100n" H 5765 905 50  0000 L CNN
F 2 "Capacitor_SMD:C_0805_2012Metric_Pad1.18x1.45mm_HandSolder" H 5688 800 50  0001 C CNN
F 3 "~" H 5650 950 50  0001 C CNN
	1    5650 950 
	1    0    0    -1  
$EndComp
$Comp
L Switch:SW_Push SW1
U 1 1 60409BD8
P 8200 1700
F 0 "SW1" H 8200 1985 50  0000 C CNN
F 1 "SW_Push" H 8200 1894 50  0000 C CNN
F 2 "Button_Switch_SMD:SW_SPST_TL3305A" H 8200 1900 50  0001 C CNN
F 3 "~" H 8200 1900 50  0001 C CNN
	1    8200 1700
	1    0    0    -1  
$EndComp
$Comp
L Switch:SW_Push SW2
U 1 1 60409F0B
P 8200 2750
F 0 "SW2" H 8200 3035 50  0000 C CNN
F 1 "SW_Push" H 8200 2944 50  0000 C CNN
F 2 "Button_Switch_SMD:SW_SPST_TL3305A" H 8200 2950 50  0001 C CNN
F 3 "~" H 8200 2950 50  0001 C CNN
	1    8200 2750
	1    0    0    -1  
$EndComp
$Comp
L Switch:SW_Push SW3
U 1 1 6040A03A
P 8200 3800
F 0 "SW3" H 8200 4085 50  0000 C CNN
F 1 "SW_Push" H 8200 3994 50  0000 C CNN
F 2 "Button_Switch_SMD:SW_SPST_TL3305A" H 8200 4000 50  0001 C CNN
F 3 "~" H 8200 4000 50  0001 C CNN
	1    8200 3800
	1    0    0    -1  
$EndComp
$Comp
L Switch:SW_Push SW4
U 1 1 6040A2B1
P 8200 4850
F 0 "SW4" H 8200 5135 50  0000 C CNN
F 1 "SW_Push" H 8200 5044 50  0000 C CNN
F 2 "Button_Switch_SMD:SW_SPST_TL3305A" H 8200 5050 50  0001 C CNN
F 3 "~" H 8200 5050 50  0001 C CNN
	1    8200 4850
	1    0    0    -1  
$EndComp
$Comp
L Connector:Conn_01x06_Female J12
U 1 1 61274894
P 2350 4850
F 0 "J12" H 2242 4325 50  0000 C CNN
F 1 "SWITCHES-SENSORS" H 2242 4416 50  0000 C CNN
F 2 "kahiwi:02x03MicroMatch" H 2350 4850 50  0001 C CNN
F 3 "~" H 2350 4850 50  0001 C CNN
	1    2350 4850
	-1   0    0    1   
$EndComp
$Comp
L Connector:Conn_01x06_Female J1
U 1 1 60413583
P 7400 3800
F 0 "J1" H 7292 3275 50  0000 C CNN
F 1 "SWITCHES-SENSORS" H 7292 3366 50  0000 C CNN
F 2 "kahiwi:02x03MicroMatch" H 7400 3800 50  0001 C CNN
F 3 "~" H 7400 3800 50  0001 C CNN
	1    7400 3800
	1    0    0    1   
$EndComp
$Comp
L Connector:Conn_01x06_Female J8
U 1 1 6041481E
P 10250 1100
F 0 "J8" H 10278 1076 50  0000 L CNN
F 1 "Conn_01x06_Female" H 10278 985 50  0000 L CNN
F 2 "kahiwi:02x03MicroMatch" H 10250 1100 50  0001 C CNN
F 3 "~" H 10250 1100 50  0001 C CNN
	1    10250 1100
	1    0    0    1   
$EndComp
$Comp
L Connector:Conn_01x06_Female J9
U 1 1 60416EF6
P 10250 1850
F 0 "J9" H 10278 1826 50  0000 L CNN
F 1 "Conn_01x06_Female" H 10278 1735 50  0000 L CNN
F 2 "kahiwi:02x03MicroMatch" H 10250 1850 50  0001 C CNN
F 3 "~" H 10250 1850 50  0001 C CNN
	1    10250 1850
	1    0    0    1   
$EndComp
$Comp
L Connector:Conn_01x06_Female J10
U 1 1 60417772
P 10250 2600
F 0 "J10" H 10278 2576 50  0000 L CNN
F 1 "Conn_01x06_Female" H 10278 2485 50  0000 L CNN
F 2 "kahiwi:02x03MicroMatch" H 10250 2600 50  0001 C CNN
F 3 "~" H 10250 2600 50  0001 C CNN
	1    10250 2600
	1    0    0    1   
$EndComp
$Comp
L Connector:Conn_01x06_Female J11
U 1 1 604180AD
P 10250 3350
F 0 "J11" H 10278 3326 50  0000 L CNN
F 1 "Conn_01x06_Female" H 10278 3235 50  0000 L CNN
F 2 "kahiwi:02x03MicroMatch" H 10250 3350 50  0001 C CNN
F 3 "~" H 10250 3350 50  0001 C CNN
	1    10250 3350
	1    0    0    1   
$EndComp
$Comp
L Connector:Conn_01x07_Male J3
U 1 1 6163870A
P 2350 3900
F 0 "J3" H 2458 4381 50  0000 C CNN
F 1 "Conn_01x07_Male" H 2458 4290 50  0000 C CNN
F 2 "Connector_PinHeader_2.54mm:PinHeader_1x07_P2.54mm_Vertical" H 2350 3900 50  0001 C CNN
F 3 "~" H 2350 3900 50  0001 C CNN
	1    2350 3900
	1    0    0    -1  
$EndComp
$Comp
L Transistor_BJT:BC847 Q1
U 1 1 61637368
P 3550 3600
F 0 "Q1" H 3741 3646 50  0000 L CNN
F 1 "BC847" H 3741 3555 50  0000 L CNN
F 2 "Package_TO_SOT_SMD:SOT-23" H 3750 3525 50  0001 L CIN
F 3 "http://www.infineon.com/dgdl/Infineon-BC847SERIES_BC848SERIES_BC849SERIES_BC850SERIES-DS-v01_01-en.pdf?fileId=db3a304314dca389011541d4630a1657" H 3550 3600 50  0001 L CNN
	1    3550 3600
	1    0    0    -1  
$EndComp
$Comp
L Transistor_BJT:BC847 Q2
U 1 1 61636A50
P 3550 4150
F 0 "Q2" H 3741 4196 50  0000 L CNN
F 1 "BC847" H 3741 4105 50  0000 L CNN
F 2 "Package_TO_SOT_SMD:SOT-23" H 3750 4075 50  0001 L CIN
F 3 "http://www.infineon.com/dgdl/Infineon-BC847SERIES_BC848SERIES_BC849SERIES_BC850SERIES-DS-v01_01-en.pdf?fileId=db3a304314dca389011541d4630a1657" H 3550 4150 50  0001 L CNN
	1    3550 4150
	1    0    0    -1  
$EndComp
$Comp
L kahiwi:PESD2CAN U1
U 1 1 6040FF53
P 1150 2000
F 0 "U1" V 1104 1988 50  0000 L CNN
F 1 "PESD2CAN" V 1195 1988 50  0000 L CNN
F 2 "Package_TO_SOT_SMD:SOT-23" H 1150 2000 50  0001 C CNN
F 3 "" H 1150 2000 50  0001 C CNN
	1    1150 2000
	-1   0    0    1   
$EndComp
$Comp
L Regulator_Linear:MCP1703A-3302_SOT89 U4
U 1 1 6041133C
P 4700 800
F 0 "U4" H 4700 1042 50  0000 C CNN
F 1 "MCP1703A-3302_SOT89" H 4700 951 50  0000 C CNN
F 2 "Package_TO_SOT_SMD:SOT-89-3_Handsoldering" H 4700 1000 50  0001 C CNN
F 3 "http://ww1.microchip.com/downloads/en/DeviceDoc/20005122B.pdf" H 4700 750 50  0001 C CNN
	1    4700 800 
	1    0    0    -1  
$EndComp
$Comp
L kahiwi:RJ45-CAN J7
U 1 1 60419BDC
P 2500 900
F 0 "J7" V 2489 420 50  0000 R CNN
F 1 "RJ45-CAN" V 2398 420 50  0000 R CNN
F 2 "Connector_RJ:RJ45_OST_PJ012-8P8CX_Vertical" V 2500 925 50  0001 C CNN
F 3 "~" V 2500 925 50  0001 C CNN
	1    2500 900 
	0    -1   -1   0   
$EndComp
$Comp
L Interface_CAN_LIN:MCP2562-E-SN U2
U 1 1 6040D403
P 2000 2300
F 0 "U2" V 1954 2744 50  0000 L CNN
F 1 "MCP2562-E-SN" V 2045 2744 50  0000 L CNN
F 2 "Package_SO:SOIC-8_3.9x4.9mm_P1.27mm" H 2000 1800 50  0001 C CIN
F 3 "http://ww1.microchip.com/downloads/en/DeviceDoc/25167A.pdf" H 2000 2300 50  0001 C CNN
	1    2000 2300
	0    -1   -1   0   
$EndComp
$Comp
L kahiwi:LM5163 U5
U 1 1 6046D257
P 2450 6450
F 0 "U5" H 2450 6565 50  0000 C CNN
F 1 "LM5163" H 2450 6474 50  0000 C CNN
F 2 "Package_SO:Texas_R-PDSO-G8_EP2.95x4.9mm_Mask2.4x3.1mm_ThermalVias" H 2450 6450 50  0001 C CNN
F 3 "" H 2450 6450 50  0001 C CNN
	1    2450 6450
	1    0    0    -1  
$EndComp
$Comp
L RF_Module:ESP32-WROOM-32 U3
U 1 1 615CF9B1
P 5300 4000
F 0 "U3" H 5300 5581 50  0000 C CNN
F 1 "ESP32-WROOM-32" H 5300 5490 50  0000 C CNN
F 2 "RF_Module:ESP32-WROOM-32" H 5300 2500 50  0001 C CNN
F 3 "https://www.espressif.com/sites/default/files/documentation/esp32-wroom-32_datasheet_en.pdf" H 5000 4050 50  0001 C CNN
	1    5300 4000
	1    0    0    -1  
$EndComp
$EndSCHEMATC
